Componentes/Multiplexador4pra1/simulation/qsim/Multiplexador4x1.msim.vcd
$comment
	File created using the following command:
		vcd file Multiplexador4x1.msim.vcd -direction
$end
$date
	Thu Oct 25 18:25:04 2018
$end
$version
	ModelSim Version 10.5b
$end
$timescale
	1ps
$end

$scope module multiplexador4x1_vhd_vec_tst $end
$var wire 1 ! A $end
$var wire 1 " B $end
$var wire 1 # C $end
$var wire 1 $ D $end
$var wire 1 % S0 $end
$var wire 1 & S1 $end
$var wire 1 ' Z $end

$scope module i1 $end
$var wire 1 ( gnd $end
$var wire 1 ) vcc $end
$var wire 1 * unknown $end
$var wire 1 + devoe $end
$var wire 1 , devclrn $end
$var wire 1 - devpor $end
$var wire 1 . ww_devoe $end
$var wire 1 / ww_devclrn $end
$var wire 1 0 ww_devpor $end
$var wire 1 1 ww_A $end
$var wire 1 2 ww_B $end
$var wire 1 3 ww_C $end
$var wire 1 4 ww_D $end
$var wire 1 5 ww_S0 $end
$var wire 1 6 ww_S1 $end
$var wire 1 7 ww_Z $end
$var wire 1 8 \Z~output_o\ $end
$var wire 1 9 \D~input_o\ $end
$var wire 1 : \C~input_o\ $end
$var wire 1 ; \B~input_o\ $end
$var wire 1 < \A~input_o\ $end
$var wire 1 = \S0~input_o\ $end
$var wire 1 > \S1~input_o\ $end
$var wire 1 ? \G3|saida~0_combout\ $end
$var wire 1 @ \ALT_INV_S1~input_o\ $end
$var wire 1 A \ALT_INV_S0~input_o\ $end
$var wire 1 B \ALT_INV_A~input_o\ $end
$var wire 1 C \ALT_INV_B~input_o\ $end
$var wire 1 D \ALT_INV_C~input_o\ $end
$var wire 1 E \ALT_INV_D~input_o\ $end
$upscope $end
$upscope $end
$enddefinitions $end
#0
$dumpvars
0!
0"
0#
0$
0%
0&
0'
0(
1)
x*
1+
1,
1-
1.
1/
10
01
02
03
04
05
06
07
08
09
0:
0;
0<
0=
0>
0?
1@
1A
1B
1C
1D
1E
$end
#20000
1"
1$
1&
12
14
16
1>
19
1;
0C
0E
0@
1?
18
17
1'
#30000
1!
1#
1%
11
13
15
1=
1:
1<
0B
0D
0A
#40000
0"
0$
0&
02
04
06
0>
09
0;
1C
1E
1@
#60000
1"
1$
1&
0!
0#
0%
12
14
16
01
03
05
0=
0:
0<
1>
19
1;
0C
0E
0@
1B
1D
1A
#80000
0"
0$
0&
02
04
06
0>
09
0;
1C
1E
1@
0?
08
07
0'
#90000
1!
1#
1%
11
13
15
1=
1:
1<
0B
0D
0A
1?
18
17
1'
#100000
1"
1$
1&
12
14
16
1>
19
1;
0C
0E
0@
#120000
0"
0$
0&
0!
0#
0%
02
04
06
01
03
05
0=
0:
0<
0>
09
0;
1C
1E
1@
1B
1D
1A
0?
08
07
0'
#140000
1"
1$
1&
12
14
16
1>
19
1;
0C
0E
0@
1?
18
17
1'
#150000
1!
1#
1%
11
13
15
1=
1:
1<
0B
0D
0A
#160000
0"
0$
0&
02
04
06
0>
09
0;
1C
1E
1@
#180000
1"
1$
1&
0!
0#
0%
12
14
16
01
03
05
0=
0:
0<
1>
19
1;
0C
0E
0@
1B
1D
1A
#200000
0"
0$
0&
02
04
06
0>
09
0;
1C
1E
1@
0?
08
07
0'
#210000
1!
1#
1%
11
13
15
1=
1:
1<
0B
0D
0A
1?
18
17
1'
#220000
1"
1$
1&
12
14
16
1>
19
1;
0C
0E
0@
#240000
0"
0$
0&
0!
0#
0%
02
04
06
01
03
05
0=
0:
0<
0>
09
0;
1C
1E
1@
1B
1D
1A
0?
08
07
0'
#260000
1"
1$
1&
12
14
16
1>
19
1;
0C
0E
0@
1?
18
17
1'
#270000
1!
1#
1%
11
13
15
1=
1:
1<
0B
0D
0A
#280000
0"
0$
0&
02
04
06
0>
09
0;
1C
1E
1@
#300000
1"
1$
1&
0!
0#
0%
12
14
16
01
03
05
0=
0:
0<
1>
19
1;
0C
0E
0@
1B
1D
1A
#320000
0"
0$
0&
02
04
06
0>
09
0;
1C
1E
1@
0?
08
07
0'
#330000
1!
1#
1%
11
13
15
1=
1:
1<
0B
0D
0A
1?
18
17
1'
#340000
1"
1$
1&
12
14
16
1>
19
1;
0C
0E
0@
#360000
0"
0$
0&
0!
0#
0%
02
04
06
01
03
05
0=
0:
0<
0>
09
0;
1C
1E
1@
1B
1D
1A
0?
08
07
0'
#380000
1"
1$
1&
12
14
16
1>
19
1;
0C
0E
0@
1?
18
17
1'
#390000
1!
1#
1%
11
13
15
1=
1:
1<
0B
0D
0A
#400000
0"
0$
0&
02
04
06
0>
09
0;
1C
1E
1@
#420000
1"
1$
1&
0!
0#
0%
12
14
16
01
03
05
0=
0:
0<
1>
19
1;
0C
0E
0@
1B
1D
1A
#440000
0"
0$
0&
02
04
06
0>
09
0;
1C
1E
1@
0?
08
07
0'
#450000
1!
1#
1%
11
13
15
1=
1:
1<
0B
0D
0A
1?
18
17
1'
#460000
1"
1$
1&
12
14
16
1>
19
1;
0C
0E
0@
#480000
0"
0$
0&
0!
0#
0%
02
04
06
01
03
05
0=
0:
0<
0>
09
0;
1C
1E
1@
1B
1D
1A
0?
08
07
0'
#500000
1"
1$
1&
12
14
16
1>
19
1;
0C
0E
0@
1?
18
17
1'
#510000
1!
1#
1%
11
13
15
1=
1:
1<
0B
0D
0A
#520000
0"
0$
0&
02
04
06
0>
09
0;
1C
1E
1@
#540000
1"
1$
1&
0!
0#
0%
12
14
16
01
03
05
0=
0:
0<
1>
19
1;
0C
0E
0@
1B
1D
1A
#560000
0"
0$
0&
02
04
06
0>
09
0;
1C
1E
1@
0?
08
07
0'
#570000
1!
1#
1%
11
13
15
1=
1:
1<
0B
0D
0A
1?
18
17
1'
#580000
1"
1$
1&
12
14
16
1>
19
1;
0C
0E
0@
#600000
0"
0$
0&
0!
0#
0%
02
04
06
01
03
05
0=
0:
0<
0>
09
0;
1C
1E
1@
1B
1D
1A
0?
08
07
0'
#620000
1"
1$
1&
12
14
16
1>
19
1;
0C
0E
0@
1?
18
17
1'
#630000
1!
1#
1%
11
13
15
1=
1:
1<
0B
0D
0A
#640000
0"
0$
0&
02
04
06
0>
09
0;
1C
1E
1@
#660000
1"
1$
1&
0!
0#
0%
12
14
16
01
03
05
0=
0:
0<
1>
19
1;
0C
0E
0@
1B
1D
1A
#680000
0"
0$
0&
02
04
06
0>
09
0;
1C
1E
1@
0?
08
07
0'
#690000
1!
1#
1%
11
13
15
1=
1:
1<
0B
0D
0A
1?
18
17
1'
#700000
1"
1$
1&
12
14
16
1>
19
1;
0C
0E
0@
#720000
0"
0$
0&
0!
0#
0%
02
04
06
01
03
05
0=
0:
0<
0>
09
0;
1C
1E
1@
1B
1D
1A
0?
08
07
0'
#740000
1"
1$
1&
12
14
16
1>
19
1;
0C
0E
0@
1?
18
17
1'
#750000
1!
1#
1%
11
13
15
1=
1:
1<
0B
0D
0A
#760000
0"
0$
0&
02
04
06
0>
09
0;
1C
1E
1@
#780000
1"
1$
1&
0!
0#
0%
12
14
16
01
03
05
0=
0:
0<
1>
19
1;
0C
0E
0@
1B
1D
1A
#800000
0"
0$
0&
02
04
06
0>
09
0;
1C
1E
1@
0?
08
07
0'
#810000
1!
1#
1%
11
13
15
1=
1:
1<
0B
0D
0A
1?
18
17
1'
#820000
1"
1$
1&
12
14
16
1>
19
1;
0C
0E
0@
#840000
0"
0$
0&
0!
0#
0%
02
04
06
01
03
05
0=
0:
0<
0>
09
0;
1C
1E
1@
1B
1D
1A
0?
08
07
0'
#860000
1"
1$
1&
12
14
16
1>
19
1;
0C
0E
0@
1?
18
17
1'
#870000
1!
1#
1%
11
13
15
1=
1:
1<
0B
0D
0A
#880000
0"
0$
0&
02
04
06
0>
09
0;
1C
1E
1@
#900000
1"
1$
1&
0!
0#
0%
12
14
16
01
03
05
0=
0:
0<
1>
19
1;
0C
0E
0@
1B
1D
1A
#920000
0"
0$
0&
02
04
06
0>
09
0;
1C
1E
1@
0?
08
07
0'
#930000
1!
1#
1%
11
13
15
1=
1:
1<
0B
0D
0A
1?
18
17
1'
#940000
1"
1$
1&
12
14
16
1>
19
1;
0C
0E
0@
#960000
0"
0$
0&
0!
0#
0%
02
04
06
01
03
05
0=
0:
0<
0>
09
0;
1C
1E
1@
1B
1D
1A
0?
08
07
0'
#980000
1"
1$
1&
12
14
16
1>
19
1;
0C
0E
0@
1?
18
17
1'
#990000
1!
1#
1%
11
13
15
1=
1:
1<
0B
0D
0A
