Componentes/MemoriaROM/simulation/qsim/MemoriaROM.msim.vcd
$comment
	File created using the following command:
		vcd file MemoriaROM.msim.vcd -direction
$end
$date
	Thu Oct 25 20:10:19 2018
$end
$version
	ModelSim Version 10.5b
$end
$timescale
	1ps
$end

$scope module memoriarom_vhd_vec_tst $end
$var wire 1 ! dado [7] $end
$var wire 1 " dado [6] $end
$var wire 1 # dado [5] $end
$var wire 1 $ dado [4] $end
$var wire 1 % dado [3] $end
$var wire 1 & dado [2] $end
$var wire 1 ' dado [1] $end
$var wire 1 ( dado [0] $end
$var wire 1 ) endereco [3] $end
$var wire 1 * endereco [2] $end
$var wire 1 + endereco [1] $end
$var wire 1 , endereco [0] $end

$scope module i1 $end
$var wire 1 - gnd $end
$var wire 1 . vcc $end
$var wire 1 / unknown $end
$var wire 1 0 devoe $end
$var wire 1 1 devclrn $end
$var wire 1 2 devpor $end
$var wire 1 3 ww_devoe $end
$var wire 1 4 ww_devclrn $end
$var wire 1 5 ww_devpor $end
$var wire 1 6 ww_endereco [3] $end
$var wire 1 7 ww_endereco [2] $end
$var wire 1 8 ww_endereco [1] $end
$var wire 1 9 ww_endereco [0] $end
$var wire 1 : ww_dado [7] $end
$var wire 1 ; ww_dado [6] $end
$var wire 1 < ww_dado [5] $end
$var wire 1 = ww_dado [4] $end
$var wire 1 > ww_dado [3] $end
$var wire 1 ? ww_dado [2] $end
$var wire 1 @ ww_dado [1] $end
$var wire 1 A ww_dado [0] $end
$var wire 1 B \dado[0]~output_o\ $end
$var wire 1 C \dado[1]~output_o\ $end
$var wire 1 D \dado[2]~output_o\ $end
$var wire 1 E \dado[3]~output_o\ $end
$var wire 1 F \dado[4]~output_o\ $end
$var wire 1 G \dado[5]~output_o\ $end
$var wire 1 H \dado[6]~output_o\ $end
$var wire 1 I \dado[7]~output_o\ $end
$var wire 1 J \endereco[0]~input_o\ $end
$var wire 1 K \endereco[1]~input_o\ $end
$var wire 1 L \endereco[2]~input_o\ $end
$var wire 1 M \endereco[3]~input_o\ $end
$var wire 1 N \Mux7~0_combout\ $end
$var wire 1 O \Mux6~0_combout\ $end
$var wire 1 P \Mux5~0_combout\ $end
$var wire 1 Q \Mux4~0_combout\ $end
$var wire 1 R \Mux3~0_combout\ $end
$var wire 1 S \Mux2~0_combout\ $end
$var wire 1 T \Mux1~0_combout\ $end
$var wire 1 U \Mux0~0_combout\ $end
$var wire 1 V \ALT_INV_endereco[0]~input_o\ $end
$var wire 1 W \ALT_INV_endereco[1]~input_o\ $end
$var wire 1 X \ALT_INV_endereco[2]~input_o\ $end
$var wire 1 Y \ALT_INV_endereco[3]~input_o\ $end
$var wire 1 Z \ALT_INV_Mux7~0_combout\ $end
$upscope $end
$upscope $end
$enddefinitions $end
#0
$dumpvars
0-
1.
x/
10
11
12
13
14
15
1B
0C
0D
0E
0F
0G
0H
0I
0J
0K
0L
0M
0N
0O
0P
0Q
0R
0S
0T
0U
1V
1W
1X
1Y
1Z
0)
0*
0+
0,
0!
0"
0#
0$
0%
0&
0'
1(
06
07
08
09
0:
0;
0<
0=
0>
0?
0@
1A
$end
#10000
1,
19
1J
0V
1N
1O
0Z
1C
0B
1@
0A
1'
0(
#20000
0,
1+
09
18
1K
0J
1V
0W
0N
1Z
1B
1A
1(
#30000
1,
19
1J
0V
1N
0O
1P
0Z
1D
0C
0B
1?
0@
0A
0'
1&
0(
#40000
0,
0+
1*
09
08
17
1L
0K
0J
1V
1W
0X
0N
1Z
1B
1A
1(
#50000
1,
19
1J
0V
1N
1O
0Z
1C
0B
1@
0A
1'
0(
#60000
0,
1+
09
18
1K
0J
1V
0W
0N
1Z
1B
1A
1(
#70000
1,
19
1J
0V
1N
0O
0P
1Q
0Z
1E
0D
0C
0B
1>
0?
0@
0A
0'
0&
1%
0(
#80000
0,
0+
0*
1)
09
08
07
16
1M
0L
0K
0J
1V
1W
1X
0Y
0N
1Z
1B
1A
1(
#90000
1,
19
1J
0V
1O
1C
1@
1'
#100000
0,
1+
09
18
1K
0J
1V
0W
0O
1R
1F
0C
1=
0@
0'
1$
#110000
1,
19
1J
0V
1N
0R
1S
1T
0Z
1H
1G
0F
0B
1;
1<
0=
0A
0$
1#
1"
0(
#120000
0,
0+
1*
09
08
17
1L
0K
0J
1V
1W
0X
1R
0S
0G
1F
0<
1=
1$
0#
#130000
1,
19
1J
0V
0Q
1S
1U
1I
1G
0E
1:
1<
0>
0%
1#
1!
#140000
0,
1+
09
18
1K
0J
1V
0W
0N
0T
0U
1Z
0I
0H
1B
0:
0;
1A
0"
0!
1(
#150000
1,
19
1J
0V
1N
1P
0S
0Z
0G
1D
0B
0<
1?
0A
1&
0#
0(
#160000
0,
0+
0*
0)
09
08
07
06
0M
0L
0K
0J
1V
1W
1X
1Y
0N
0P
0R
1Z
0F
0D
1B
0=
0?
1A
0&
0$
1(
#170000
1,
19
1J
0V
1N
1O
0Z
1C
0B
1@
0A
1'
0(
#180000
0,
1+
09
18
1K
0J
1V
0W
0N
1Z
1B
1A
1(
#190000
1,
19
1J
0V
1N
0O
1P
0Z
1D
0C
0B
1?
0@
0A
0'
1&
0(
#200000
0,
0+
1*
09
08
17
1L
0K
0J
1V
1W
0X
0N
1Z
1B
1A
1(
#210000
1,
19
1J
0V
1N
1O
0Z
1C
0B
1@
0A
1'
0(
#220000
0,
1+
09
18
1K
0J
1V
0W
0N
1Z
1B
1A
1(
#230000
1,
19
1J
0V
1N
0O
0P
1Q
0Z
1E
0D
0C
0B
1>
0?
0@
0A
0'
0&
1%
0(
#240000
0,
0+
0*
1)
09
08
07
16
1M
0L
0K
0J
1V
1W
1X
0Y
0N
1Z
1B
1A
1(
#250000
1,
19
1J
0V
1O
1C
1@
1'
#260000
0,
1+
09
18
1K
0J
1V
0W
0O
1R
1F
0C
1=
0@
0'
1$
#270000
1,
19
1J
0V
1N
0R
1S
1T
0Z
1H
1G
0F
0B
1;
1<
0=
0A
0$
1#
1"
0(
#280000
0,
0+
1*
09
08
17
1L
0K
0J
1V
1W
0X
1R
0S
0G
1F
0<
1=
1$
0#
#290000
1,
19
1J
0V
0Q
1S
1U
1I
1G
0E
1:
1<
0>
0%
1#
1!
#300000
0,
1+
09
18
1K
0J
1V
0W
0N
0T
0U
1Z
0I
0H
1B
0:
0;
1A
0"
0!
1(
#310000
1,
19
1J
0V
1N
1P
0S
0Z
0G
1D
0B
0<
1?
0A
1&
0#
0(
#320000
0,
0+
0*
0)
09
08
07
06
0M
0L
0K
0J
1V
1W
1X
1Y
0N
0P
0R
1Z
0F
0D
1B
0=
0?
1A
0&
0$
1(
#330000
1,
19
1J
0V
1N
1O
0Z
1C
0B
1@
0A
1'
0(
#340000
0,
1+
09
18
1K
0J
1V
0W
0N
1Z
1B
1A
1(
#350000
1,
19
1J
0V
1N
0O
1P
0Z
1D
0C
0B
1?
0@
0A
0'
1&
0(
#360000
0,
0+
1*
09
08
17
1L
0K
0J
1V
1W
0X
0N
1Z
1B
1A
1(
#370000
1,
19
1J
0V
1N
1O
0Z
1C
0B
1@
0A
1'
0(
#380000
0,
1+
09
18
1K
0J
1V
0W
0N
1Z
1B
1A
1(
#390000
1,
19
1J
0V
1N
0O
0P
1Q
0Z
1E
0D
0C
0B
1>
0?
0@
0A
0'
0&
1%
0(
#400000
0,
0+
0*
1)
09
08
07
16
1M
0L
0K
0J
1V
1W
1X
0Y
0N
1Z
1B
1A
1(
#410000
1,
19
1J
0V
1O
1C
1@
1'
#420000
0,
1+
09
18
1K
0J
1V
0W
0O
1R
1F
0C
1=
0@
0'
1$
#430000
1,
19
1J
0V
1N
0R
1S
1T
0Z
1H
1G
0F
0B
1;
1<
0=
0A
0$
1#
1"
0(
#440000
0,
0+
1*
09
08
17
1L
0K
0J
1V
1W
0X
1R
0S
0G
1F
0<
1=
1$
0#
#450000
1,
19
1J
0V
0Q
1S
1U
1I
1G
0E
1:
1<
0>
0%
1#
1!
#460000
0,
1+
09
18
1K
0J
1V
0W
0N
0T
0U
1Z
0I
0H
1B
0:
0;
1A
0"
0!
1(
#470000
1,
19
1J
0V
1N
1P
0S
0Z
0G
1D
0B
0<
1?
0A
1&
0#
0(
#480000
0,
0+
0*
0)
09
08
07
06
0M
0L
0K
0J
1V
1W
1X
1Y
0N
0P
0R
1Z
0F
0D
1B
0=
0?
1A
0&
0$
1(
#490000
1,
19
1J
0V
1N
1O
0Z
1C
0B
1@
0A
1'
0(
#500000
0,
1+
09
18
1K
0J
1V
0W
0N
1Z
1B
1A
1(
#510000
1,
19
1J
0V
1N
0O
1P
0Z
1D
0C
0B
1?
0@
0A
0'
1&
0(
#520000
0,
0+
1*
09
08
17
1L
0K
0J
1V
1W
0X
0N
1Z
1B
1A
1(
#530000
1,
19
1J
0V
1N
1O
0Z
1C
0B
1@
0A
1'
0(
#540000
0,
1+
09
18
1K
0J
1V
0W
0N
1Z
1B
1A
1(
#550000
1,
19
1J
0V
1N
0O
0P
1Q
0Z
1E
0D
0C
0B
1>
0?
0@
0A
0'
0&
1%
0(
#560000
0,
0+
0*
1)
09
08
07
16
1M
0L
0K
0J
1V
1W
1X
0Y
0N
1Z
1B
1A
1(
#570000
1,
19
1J
0V
1O
1C
1@
1'
#580000
0,
1+
09
18
1K
0J
1V
0W
0O
1R
1F
0C
1=
0@
0'
1$
#590000
1,
19
1J
0V
1N
0R
1S
1T
0Z
1H
1G
0F
0B
1;
1<
0=
0A
0$
1#
1"
0(
#600000
0,
0+
1*
09
08
17
1L
0K
0J
1V
1W
0X
1R
0S
0G
1F
0<
1=
1$
0#
#610000
1,
19
1J
0V
0Q
1S
1U
1I
1G
0E
1:
1<
0>
0%
1#
1!
#620000
0,
1+
09
18
1K
0J
1V
0W
0N
0T
0U
1Z
0I
0H
1B
0:
0;
1A
0"
0!
1(
#630000
1,
19
1J
0V
1N
1P
0S
0Z
0G
1D
0B
0<
1?
0A
1&
0#
0(
#640000
0,
0+
0*
0)
09
08
07
06
0M
0L
0K
0J
1V
1W
1X
1Y
0N
0P
0R
1Z
0F
0D
1B
0=
0?
1A
0&
0$
1(
#650000
1,
19
1J
0V
1N
1O
0Z
1C
0B
1@
0A
1'
0(
#660000
0,
1+
09
18
1K
0J
1V
0W
0N
1Z
1B
1A
1(
#670000
1,
19
1J
0V
1N
0O
1P
0Z
1D
0C
0B
1?
0@
0A
0'
1&
0(
#680000
0,
0+
1*
09
08
17
1L
0K
0J
1V
1W
0X
0N
1Z
1B
1A
1(
#690000
1,
19
1J
0V
1N
1O
0Z
1C
0B
1@
0A
1'
0(
#700000
0,
1+
09
18
1K
0J
1V
0W
0N
1Z
1B
1A
1(
#710000
1,
19
1J
0V
1N
0O
0P
1Q
0Z
1E
0D
0C
0B
1>
0?
0@
0A
0'
0&
1%
0(
#720000
0,
0+
0*
1)
09
08
07
16
1M
0L
0K
0J
1V
1W
1X
0Y
0N
1Z
1B
1A
1(
#730000
1,
19
1J
0V
1O
1C
1@
1'
#740000
0,
1+
09
18
1K
0J
1V
0W
0O
1R
1F
0C
1=
0@
0'
1$
#750000
1,
19
1J
0V
1N
0R
1S
1T
0Z
1H
1G
0F
0B
1;
1<
0=
0A
0$
1#
1"
0(
#760000
0,
0+
1*
09
08
17
1L
0K
0J
1V
1W
0X
1R
0S
0G
1F
0<
1=
1$
0#
#770000
1,
19
1J
0V
0Q
1S
1U
1I
1G
0E
1:
1<
0>
0%
1#
1!
#780000
0,
1+
09
18
1K
0J
1V
0W
0N
0T
0U
1Z
0I
0H
1B
0:
0;
1A
0"
0!
1(
#790000
1,
19
1J
0V
1N
1P
0S
0Z
0G
1D
0B
0<
1?
0A
1&
0#
0(
#800000
0,
0+
0*
0)
09
08
07
06
0M
0L
0K
0J
1V
1W
1X
1Y
0N
0P
0R
1Z
0F
0D
1B
0=
0?
1A
0&
0$
1(
#810000
1,
19
1J
0V
1N
1O
0Z
1C
0B
1@
0A
1'
0(
#820000
0,
1+
09
18
1K
0J
1V
0W
0N
1Z
1B
1A
1(
#830000
1,
19
1J
0V
1N
0O
1P
0Z
1D
0C
0B
1?
0@
0A
0'
1&
0(
#840000
0,
0+
1*
09
08
17
1L
0K
0J
1V
1W
0X
0N
1Z
1B
1A
1(
#850000
1,
19
1J
0V
1N
1O
0Z
1C
0B
1@
0A
1'
0(
#860000
0,
1+
09
18
1K
0J
1V
0W
0N
1Z
1B
1A
1(
#870000
1,
19
1J
0V
1N
0O
0P
1Q
0Z
1E
0D
0C
0B
1>
0?
0@
0A
0'
0&
1%
0(
#880000
0,
0+
0*
1)
09
08
07
16
1M
0L
0K
0J
1V
1W
1X
0Y
0N
1Z
1B
1A
1(
#890000
1,
19
1J
0V
1O
1C
1@
1'
#900000
0,
1+
09
18
1K
0J
1V
0W
0O
1R
1F
0C
1=
0@
0'
1$
#910000
1,
19
1J
0V
1N
0R
1S
1T
0Z
1H
1G
0F
0B
1;
1<
0=
0A
0$
1#
1"
0(
#920000
0,
0+
1*
09
08
17
1L
0K
0J
1V
1W
0X
1R
0S
0G
1F
0<
1=
1$
0#
#930000
1,
19
1J
0V
0Q
1S
1U
1I
1G
0E
1:
1<
0>
0%
1#
1!
#940000
0,
1+
09
18
1K
0J
1V
0W
0N
0T
0U
1Z
0I
0H
1B
0:
0;
1A
0"
0!
1(
#950000
1,
19
1J
0V
1N
1P
0S
0Z
0G
1D
0B
0<
1?
0A
1&
0#
0(
#960000
0,
0+
0*
0)
09
08
07
06
0M
0L
0K
0J
1V
1W
1X
1Y
0N
0P
0R
1Z
0F
0D
1B
0=
0?
1A
0&
0$
1(
#970000
1,
19
1J
0V
1N
1O
0Z
1C
0B
1@
0A
1'
0(
#980000
0,
1+
09
18
1K
0J
1V
0W
0N
1Z
1B
1A
1(
#990000
1,
19
1J
0V
1N
0O
1P
0Z
1D
0C
0B
1?
0@
0A
0'
1&
0(
