Componentes/FlipFlopD/simulation/qsim/flipflopD.msim.vcd
$comment
	File created using the following command:
		vcd file flipflopD.msim.vcd -direction
$end
$date
	Fri Oct 26 11:41:08 2018
$end
$version
	ModelSim Version 10.5b
$end
$timescale
	1ps
$end

$scope module flipflopd_vhd_vec_tst $end
$var wire 1 ! clock $end
$var wire 1 " D $end
$var wire 1 # Q0 $end
$var wire 1 $ Q1 $end

$scope module i1 $end
$var wire 1 % gnd $end
$var wire 1 & vcc $end
$var wire 1 ' unknown $end
$var wire 1 ( devoe $end
$var wire 1 ) devclrn $end
$var wire 1 * devpor $end
$var wire 1 + ww_devoe $end
$var wire 1 , ww_devclrn $end
$var wire 1 - ww_devpor $end
$var wire 1 . ww_D $end
$var wire 1 / ww_clock $end
$var wire 1 0 ww_Q0 $end
$var wire 1 1 ww_Q1 $end
$var wire 1 2 \Q0~output_o\ $end
$var wire 1 3 \Q1~output_o\ $end
$var wire 1 4 \D~input_o\ $end
$var wire 1 5 \clock~input_o\ $end
$var wire 1 6 \G9|SA~1_combout\ $end
$var wire 1 7 \G7|SA~combout\ $end
$var wire 1 8 \ALT_INV_clock~input_o\ $end
$var wire 1 9 \ALT_INV_D~input_o\ $end
$var wire 1 : \G9|ALT_INV_SA~1_combout\ $end
$upscope $end
$upscope $end
$enddefinitions $end
#0
$dumpvars
0!
0"
x#
x$
0%
1&
x'
1(
1)
1*
1+
1,
1-
0.
0/
x0
x1
x2
x3
04
05
x6
x7
18
19
x:
$end
#20000
1"
1.
14
09
#40000
0"
0.
04
19
#50000
1!
1/
15
08
06
1:
07
12
10
03
1#
01
0$
#60000
1"
1.
14
09
16
17
0:
13
02
11
00
1$
0#
#80000
0"
0.
04
19
06
1:
07
12
10
03
1#
01
0$
#100000
1"
0!
1.
0/
05
14
09
18
#120000
0"
0.
04
19
#140000
1"
1.
14
09
#150000
1!
1/
15
08
16
17
0:
13
02
11
00
1$
0#
#160000
0"
0.
04
19
06
1:
07
12
10
03
1#
01
0$
#180000
1"
1.
14
09
16
17
0:
13
02
11
00
1$
0#
#200000
0"
0!
0.
0/
05
04
19
18
#220000
1"
1.
14
09
#240000
0"
0.
04
19
#250000
1!
1/
15
08
06
1:
07
12
10
03
1#
01
0$
#260000
1"
1.
14
09
16
17
0:
13
02
11
00
1$
0#
#280000
0"
0.
04
19
06
1:
07
12
10
03
1#
01
0$
#300000
1"
0!
1.
0/
05
14
09
18
#320000
0"
0.
04
19
#340000
1"
1.
14
09
#350000
1!
1/
15
08
16
17
0:
13
02
11
00
1$
0#
#360000
0"
0.
04
19
06
1:
07
12
10
03
1#
01
0$
#380000
1"
1.
14
09
16
17
0:
13
02
11
00
1$
0#
#400000
0"
0!
0.
0/
05
04
19
18
#420000
1"
1.
14
09
#440000
0"
0.
04
19
#450000
1!
1/
15
08
06
1:
07
12
10
03
1#
01
0$
#460000
1"
1.
14
09
16
17
0:
13
02
11
00
1$
0#
#480000
0"
0.
04
19
06
1:
07
12
10
03
1#
01
0$
#500000
1"
0!
1.
0/
05
14
09
18
#520000
0"
0.
04
19
#540000
1"
1.
14
09
#550000
1!
1/
15
08
16
17
0:
13
02
11
00
1$
0#
#560000
0"
0.
04
19
06
1:
07
12
10
03
1#
01
0$
#580000
1"
1.
14
09
16
17
0:
13
02
11
00
1$
0#
#600000
0"
0!
0.
0/
05
04
19
18
#620000
1"
1.
14
09
#640000
0"
0.
04
19
#650000
1!
1/
15
08
06
1:
07
12
10
03
1#
01
0$
#660000
1"
1.
14
09
16
17
0:
13
02
11
00
1$
0#
#680000
0"
0.
04
19
06
1:
07
12
10
03
1#
01
0$
#700000
1"
0!
1.
0/
05
14
09
18
#720000
0"
0.
04
19
#740000
1"
1.
14
09
#750000
1!
1/
15
08
16
17
0:
13
02
11
00
1$
0#
#760000
0"
0.
04
19
06
1:
07
12
10
03
1#
01
0$
#780000
1"
1.
14
09
16
17
0:
13
02
11
00
1$
0#
#800000
0"
0!
0.
0/
05
04
19
18
#820000
1"
1.
14
09
#840000
0"
0.
04
19
#850000
1!
1/
15
08
06
1:
07
12
10
03
1#
01
0$
#860000
1"
1.
14
09
16
17
0:
13
02
11
00
1$
0#
#880000
0"
0.
04
19
06
1:
07
12
10
03
1#
01
0$
#900000
1"
0!
1.
0/
05
14
09
18
#920000
0"
0.
04
19
#940000
1"
1.
14
09
#950000
1!
1/
15
08
16
17
0:
13
02
11
00
1$
0#
#960000
0"
0.
04
19
06
1:
07
12
10
03
1#
01
0$
#980000
1"
1.
14
09
16
17
0:
13
02
11
00
1$
0#
