Componentes/MaquinaEstado/simulation/qsim/MaquinaEstado.msim.vcd
$comment
	File created using the following command:
		vcd file MaquinaEstado.msim.vcd -direction
$end
$date
	Fri Oct 26 16:00:18 2018
$end
$version
	ModelSim Version 10.5b
$end
$timescale
	1ps
$end

$scope module maquinaestado_vhd_vec_tst $end
$var wire 1 ! Clock $end
$var wire 1 " P $end
$var wire 1 # R $end
$var wire 1 $ Start $end

$scope module i1 $end
$var wire 1 % gnd $end
$var wire 1 & vcc $end
$var wire 1 ' unknown $end
$var wire 1 ( devoe $end
$var wire 1 ) devclrn $end
$var wire 1 * devpor $end
$var wire 1 + ww_devoe $end
$var wire 1 , ww_devclrn $end
$var wire 1 - ww_devpor $end
$var wire 1 . ww_Clock $end
$var wire 1 / ww_P $end
$var wire 1 0 ww_Start $end
$var wire 1 1 ww_R $end
$var wire 1 2 \R~output_o\ $end
$var wire 1 3 \Clock~input_o\ $end
$var wire 1 4 \P~input_o\ $end
$var wire 1 5 \Selector2~0_combout\ $end
$var wire 1 6 \Start~input_o\ $end
$var wire 1 7 \state.A~q\ $end
$var wire 1 8 \Selector1~0_combout\ $end
$var wire 1 9 \state.B~q\ $end
$var wire 1 : \state~10_combout\ $end
$var wire 1 ; \state.C~q\ $end
$var wire 1 < \Selector0~0_combout\ $end
$var wire 1 = \state.D~q\ $end
$var wire 1 > \ALT_INV_state.D~q\ $end
$var wire 1 ? \ALT_INV_state.C~q\ $end
$var wire 1 @ \ALT_INV_state.A~q\ $end
$var wire 1 A \ALT_INV_state.B~q\ $end
$var wire 1 B \ALT_INV_P~input_o\ $end
$var wire 1 C \ALT_INV_Start~input_o\ $end
$upscope $end
$upscope $end
$enddefinitions $end
#0
$dumpvars
0!
1"
0#
0$
0%
1&
x'
1(
1)
1*
1+
1,
1-
0.
1/
00
01
02
03
14
15
06
07
18
09
0:
0;
0<
0=
1>
1?
1@
1A
0B
1C
$end
#10000
1!
1.
13
17
19
0A
0@
08
1:
#20000
0!
0.
03
#30000
1!
1.
13
09
1;
0?
1A
0:
1<
#40000
0!
0.
03
#50000
1!
1.
13
0;
1=
0>
1?
0<
18
12
11
1#
#60000
0!
0.
03
#70000
1!
1.
13
19
0=
1>
0A
1:
08
02
01
0#
#80000
0!
0.
03
#90000
1!
1.
13
09
1;
0?
1A
0:
1<
#100000
0!
1$
0.
10
16
03
0C
07
0;
1?
1@
18
0<
#110000
1!
1.
13
#120000
0!
0.
03
#130000
1!
1.
13
#140000
0!
0.
03
#150000
1!
1.
13
#160000
0!
0.
03
#170000
1!
1.
13
#180000
0!
0.
03
#190000
1!
1.
13
#200000
0!
0$
0.
00
06
03
1C
#210000
1!
1.
13
17
19
0A
0@
08
1:
#220000
0!
0.
03
#230000
1!
1.
13
09
1;
0?
1A
0:
1<
#240000
0!
0.
03
#250000
1!
1.
13
0;
1=
0>
1?
0<
18
12
11
1#
#260000
0!
0.
03
#270000
1!
1.
13
19
0=
1>
0A
1:
08
02
01
0#
#280000
0!
0.
03
#290000
1!
1.
13
09
1;
0?
1A
0:
1<
#300000
0!
1$
0.
10
16
03
0C
07
0;
1?
1@
18
0<
#310000
1!
1.
13
#320000
0!
0.
03
#330000
1!
1.
13
#340000
0!
0.
03
#350000
1!
1.
13
#360000
0!
0.
03
#370000
1!
1.
13
#380000
0!
0.
03
#390000
1!
1.
13
#400000
0!
0$
0.
00
06
03
1C
#410000
1!
1.
13
17
19
0A
0@
08
1:
#420000
0!
0.
03
#430000
1!
1.
13
09
1;
0?
1A
0:
1<
#440000
0!
0.
03
#450000
1!
1.
13
0;
1=
0>
1?
0<
18
12
11
1#
#460000
0!
0.
03
#470000
1!
1.
13
19
0=
1>
0A
1:
08
02
01
0#
#480000
0!
0.
03
#490000
1!
1.
13
09
1;
0?
1A
0:
1<
#500000
0!
1$
0.
10
16
03
0C
07
0;
1?
1@
18
0<
#510000
1!
1.
13
#520000
0!
0.
03
#530000
1!
1.
13
#540000
0!
0.
03
#550000
1!
1.
13
#560000
0!
0.
03
#570000
1!
1.
13
#580000
0!
0.
03
#590000
1!
1.
13
#600000
0!
0$
0.
00
06
03
1C
#610000
1!
1.
13
17
19
0A
0@
08
1:
#620000
0!
0.
03
#630000
1!
1.
13
09
1;
0?
1A
0:
1<
#640000
0!
0.
03
#650000
1!
1.
13
0;
1=
0>
1?
0<
18
12
11
1#
#660000
0!
0.
03
#670000
1!
1.
13
19
0=
1>
0A
1:
08
02
01
0#
#680000
0!
0.
03
#690000
1!
1.
13
09
1;
0?
1A
0:
1<
#700000
0!
1$
0.
10
16
03
0C
07
0;
1?
1@
18
0<
#710000
1!
1.
13
#720000
0!
0.
03
#730000
1!
1.
13
#740000
0!
0.
03
#750000
1!
1.
13
#760000
0!
0.
03
#770000
1!
1.
13
#780000
0!
0.
03
#790000
1!
1.
13
#800000
0!
0$
0.
00
06
03
1C
#810000
1!
1.
13
17
19
0A
0@
08
1:
#820000
0!
0.
03
#830000
1!
1.
13
09
1;
0?
1A
0:
1<
#840000
0!
0.
03
#850000
1!
1.
13
0;
1=
0>
1?
0<
18
12
11
1#
#860000
0!
0.
03
#870000
1!
1.
13
19
0=
1>
0A
1:
08
02
01
0#
#880000
0!
0.
03
#890000
1!
1.
13
09
1;
0?
1A
0:
1<
#900000
0!
1$
0.
10
16
03
0C
07
0;
1?
1@
18
0<
#910000
1!
1.
13
#920000
0!
0.
03
#930000
1!
1.
13
#940000
0!
0.
03
#950000
1!
1.
13
#960000
0!
0.
03
#970000
1!
1.
13
#980000
0!
0.
03
#990000
1!
1.
13
