Componentes/FlipFlopJK/simulation/qsim/FlipFlopJK.msim.vcd
$comment
	File created using the following command:
		vcd file FlipFlopJK.msim.vcd -direction
$end
$date
	Fri Oct 26 11:43:36 2018
$end
$version
	ModelSim Version 10.5b
$end
$timescale
	1ps
$end

$scope module flipflopjk_vhd_vec_tst $end
$var wire 1 ! clock $end
$var wire 1 " J $end
$var wire 1 # K $end
$var wire 1 $ Q0 $end
$var wire 1 % Q1 $end

$scope module i1 $end
$var wire 1 & gnd $end
$var wire 1 ' vcc $end
$var wire 1 ( unknown $end
$var wire 1 ) devoe $end
$var wire 1 * devclrn $end
$var wire 1 + devpor $end
$var wire 1 , ww_devoe $end
$var wire 1 - ww_devclrn $end
$var wire 1 . ww_devpor $end
$var wire 1 / ww_J $end
$var wire 1 0 ww_K $end
$var wire 1 1 ww_clock $end
$var wire 1 2 ww_Q0 $end
$var wire 1 3 ww_Q1 $end
$var wire 1 4 \Q0~output_o\ $end
$var wire 1 5 \Q1~output_o\ $end
$var wire 1 6 \J~input_o\ $end
$var wire 1 7 \clock~input_o\ $end
$var wire 1 8 \K~input_o\ $end
$var wire 1 9 \G9|SA~combout\ $end
$var wire 1 : \G7|SA~combout\ $end
$var wire 1 ; \ALT_INV_K~input_o\ $end
$var wire 1 < \ALT_INV_clock~input_o\ $end
$var wire 1 = \ALT_INV_J~input_o\ $end
$var wire 1 > \G9|ALT_INV_SA~combout\ $end
$upscope $end
$upscope $end
$enddefinitions $end
#0
$dumpvars
0!
0"
0#
x$
x%
0&
1'
x(
1)
1*
1+
1,
1-
1.
0/
00
01
x2
x3
x4
x5
06
07
08
x9
x:
1;
1<
1=
x>
$end
#10000
1"
1/
16
0=
#20000
0"
1#
0/
10
18
06
1=
0;
#30000
1"
1/
16
0=
#40000
0"
0#
0/
00
08
06
1=
1;
#50000
1"
1!
1/
11
17
16
0=
0<
19
1:
0>
15
04
13
02
1%
0$
#60000
0"
1#
0/
10
18
06
1=
0;
09
1>
0:
14
12
05
1$
03
0%
#70000
1"
1/
16
0=
1:
15
13
1%
#80000
0"
0#
0/
00
08
06
1=
1;
0:
05
03
0%
#90000
1"
1/
16
0=
19
1:
0>
15
04
13
02
1%
0$
#100000
0"
1#
0!
0/
10
01
07
18
06
1=
0;
1<
#110000
1"
1/
16
0=
#120000
0"
0#
0/
00
08
06
1=
1;
#130000
1"
1/
16
0=
#140000
0"
1#
0/
10
18
06
1=
0;
#150000
1"
1!
1/
11
17
16
0=
0<
09
1>
14
12
1$
#160000
0"
0#
0/
00
08
06
1=
1;
0:
05
03
0%
#170000
1"
1/
16
0=
19
1:
0>
15
04
13
02
1%
0$
#180000
0"
1#
0/
10
18
06
1=
0;
09
1>
0:
14
12
05
1$
03
0%
#190000
1"
1/
16
0=
1:
15
13
1%
#200000
0"
0#
0!
0/
00
01
07
08
06
1=
1;
1<
0:
05
03
0%
#210000
1"
1/
16
0=
#220000
0"
1#
0/
10
18
06
1=
0;
#230000
1"
1/
16
0=
#240000
0"
0#
0/
00
08
06
1=
1;
#250000
1"
1!
1/
11
17
16
0=
0<
19
1:
0>
15
04
13
02
1%
0$
#260000
0"
1#
0/
10
18
06
1=
0;
09
1>
0:
14
12
05
1$
03
0%
#270000
1"
1/
16
0=
1:
15
13
1%
#280000
0"
0#
0/
00
08
06
1=
1;
0:
05
03
0%
#290000
1"
1/
16
0=
19
1:
0>
15
04
13
02
1%
0$
#300000
0"
1#
0!
0/
10
01
07
18
06
1=
0;
1<
#310000
1"
1/
16
0=
#320000
0"
0#
0/
00
08
06
1=
1;
#330000
1"
1/
16
0=
#340000
0"
1#
0/
10
18
06
1=
0;
#350000
1"
1!
1/
11
17
16
0=
0<
09
1>
14
12
1$
#360000
0"
0#
0/
00
08
06
1=
1;
0:
05
03
0%
#370000
1"
1/
16
0=
19
1:
0>
15
04
13
02
1%
0$
#380000
0"
1#
0/
10
18
06
1=
0;
09
1>
0:
14
12
05
1$
03
0%
#390000
1"
1/
16
0=
1:
15
13
1%
#400000
0"
0#
0!
0/
00
01
07
08
06
1=
1;
1<
0:
05
03
0%
#410000
1"
1/
16
0=
#420000
0"
1#
0/
10
18
06
1=
0;
#430000
1"
1/
16
0=
#440000
0"
0#
0/
00
08
06
1=
1;
#450000
1"
1!
1/
11
17
16
0=
0<
19
1:
0>
15
04
13
02
1%
0$
#460000
0"
1#
0/
10
18
06
1=
0;
09
1>
0:
14
12
05
1$
03
0%
#470000
1"
1/
16
0=
1:
15
13
1%
#480000
0"
0#
0/
00
08
06
1=
1;
0:
05
03
0%
#490000
1"
1/
16
0=
19
1:
0>
15
04
13
02
1%
0$
#500000
0"
1#
0!
0/
10
01
07
18
06
1=
0;
1<
#510000
1"
1/
16
0=
#520000
0"
0#
0/
00
08
06
1=
1;
#530000
1"
1/
16
0=
#540000
0"
1#
0/
10
18
06
1=
0;
#550000
1"
1!
1/
11
17
16
0=
0<
09
1>
14
12
1$
#560000
0"
0#
0/
00
08
06
1=
1;
0:
05
03
0%
#570000
1"
1/
16
0=
19
1:
0>
15
04
13
02
1%
0$
#580000
0"
1#
0/
10
18
06
1=
0;
09
1>
0:
14
12
05
1$
03
0%
#590000
1"
1/
16
0=
1:
15
13
1%
#600000
0"
0#
0!
0/
00
01
07
08
06
1=
1;
1<
0:
05
03
0%
#610000
1"
1/
16
0=
#620000
0"
1#
0/
10
18
06
1=
0;
#630000
1"
1/
16
0=
#640000
0"
0#
0/
00
08
06
1=
1;
#650000
1"
1!
1/
11
17
16
0=
0<
19
1:
0>
15
04
13
02
1%
0$
#660000
0"
1#
0/
10
18
06
1=
0;
09
1>
0:
14
12
05
1$
03
0%
#670000
1"
1/
16
0=
1:
15
13
1%
#680000
0"
0#
0/
00
08
06
1=
1;
0:
05
03
0%
#690000
1"
1/
16
0=
19
1:
0>
15
04
13
02
1%
0$
#700000
0"
1#
0!
0/
10
01
07
18
06
1=
0;
1<
#710000
1"
1/
16
0=
#720000
0"
0#
0/
00
08
06
1=
1;
#730000
1"
1/
16
0=
#740000
0"
1#
0/
10
18
06
1=
0;
#750000
1"
1!
1/
11
17
16
0=
0<
09
1>
14
12
1$
#760000
0"
0#
0/
00
08
06
1=
1;
0:
05
03
0%
#770000
1"
1/
16
0=
19
1:
0>
15
04
13
02
1%
0$
#780000
0"
1#
0/
10
18
06
1=
0;
09
1>
0:
14
12
05
1$
03
0%
#790000
1"
1/
16
0=
1:
15
13
1%
#800000
0"
0#
0!
0/
00
01
07
08
06
1=
1;
1<
0:
05
03
0%
#810000
1"
1/
16
0=
#820000
0"
1#
0/
10
18
06
1=
0;
#830000
1"
1/
16
0=
#840000
0"
0#
0/
00
08
06
1=
1;
#850000
1"
1!
1/
11
17
16
0=
0<
19
1:
0>
15
04
13
02
1%
0$
#860000
0"
1#
0/
10
18
06
1=
0;
09
1>
0:
14
12
05
1$
03
0%
#870000
1"
1/
16
0=
1:
15
13
1%
#880000
0"
0#
0/
00
08
06
1=
1;
0:
05
03
0%
#890000
1"
1/
16
0=
19
1:
0>
15
04
13
02
1%
0$
#900000
0"
1#
0!
0/
10
01
07
18
06
1=
0;
1<
#910000
1"
1/
16
0=
#920000
0"
0#
0/
00
08
06
1=
1;
#930000
1"
1/
16
0=
#940000
0"
1#
0/
10
18
06
1=
0;
#950000
1"
1!
1/
11
17
16
0=
0<
09
1>
14
12
1$
#960000
0"
0#
0/
00
08
06
1=
1;
0:
05
03
0%
#970000
1"
1/
16
0=
19
1:
0>
15
04
13
02
1%
0$
#980000
0"
1#
0/
10
18
06
1=
0;
09
1>
0:
14
12
05
1$
03
0%
#990000
1"
1/
16
0=
1:
15
13
1%
