Componentes/Extensor de Sinal/simulation/qsim/ExtensorDeSinal.msim.vcd
$comment
	File created using the following command:
		vcd file ExtensorDeSinal.msim.vcd -direction
$end
$date
	Wed Oct 24 18:05:11 2018
$end
$version
	ModelSim Version 10.5b
$end
$timescale
	1ps
$end

$scope module extensordesinal_8_16_vhd_vec_tst $end
$var wire 1 ! data_in [7] $end
$var wire 1 " data_in [6] $end
$var wire 1 # data_in [5] $end
$var wire 1 $ data_in [4] $end
$var wire 1 % data_in [3] $end
$var wire 1 & data_in [2] $end
$var wire 1 ' data_in [1] $end
$var wire 1 ( data_in [0] $end
$var wire 1 ) data_out [15] $end
$var wire 1 * data_out [14] $end
$var wire 1 + data_out [13] $end
$var wire 1 , data_out [12] $end
$var wire 1 - data_out [11] $end
$var wire 1 . data_out [10] $end
$var wire 1 / data_out [9] $end
$var wire 1 0 data_out [8] $end
$var wire 1 1 data_out [7] $end
$var wire 1 2 data_out [6] $end
$var wire 1 3 data_out [5] $end
$var wire 1 4 data_out [4] $end
$var wire 1 5 data_out [3] $end
$var wire 1 6 data_out [2] $end
$var wire 1 7 data_out [1] $end
$var wire 1 8 data_out [0] $end

$scope module i1 $end
$var wire 1 9 gnd $end
$var wire 1 : vcc $end
$var wire 1 ; unknown $end
$var wire 1 < devoe $end
$var wire 1 = devclrn $end
$var wire 1 > devpor $end
$var wire 1 ? ww_devoe $end
$var wire 1 @ ww_devclrn $end
$var wire 1 A ww_devpor $end
$var wire 1 B ww_data_in [7] $end
$var wire 1 C ww_data_in [6] $end
$var wire 1 D ww_data_in [5] $end
$var wire 1 E ww_data_in [4] $end
$var wire 1 F ww_data_in [3] $end
$var wire 1 G ww_data_in [2] $end
$var wire 1 H ww_data_in [1] $end
$var wire 1 I ww_data_in [0] $end
$var wire 1 J ww_data_out [15] $end
$var wire 1 K ww_data_out [14] $end
$var wire 1 L ww_data_out [13] $end
$var wire 1 M ww_data_out [12] $end
$var wire 1 N ww_data_out [11] $end
$var wire 1 O ww_data_out [10] $end
$var wire 1 P ww_data_out [9] $end
$var wire 1 Q ww_data_out [8] $end
$var wire 1 R ww_data_out [7] $end
$var wire 1 S ww_data_out [6] $end
$var wire 1 T ww_data_out [5] $end
$var wire 1 U ww_data_out [4] $end
$var wire 1 V ww_data_out [3] $end
$var wire 1 W ww_data_out [2] $end
$var wire 1 X ww_data_out [1] $end
$var wire 1 Y ww_data_out [0] $end
$var wire 1 Z \data_out[0]~output_o\ $end
$var wire 1 [ \data_out[1]~output_o\ $end
$var wire 1 \ \data_out[2]~output_o\ $end
$var wire 1 ] \data_out[3]~output_o\ $end
$var wire 1 ^ \data_out[4]~output_o\ $end
$var wire 1 _ \data_out[5]~output_o\ $end
$var wire 1 ` \data_out[6]~output_o\ $end
$var wire 1 a \data_out[7]~output_o\ $end
$var wire 1 b \data_out[8]~output_o\ $end
$var wire 1 c \data_out[9]~output_o\ $end
$var wire 1 d \data_out[10]~output_o\ $end
$var wire 1 e \data_out[11]~output_o\ $end
$var wire 1 f \data_out[12]~output_o\ $end
$var wire 1 g \data_out[13]~output_o\ $end
$var wire 1 h \data_out[14]~output_o\ $end
$var wire 1 i \data_out[15]~output_o\ $end
$var wire 1 j \data_in[0]~input_o\ $end
$var wire 1 k \data_in[1]~input_o\ $end
$var wire 1 l \data_in[2]~input_o\ $end
$var wire 1 m \data_in[3]~input_o\ $end
$var wire 1 n \data_in[4]~input_o\ $end
$var wire 1 o \data_in[5]~input_o\ $end
$var wire 1 p \data_in[6]~input_o\ $end
$var wire 1 q \data_in[7]~input_o\ $end
$upscope $end
$upscope $end
$enddefinitions $end
#0
$dumpvars
09
1:
x;
1<
1=
1>
1?
1@
1A
0Z
0[
0\
0]
0^
0_
0`
0a
0b
0c
0d
0e
0f
0g
0h
0i
0j
0k
0l
0m
0n
0o
0p
0q
0!
0"
0#
0$
0%
0&
0'
0(
0)
0*
0+
0,
0-
0.
0/
00
01
02
03
04
05
06
07
08
0B
0C
0D
0E
0F
0G
0H
0I
0J
0K
0L
0M
0N
0O
0P
0Q
0R
0S
0T
0U
0V
0W
0X
0Y
$end
#500
1(
1I
1j
1Z
1Y
18
#1000
0(
1'
0I
1H
1k
0j
0Z
1[
0Y
1X
08
17
#1500
1(
1I
1j
1Z
1Y
18
#2000
0(
0'
1&
0I
0H
1G
1l
0k
0j
0Z
0[
1\
0Y
0X
1W
08
07
16
#2500
1(
1I
1j
1Z
1Y
18
#3000
0(
1'
0I
1H
1k
0j
0Z
1[
0Y
1X
08
17
#3500
1(
1I
1j
1Z
1Y
18
#4000
0(
0'
0&
1%
0I
0H
0G
1F
1m
0l
0k
0j
0Z
0[
0\
1]
0Y
0X
0W
1V
08
07
06
15
#4500
1(
1I
1j
1Z
1Y
18
#5000
0(
1'
0I
1H
1k
0j
0Z
1[
0Y
1X
08
17
#5500
1(
1I
1j
1Z
1Y
18
#6000
0(
0'
1&
0I
0H
1G
1l
0k
0j
0Z
0[
1\
0Y
0X
1W
08
07
16
#6500
1(
1I
1j
1Z
1Y
18
#7000
0(
1'
0I
1H
1k
0j
0Z
1[
0Y
1X
08
17
#7500
1(
1I
1j
1Z
1Y
18
#8000
0(
0'
0&
0%
1$
0I
0H
0G
0F
1E
1n
0m
0l
0k
0j
0Z
0[
0\
0]
1^
0Y
0X
0W
0V
1U
08
07
06
05
14
#8500
1(
1I
1j
1Z
1Y
18
#9000
0(
1'
0I
1H
1k
0j
0Z
1[
0Y
1X
08
17
#9500
1(
1I
1j
1Z
1Y
18
#10000
0(
0'
1&
0I
0H
1G
1l
0k
0j
0Z
0[
1\
0Y
0X
1W
08
07
16
#10500
1(
1I
1j
1Z
1Y
18
#11000
0(
1'
0I
1H
1k
0j
0Z
1[
0Y
1X
08
17
#11500
1(
1I
1j
1Z
1Y
18
#12000
0(
0'
0&
1%
0I
0H
0G
1F
1m
0l
0k
0j
0Z
0[
0\
1]
0Y
0X
0W
1V
08
07
06
15
#12500
1(
1I
1j
1Z
1Y
18
#13000
0(
1'
0I
1H
1k
0j
0Z
1[
0Y
1X
08
17
#13500
1(
1I
1j
1Z
1Y
18
#14000
0(
0'
1&
0I
0H
1G
1l
0k
0j
0Z
0[
1\
0Y
0X
1W
08
07
16
#14500
1(
1I
1j
1Z
1Y
18
#15000
0(
1'
0I
1H
1k
0j
0Z
1[
0Y
1X
08
17
#15500
1(
1I
1j
1Z
1Y
18
#16000
0(
0'
0&
0%
0$
1#
0I
0H
0G
0F
0E
1D
1o
0n
0m
0l
0k
0j
0Z
0[
0\
0]
0^
1_
0Y
0X
0W
0V
0U
1T
08
07
06
05
04
13
#16500
1(
1I
1j
1Z
1Y
18
#17000
0(
1'
0I
1H
1k
0j
0Z
1[
0Y
1X
08
17
#17500
1(
1I
1j
1Z
1Y
18
#18000
0(
0'
1&
0I
0H
1G
1l
0k
0j
0Z
0[
1\
0Y
0X
1W
08
07
16
#18500
1(
1I
1j
1Z
1Y
18
#19000
0(
1'
0I
1H
1k
0j
0Z
1[
0Y
1X
08
17
#19500
1(
1I
1j
1Z
1Y
18
#20000
0(
0'
0&
1%
0I
0H
0G
1F
1m
0l
0k
0j
0Z
0[
0\
1]
0Y
0X
0W
1V
08
07
06
15
#20500
1(
1I
1j
1Z
1Y
18
#21000
0(
1'
0I
1H
1k
0j
0Z
1[
0Y
1X
08
17
#21500
1(
1I
1j
1Z
1Y
18
#22000
0(
0'
1&
0I
0H
1G
1l
0k
0j
0Z
0[
1\
0Y
0X
1W
08
07
16
#22500
1(
1I
1j
1Z
1Y
18
#23000
0(
1'
0I
1H
1k
0j
0Z
1[
0Y
1X
08
17
#23500
1(
1I
1j
1Z
1Y
18
#24000
0(
0'
0&
0%
1$
0I
0H
0G
0F
1E
1n
0m
0l
0k
0j
0Z
0[
0\
0]
1^
0Y
0X
0W
0V
1U
08
07
06
05
14
#24500
1(
1I
1j
1Z
1Y
18
#25000
0(
1'
0I
1H
1k
0j
0Z
1[
0Y
1X
08
17
#25500
1(
1I
1j
1Z
1Y
18
#26000
0(
0'
1&
0I
0H
1G
1l
0k
0j
0Z
0[
1\
0Y
0X
1W
08
07
16
#26500
1(
1I
1j
1Z
1Y
18
#27000
0(
1'
0I
1H
1k
0j
0Z
1[
0Y
1X
08
17
#27500
1(
1I
1j
1Z
1Y
18
#28000
0(
0'
0&
1%
0I
0H
0G
1F
1m
0l
0k
0j
0Z
0[
0\
1]
0Y
0X
0W
1V
08
07
06
15
#28500
1(
1I
1j
1Z
1Y
18
#29000
0(
1'
0I
1H
1k
0j
0Z
1[
0Y
1X
08
17
#29500
1(
1I
1j
1Z
1Y
18
#30000
0(
0'
1&
0I
0H
1G
1l
0k
0j
0Z
0[
1\
0Y
0X
1W
08
07
16
#30500
1(
1I
1j
1Z
1Y
18
#31000
0(
1'
0I
1H
1k
0j
0Z
1[
0Y
1X
08
17
#31500
1(
1I
1j
1Z
1Y
18
#32000
0(
0'
0&
0%
0$
0#
1"
0I
0H
0G
0F
0E
0D
1C
1p
0o
0n
0m
0l
0k
0j
0Z
0[
0\
0]
0^
0_
1`
0Y
0X
0W
0V
0U
0T
1S
08
07
06
05
04
03
12
#32500
1(
1I
1j
1Z
1Y
18
#33000
0(
1'
0I
1H
1k
0j
0Z
1[
0Y
1X
08
17
#33500
1(
1I
1j
1Z
1Y
18
#34000
0(
0'
1&
0I
0H
1G
1l
0k
0j
0Z
0[
1\
0Y
0X
1W
08
07
16
#34500
1(
1I
1j
1Z
1Y
18
#35000
0(
1'
0I
1H
1k
0j
0Z
1[
0Y
1X
08
17
#35500
1(
1I
1j
1Z
1Y
18
#36000
0(
0'
0&
1%
0I
0H
0G
1F
1m
0l
0k
0j
0Z
0[
0\
1]
0Y
0X
0W
1V
08
07
06
15
#36500
1(
1I
1j
1Z
1Y
18
#37000
0(
1'
0I
1H
1k
0j
0Z
1[
0Y
1X
08
17
#37500
1(
1I
1j
1Z
1Y
18
#38000
0(
0'
1&
0I
0H
1G
1l
0k
0j
0Z
0[
1\
0Y
0X
1W
08
07
16
#38500
1(
1I
1j
1Z
1Y
18
#39000
0(
1'
0I
1H
1k
0j
0Z
1[
0Y
1X
08
17
#39500
1(
1I
1j
1Z
1Y
18
#40000
0(
0'
0&
0%
1$
0I
0H
0G
0F
1E
1n
0m
0l
0k
0j
0Z
0[
0\
0]
1^
0Y
0X
0W
0V
1U
08
07
06
05
14
#40500
1(
1I
1j
1Z
1Y
18
#41000
0(
1'
0I
1H
1k
0j
0Z
1[
0Y
1X
08
17
#41500
1(
1I
1j
1Z
1Y
18
#42000
0(
0'
1&
0I
0H
1G
1l
0k
0j
0Z
0[
1\
0Y
0X
1W
08
07
16
#42500
1(
1I
1j
1Z
1Y
18
#43000
0(
1'
0I
1H
1k
0j
0Z
1[
0Y
1X
08
17
#43500
1(
1I
1j
1Z
1Y
18
#44000
0(
0'
0&
1%
0I
0H
0G
1F
1m
0l
0k
0j
0Z
0[
0\
1]
0Y
0X
0W
1V
08
07
06
15
#44500
1(
1I
1j
1Z
1Y
18
#45000
0(
1'
0I
1H
1k
0j
0Z
1[
0Y
1X
08
17
#45500
1(
1I
1j
1Z
1Y
18
#46000
0(
0'
1&
0I
0H
1G
1l
0k
0j
0Z
0[
1\
0Y
0X
1W
08
07
16
#46500
1(
1I
1j
1Z
1Y
18
#47000
0(
1'
0I
1H
1k
0j
0Z
1[
0Y
1X
08
17
#47500
1(
1I
1j
1Z
1Y
18
#48000
0(
0'
0&
0%
0$
1#
0I
0H
0G
0F
0E
1D
1o
0n
0m
0l
0k
0j
0Z
0[
0\
0]
0^
1_
0Y
0X
0W
0V
0U
1T
08
07
06
05
04
13
#48500
1(
1I
1j
1Z
1Y
18
#49000
0(
1'
0I
1H
1k
0j
0Z
1[
0Y
1X
08
17
#49500
1(
1I
1j
1Z
1Y
18
#50000
0(
0'
1&
0I
0H
1G
1l
0k
0j
0Z
0[
1\
0Y
0X
1W
08
07
16
#50500
1(
1I
1j
1Z
1Y
18
#51000
0(
1'
0I
1H
1k
0j
0Z
1[
0Y
1X
08
17
#51500
1(
1I
1j
1Z
1Y
18
#52000
0(
0'
0&
1%
0I
0H
0G
1F
1m
0l
0k
0j
0Z
0[
0\
1]
0Y
0X
0W
1V
08
07
06
15
#52500
1(
1I
1j
1Z
1Y
18
#53000
0(
1'
0I
1H
1k
0j
0Z
1[
0Y
1X
08
17
#53500
1(
1I
1j
1Z
1Y
18
#54000
0(
0'
1&
0I
0H
1G
1l
0k
0j
0Z
0[
1\
0Y
0X
1W
08
07
16
#54500
1(
1I
1j
1Z
1Y
18
#55000
0(
1'
0I
1H
1k
0j
0Z
1[
0Y
1X
08
17
#55500
1(
1I
1j
1Z
1Y
18
#56000
0(
0'
0&
0%
1$
0I
0H
0G
0F
1E
1n
0m
0l
0k
0j
0Z
0[
0\
0]
1^
0Y
0X
0W
0V
1U
08
07
06
05
14
#56500
1(
1I
1j
1Z
1Y
18
#57000
0(
1'
0I
1H
1k
0j
0Z
1[
0Y
1X
08
17
#57500
1(
1I
1j
1Z
1Y
18
#58000
0(
0'
1&
0I
0H
1G
1l
0k
0j
0Z
0[
1\
0Y
0X
1W
08
07
16
#58500
1(
1I
1j
1Z
1Y
18
#59000
0(
1'
0I
1H
1k
0j
0Z
1[
0Y
1X
08
17
#59500
1(
1I
1j
1Z
1Y
18
#60000
0(
0'
0&
1%
0I
0H
0G
1F
1m
0l
0k
0j
0Z
0[
0\
1]
0Y
0X
0W
1V
08
07
06
15
#60500
1(
1I
1j
1Z
1Y
18
#61000
0(
1'
0I
1H
1k
0j
0Z
1[
0Y
1X
08
17
#61500
1(
1I
1j
1Z
1Y
18
#62000
0(
0'
1&
0I
0H
1G
1l
0k
0j
0Z
0[
1\
0Y
0X
1W
08
07
16
#62500
1(
1I
1j
1Z
1Y
18
#63000
0(
1'
0I
1H
1k
0j
0Z
1[
0Y
1X
08
17
#63500
1(
1I
1j
1Z
1Y
18
#64000
0(
0'
0&
0%
0$
0#
0"
1!
0I
0H
0G
0F
0E
0D
0C
1B
1q
0p
0o
0n
0m
0l
0k
0j
0Z
0[
0\
0]
0^
0_
0`
1a
1b
1c
1d
1e
1f
1g
1h
1i
0Y
0X
0W
0V
0U
0T
0S
1R
1Q
1P
1O
1N
1M
1L
1K
1J
08
07
06
05
04
03
02
11
10
1/
1.
1-
1,
1+
1*
1)
#64500
1(
1I
1j
1Z
1Y
18
#65000
0(
1'
0I
1H
1k
0j
0Z
1[
0Y
1X
08
17
#65500
1(
1I
1j
1Z
1Y
18
#66000
0(
0'
1&
0I
0H
1G
1l
0k
0j
0Z
0[
1\
0Y
0X
1W
08
07
16
#66500
1(
1I
1j
1Z
1Y
18
#67000
0(
1'
0I
1H
1k
0j
0Z
1[
0Y
1X
08
17
#67500
1(
1I
1j
1Z
1Y
18
#68000
0(
0'
0&
1%
0I
0H
0G
1F
1m
0l
0k
0j
0Z
0[
0\
1]
0Y
0X
0W
1V
08
07
06
15
#68500
1(
1I
1j
1Z
1Y
18
#69000
0(
1'
0I
1H
1k
0j
0Z
1[
0Y
1X
08
17
#69500
1(
1I
1j
1Z
1Y
18
#70000
0(
0'
1&
0I
0H
1G
1l
0k
0j
0Z
0[
1\
0Y
0X
1W
08
07
16
#70500
1(
1I
1j
1Z
1Y
18
#71000
0(
1'
0I
1H
1k
0j
0Z
1[
0Y
1X
08
17
#71500
1(
1I
1j
1Z
1Y
18
#72000
0(
0'
0&
0%
1$
0I
0H
0G
0F
1E
1n
0m
0l
0k
0j
0Z
0[
0\
0]
1^
0Y
0X
0W
0V
1U
08
07
06
05
14
#72500
1(
1I
1j
1Z
1Y
18
#73000
0(
1'
0I
1H
1k
0j
0Z
1[
0Y
1X
08
17
#73500
1(
1I
1j
1Z
1Y
18
#74000
0(
0'
1&
0I
0H
1G
1l
0k
0j
0Z
0[
1\
0Y
0X
1W
08
07
16
#74500
1(
1I
1j
1Z
1Y
18
#75000
0(
1'
0I
1H
1k
0j
0Z
1[
0Y
1X
08
17
#75500
1(
1I
1j
1Z
1Y
18
#76000
0(
0'
0&
1%
0I
0H
0G
1F
1m
0l
0k
0j
0Z
0[
0\
1]
0Y
0X
0W
1V
08
07
06
15
#76500
1(
1I
1j
1Z
1Y
18
#77000
0(
1'
0I
1H
1k
0j
0Z
1[
0Y
1X
08
17
#77500
1(
1I
1j
1Z
1Y
18
#78000
0(
0'
1&
0I
0H
1G
1l
0k
0j
0Z
0[
1\
0Y
0X
1W
08
07
16
#78500
1(
1I
1j
1Z
1Y
18
#79000
0(
1'
0I
1H
1k
0j
0Z
1[
0Y
1X
08
17
#79500
1(
1I
1j
1Z
1Y
18
#80000
0(
0'
0&
0%
0$
1#
0I
0H
0G
0F
0E
1D
1o
0n
0m
0l
0k
0j
0Z
0[
0\
0]
0^
1_
0Y
0X
0W
0V
0U
1T
08
07
06
05
04
13
#80500
1(
1I
1j
1Z
1Y
18
#81000
0(
1'
0I
1H
1k
0j
0Z
1[
0Y
1X
08
17
#81500
1(
1I
1j
1Z
1Y
18
#82000
0(
0'
1&
0I
0H
1G
1l
0k
0j
0Z
0[
1\
0Y
0X
1W
08
07
16
#82500
1(
1I
1j
1Z
1Y
18
#83000
0(
1'
0I
1H
1k
0j
0Z
1[
0Y
1X
08
17
#83500
1(
1I
1j
1Z
1Y
18
#84000
0(
0'
0&
1%
0I
0H
0G
1F
1m
0l
0k
0j
0Z
0[
0\
1]
0Y
0X
0W
1V
08
07
06
15
#84500
1(
1I
1j
1Z
1Y
18
#85000
0(
1'
0I
1H
1k
0j
0Z
1[
0Y
1X
08
17
#85500
1(
1I
1j
1Z
1Y
18
#86000
0(
0'
1&
0I
0H
1G
1l
0k
0j
0Z
0[
1\
0Y
0X
1W
08
07
16
#86500
1(
1I
1j
1Z
1Y
18
#87000
0(
1'
0I
1H
1k
0j
0Z
1[
0Y
1X
08
17
#87500
1(
1I
1j
1Z
1Y
18
#88000
0(
0'
0&
0%
1$
0I
0H
0G
0F
1E
1n
0m
0l
0k
0j
0Z
0[
0\
0]
1^
0Y
0X
0W
0V
1U
08
07
06
05
14
#88500
1(
1I
1j
1Z
1Y
18
#89000
0(
1'
0I
1H
1k
0j
0Z
1[
0Y
1X
08
17
#89500
1(
1I
1j
1Z
1Y
18
#90000
0(
0'
1&
0I
0H
1G
1l
0k
0j
0Z
0[
1\
0Y
0X
1W
08
07
16
#90500
1(
1I
1j
1Z
1Y
18
#91000
0(
1'
0I
1H
1k
0j
0Z
1[
0Y
1X
08
17
#91500
1(
1I
1j
1Z
1Y
18
#92000
0(
0'
0&
1%
0I
0H
0G
1F
1m
0l
0k
0j
0Z
0[
0\
1]
0Y
0X
0W
1V
08
07
06
15
#92500
1(
1I
1j
1Z
1Y
18
#93000
0(
1'
0I
1H
1k
0j
0Z
1[
0Y
1X
08
17
#93500
1(
1I
1j
1Z
1Y
18
#94000
0(
0'
1&
0I
0H
1G
1l
0k
0j
0Z
0[
1\
0Y
0X
1W
08
07
16
#94500
1(
1I
1j
1Z
1Y
18
#95000
0(
1'
0I
1H
1k
0j
0Z
1[
0Y
1X
08
17
#95500
1(
1I
1j
1Z
1Y
18
#96000
0(
0'
0&
0%
0$
0#
1"
0I
0H
0G
0F
0E
0D
1C
1p
0o
0n
0m
0l
0k
0j
0Z
0[
0\
0]
0^
0_
1`
0Y
0X
0W
0V
0U
0T
1S
08
07
06
05
04
03
12
#96500
1(
1I
1j
1Z
1Y
18
#97000
0(
1'
0I
1H
1k
0j
0Z
1[
0Y
1X
08
17
#97500
1(
1I
1j
1Z
1Y
18
#98000
0(
0'
1&
0I
0H
1G
1l
0k
0j
0Z
0[
1\
0Y
0X
1W
08
07
16
#98500
1(
1I
1j
1Z
1Y
18
#99000
0(
1'
0I
1H
1k
0j
0Z
1[
0Y
1X
08
17
#99500
1(
1I
1j
1Z
1Y
18
#100000
0(
0'
0&
1%
0I
0H
0G
1F
1m
0l
0k
0j
0Z
0[
0\
1]
0Y
0X
0W
1V
08
07
06
15
#100500
1(
1I
1j
1Z
1Y
18
#101000
0(
1'
0I
1H
1k
0j
0Z
1[
0Y
1X
08
17
#101500
1(
1I
1j
1Z
1Y
18
#102000
0(
0'
1&
0I
0H
1G
1l
0k
0j
0Z
0[
1\
0Y
0X
1W
08
07
16
#102500
1(
1I
1j
1Z
1Y
18
#103000
0(
1'
0I
1H
1k
0j
0Z
1[
0Y
1X
08
17
#103500
1(
1I
1j
1Z
1Y
18
#104000
0(
0'
0&
0%
1$
0I
0H
0G
0F
1E
1n
0m
0l
0k
0j
0Z
0[
0\
0]
1^
0Y
0X
0W
0V
1U
08
07
06
05
14
#104500
1(
1I
1j
1Z
1Y
18
#105000
0(
1'
0I
1H
1k
0j
0Z
1[
0Y
1X
08
17
#105500
1(
1I
1j
1Z
1Y
18
#106000
0(
0'
1&
0I
0H
1G
1l
0k
0j
0Z
0[
1\
0Y
0X
1W
08
07
16
#106500
1(
1I
1j
1Z
1Y
18
#107000
0(
1'
0I
1H
1k
0j
0Z
1[
0Y
1X
08
17
#107500
1(
1I
1j
1Z
1Y
18
#108000
0(
0'
0&
1%
0I
0H
0G
1F
1m
0l
0k
0j
0Z
0[
0\
1]
0Y
0X
0W
1V
08
07
06
15
#108500
1(
1I
1j
1Z
1Y
18
#109000
0(
1'
0I
1H
1k
0j
0Z
1[
0Y
1X
08
17
#109500
1(
1I
1j
1Z
1Y
18
#110000
0(
0'
1&
0I
0H
1G
1l
0k
0j
0Z
0[
1\
0Y
0X
1W
08
07
16
#110500
1(
1I
1j
1Z
1Y
18
#111000
0(
1'
0I
1H
1k
0j
0Z
1[
0Y
1X
08
17
#111500
1(
1I
1j
1Z
1Y
18
#112000
0(
0'
0&
0%
0$
1#
0I
0H
0G
0F
0E
1D
1o
0n
0m
0l
0k
0j
0Z
0[
0\
0]
0^
1_
0Y
0X
0W
0V
0U
1T
08
07
06
05
04
13
#112500
1(
1I
1j
1Z
1Y
18
#113000
0(
1'
0I
1H
1k
0j
0Z
1[
0Y
1X
08
17
#113500
1(
1I
1j
1Z
1Y
18
#114000
0(
0'
1&
0I
0H
1G
1l
0k
0j
0Z
0[
1\
0Y
0X
1W
08
07
16
#114500
1(
1I
1j
1Z
1Y
18
#115000
0(
1'
0I
1H
1k
0j
0Z
1[
0Y
1X
08
17
#115500
1(
1I
1j
1Z
1Y
18
#116000
0(
0'
0&
1%
0I
0H
0G
1F
1m
0l
0k
0j
0Z
0[
0\
1]
0Y
0X
0W
1V
08
07
06
15
#116500
1(
1I
1j
1Z
1Y
18
#117000
0(
1'
0I
1H
1k
0j
0Z
1[
0Y
1X
08
17
#117500
1(
1I
1j
1Z
1Y
18
#118000
0(
0'
1&
0I
0H
1G
1l
0k
0j
0Z
0[
1\
0Y
0X
1W
08
07
16
#118500
1(
1I
1j
1Z
1Y
18
#119000
0(
1'
0I
1H
1k
0j
0Z
1[
0Y
1X
08
17
#119500
1(
1I
1j
1Z
1Y
18
#120000
0(
0'
0&
0%
1$
0I
0H
0G
0F
1E
1n
0m
0l
0k
0j
0Z
0[
0\
0]
1^
0Y
0X
0W
0V
1U
08
07
06
05
14
#120500
1(
1I
1j
1Z
1Y
18
#121000
0(
1'
0I
1H
1k
0j
0Z
1[
0Y
1X
08
17
#121500
1(
1I
1j
1Z
1Y
18
#122000
0(
0'
1&
0I
0H
1G
1l
0k
0j
0Z
0[
1\
0Y
0X
1W
08
07
16
#122500
1(
1I
1j
1Z
1Y
18
#123000
0(
1'
0I
1H
1k
0j
0Z
1[
0Y
1X
08
17
#123500
1(
1I
1j
1Z
1Y
18
#124000
0(
0'
0&
1%
0I
0H
0G
1F
1m
0l
0k
0j
0Z
0[
0\
1]
0Y
0X
0W
1V
08
07
06
15
#124500
1(
1I
1j
1Z
1Y
18
#125000
0(
1'
0I
1H
1k
0j
0Z
1[
0Y
1X
08
17
#125500
1(
1I
1j
1Z
1Y
18
#126000
0(
0'
1&
0I
0H
1G
1l
0k
0j
0Z
0[
1\
0Y
0X
1W
08
07
16
#126500
1(
1I
1j
1Z
1Y
18
#127000
0(
1'
0I
1H
1k
0j
0Z
1[
0Y
1X
08
17
#127500
1(
1I
1j
1Z
1Y
18
#128000
0(
0'
0&
0%
0$
0#
0"
0!
0I
0H
0G
0F
0E
0D
0C
0B
0q
0p
0o
0n
0m
0l
0k
0j
0Z
0[
0\
0]
0^
0_
0`
0a
0b
0c
0d
0e
0f
0g
0h
0i
0Y
0X
0W
0V
0U
0T
0S
0R
0Q
0P
0O
0N
0M
0L
0K
0J
08
07
06
05
04
03
02
01
00
0/
0.
0-
0,
0+
0*
0)
#128500
1(
1I
1j
1Z
1Y
18
#129000
0(
1'
0I
1H
1k
0j
0Z
1[
0Y
1X
08
17
#129500
1(
1I
1j
1Z
1Y
18
#130000
0(
0'
1&
0I
0H
1G
1l
0k
0j
0Z
0[
1\
0Y
0X
1W
08
07
16
#130500
1(
1I
1j
1Z
1Y
18
#131000
0(
1'
0I
1H
1k
0j
0Z
1[
0Y
1X
08
17
#131500
1(
1I
1j
1Z
1Y
18
#132000
0(
0'
0&
1%
0I
0H
0G
1F
1m
0l
0k
0j
0Z
0[
0\
1]
0Y
0X
0W
1V
08
07
06
15
#132500
1(
1I
1j
1Z
1Y
18
#133000
0(
1'
0I
1H
1k
0j
0Z
1[
0Y
1X
08
17
#133500
1(
1I
1j
1Z
1Y
18
#134000
0(
0'
1&
0I
0H
1G
1l
0k
0j
0Z
0[
1\
0Y
0X
1W
08
07
16
#134500
1(
1I
1j
1Z
1Y
18
#135000
0(
1'
0I
1H
1k
0j
0Z
1[
0Y
1X
08
17
#135500
1(
1I
1j
1Z
1Y
18
#136000
0(
0'
0&
0%
1$
0I
0H
0G
0F
1E
1n
0m
0l
0k
0j
0Z
0[
0\
0]
1^
0Y
0X
0W
0V
1U
08
07
06
05
14
#136500
1(
1I
1j
1Z
1Y
18
#137000
0(
1'
0I
1H
1k
0j
0Z
1[
0Y
1X
08
17
#137500
1(
1I
1j
1Z
1Y
18
#138000
0(
0'
1&
0I
0H
1G
1l
0k
0j
0Z
0[
1\
0Y
0X
1W
08
07
16
#138500
1(
1I
1j
1Z
1Y
18
#139000
0(
1'
0I
1H
1k
0j
0Z
1[
0Y
1X
08
17
#139500
1(
1I
1j
1Z
1Y
18
#140000
0(
0'
0&
1%
0I
0H
0G
1F
1m
0l
0k
0j
0Z
0[
0\
1]
0Y
0X
0W
1V
08
07
06
15
#140500
1(
1I
1j
1Z
1Y
18
#141000
0(
1'
0I
1H
1k
0j
0Z
1[
0Y
1X
08
17
#141500
1(
1I
1j
1Z
1Y
18
#142000
0(
0'
1&
0I
0H
1G
1l
0k
0j
0Z
0[
1\
0Y
0X
1W
08
07
16
#142500
1(
1I
1j
1Z
1Y
18
#143000
0(
1'
0I
1H
1k
0j
0Z
1[
0Y
1X
08
17
#143500
1(
1I
1j
1Z
1Y
18
#144000
0(
0'
0&
0%
0$
1#
0I
0H
0G
0F
0E
1D
1o
0n
0m
0l
0k
0j
0Z
0[
0\
0]
0^
1_
0Y
0X
0W
0V
0U
1T
08
07
06
05
04
13
#144500
1(
1I
1j
1Z
1Y
18
#145000
0(
1'
0I
1H
1k
0j
0Z
1[
0Y
1X
08
17
#145500
1(
1I
1j
1Z
1Y
18
#146000
0(
0'
1&
0I
0H
1G
1l
0k
0j
0Z
0[
1\
0Y
0X
1W
08
07
16
#146500
1(
1I
1j
1Z
1Y
18
#147000
0(
1'
0I
1H
1k
0j
0Z
1[
0Y
1X
08
17
#147500
1(
1I
1j
1Z
1Y
18
#148000
0(
0'
0&
1%
0I
0H
0G
1F
1m
0l
0k
0j
0Z
0[
0\
1]
0Y
0X
0W
1V
08
07
06
15
#148500
1(
1I
1j
1Z
1Y
18
#149000
0(
1'
0I
1H
1k
0j
0Z
1[
0Y
1X
08
17
#149500
1(
1I
1j
1Z
1Y
18
#150000
0(
0'
1&
0I
0H
1G
1l
0k
0j
0Z
0[
1\
0Y
0X
1W
08
07
16
#150500
1(
1I
1j
1Z
1Y
18
#151000
0(
1'
0I
1H
1k
0j
0Z
1[
0Y
1X
08
17
#151500
1(
1I
1j
1Z
1Y
18
#152000
0(
0'
0&
0%
1$
0I
0H
0G
0F
1E
1n
0m
0l
0k
0j
0Z
0[
0\
0]
1^
0Y
0X
0W
0V
1U
08
07
06
05
14
#152500
1(
1I
1j
1Z
1Y
18
#153000
0(
1'
0I
1H
1k
0j
0Z
1[
0Y
1X
08
17
#153500
1(
1I
1j
1Z
1Y
18
#154000
0(
0'
1&
0I
0H
1G
1l
0k
0j
0Z
0[
1\
0Y
0X
1W
08
07
16
#154500
1(
1I
1j
1Z
1Y
18
#155000
0(
1'
0I
1H
1k
0j
0Z
1[
0Y
1X
08
17
#155500
1(
1I
1j
1Z
1Y
18
#156000
0(
0'
0&
1%
0I
0H
0G
1F
1m
0l
0k
0j
0Z
0[
0\
1]
0Y
0X
0W
1V
08
07
06
15
#156500
1(
1I
1j
1Z
1Y
18
#157000
0(
1'
0I
1H
1k
0j
0Z
1[
0Y
1X
08
17
#157500
1(
1I
1j
1Z
1Y
18
#158000
0(
0'
1&
0I
0H
1G
1l
0k
0j
0Z
0[
1\
0Y
0X
1W
08
07
16
#158500
1(
1I
1j
1Z
1Y
18
#159000
0(
1'
0I
1H
1k
0j
0Z
1[
0Y
1X
08
17
#159500
1(
1I
1j
1Z
1Y
18
#160000
0(
0'
0&
0%
0$
0#
1"
0I
0H
0G
0F
0E
0D
1C
1p
0o
0n
0m
0l
0k
0j
0Z
0[
0\
0]
0^
0_
1`
0Y
0X
0W
0V
0U
0T
1S
08
07
06
05
04
03
12
#160500
1(
1I
1j
1Z
1Y
18
