Componentes/Multiplexador4pra1-ver2/simulation/qsim/Multiplexador4x1.msim.vcd
$comment
	File created using the following command:
		vcd file Multiplexador4x1.msim.vcd -direction
$end
$date
	Thu Oct 25 18:30:54 2018
$end
$version
	ModelSim Version 10.5b
$end
$timescale
	1ps
$end

$scope module multiplexador4pra1_vhd_vec_tst $end
$var wire 1 ! A $end
$var wire 1 " B $end
$var wire 1 # C $end
$var wire 1 $ D $end
$var wire 1 % S $end
$var wire 1 & Selector [1] $end
$var wire 1 ' Selector [0] $end

$scope module i1 $end
$var wire 1 ( gnd $end
$var wire 1 ) vcc $end
$var wire 1 * unknown $end
$var wire 1 + devoe $end
$var wire 1 , devclrn $end
$var wire 1 - devpor $end
$var wire 1 . ww_devoe $end
$var wire 1 / ww_devclrn $end
$var wire 1 0 ww_devpor $end
$var wire 1 1 ww_Selector [1] $end
$var wire 1 2 ww_Selector [0] $end
$var wire 1 3 ww_A $end
$var wire 1 4 ww_B $end
$var wire 1 5 ww_C $end
$var wire 1 6 ww_D $end
$var wire 1 7 ww_S $end
$var wire 1 8 \S~output_o\ $end
$var wire 1 9 \A~input_o\ $end
$var wire 1 : \C~input_o\ $end
$var wire 1 ; \B~input_o\ $end
$var wire 1 < \D~input_o\ $end
$var wire 1 = \Selector[1]~input_o\ $end
$var wire 1 > \Selector[0]~input_o\ $end
$var wire 1 ? \S~0_combout\ $end
$var wire 1 @ \ALT_INV_Selector[0]~input_o\ $end
$var wire 1 A \ALT_INV_Selector[1]~input_o\ $end
$var wire 1 B \ALT_INV_D~input_o\ $end
$var wire 1 C \ALT_INV_B~input_o\ $end
$var wire 1 D \ALT_INV_C~input_o\ $end
$var wire 1 E \ALT_INV_A~input_o\ $end
$upscope $end
$upscope $end
$enddefinitions $end
#0
$dumpvars
0!
0"
0#
0$
0%
0(
1)
x*
1+
1,
1-
1.
1/
10
03
04
05
06
07
08
09
0:
0;
0<
0=
0>
0?
1@
1A
1B
1C
1D
1E
0&
0'
01
02
$end
#10000
1'
12
1>
0@
#20000
0'
1!
1&
02
11
13
19
1=
0>
1@
0A
0E
#30000
1'
1"
12
14
1;
1>
0@
0C
#40000
0'
0!
0&
1#
02
01
03
15
1:
09
0=
0>
1@
1A
1E
0D
#50000
1'
1$
12
16
1<
1>
0@
0B
1?
18
17
1%
#60000
0'
1!
1&
0"
02
11
13
04
0;
19
1=
0>
1@
0A
0E
1C
#70000
1'
12
1>
0@
#80000
0'
0!
0&
0#
02
01
03
05
0:
09
0=
0>
1@
1A
1E
1D
0?
08
07
0%
#90000
1'
1"
12
14
1;
1>
0@
0C
1?
18
17
1%
#100000
0'
1!
1&
0$
02
11
13
06
0<
19
1=
0>
1@
0A
0E
1B
0?
08
07
0%
#110000
1'
12
1>
0@
#120000
0'
0!
0&
0"
1#
02
01
03
04
15
1:
0;
09
0=
0>
1@
1A
1E
1C
0D
#130000
1'
12
1>
0@
#140000
0'
1!
1&
02
11
13
19
1=
0>
1@
0A
0E
1?
18
17
1%
#150000
1'
1"
1$
12
14
16
1<
1;
1>
0@
0C
0B
#160000
0'
0!
0&
0#
02
01
03
05
0:
09
0=
0>
1@
1A
1E
1D
0?
08
07
0%
#170000
1'
12
1>
0@
1?
18
17
1%
#180000
0'
1!
1&
0"
02
11
13
04
0;
19
1=
0>
1@
0A
0E
1C
0?
08
07
0%
#190000
1'
12
1>
0@
1?
18
17
1%
#200000
0'
0!
0&
1#
0$
02
01
03
15
06
0<
1:
09
0=
0>
1@
1A
1E
0D
1B
0?
08
07
0%
#210000
1'
1"
12
14
1;
1>
0@
0C
1?
18
17
1%
#220000
0'
1!
1&
02
11
13
19
1=
0>
1@
0A
0E
#230000
1'
12
1>
0@
0?
08
07
0%
#240000
0'
0!
0&
0"
0#
02
01
03
04
05
0:
0;
09
0=
0>
1@
1A
1E
1C
1D
#250000
1'
1$
12
16
1<
1>
0@
0B
#260000
0'
1!
1&
02
11
13
19
1=
0>
1@
0A
0E
#270000
1'
1"
12
14
1;
1>
0@
0C
1?
18
17
1%
#280000
0'
0!
0&
1#
02
01
03
15
1:
09
0=
0>
1@
1A
1E
0D
0?
08
07
0%
#290000
1'
12
1>
0@
1?
18
17
1%
#300000
0'
1!
1&
0"
0$
02
11
13
04
06
0<
0;
19
1=
0>
1@
0A
0E
1C
1B
#310000
1'
12
1>
0@
0?
08
07
0%
#320000
0'
0!
0&
0#
02
01
03
05
0:
09
0=
0>
1@
1A
1E
1D
#330000
1'
1"
12
14
1;
1>
0@
0C
1?
18
17
1%
#340000
0'
1!
1&
02
11
13
19
1=
0>
1@
0A
0E
0?
08
07
0%
#350000
1'
1$
12
16
1<
1>
0@
0B
1?
18
17
1%
#360000
0'
0!
0&
0"
1#
02
01
03
04
15
1:
0;
09
0=
0>
1@
1A
1E
1C
0D
0?
08
07
0%
#370000
1'
12
1>
0@
#380000
0'
1!
1&
02
11
13
19
1=
0>
1@
0A
0E
1?
18
17
1%
#390000
1'
1"
12
14
1;
1>
0@
0C
#400000
0'
0!
0&
0#
0$
02
01
03
05
06
0<
0:
09
0=
0>
1@
1A
1E
1D
1B
0?
08
07
0%
#410000
1'
12
1>
0@
1?
18
17
1%
#420000
0'
1!
1&
0"
02
11
13
04
0;
19
1=
0>
1@
0A
0E
1C
0?
08
07
0%
#430000
1'
12
1>
0@
#440000
0'
0!
0&
1#
02
01
03
15
1:
09
0=
0>
1@
1A
1E
0D
#450000
1'
1"
1$
12
14
16
1<
1;
1>
0@
0C
0B
1?
18
17
1%
#460000
0'
1!
1&
02
11
13
19
1=
0>
1@
0A
0E
#470000
1'
12
1>
0@
#480000
0'
0!
0&
0"
0#
02
01
03
04
05
0:
0;
09
0=
0>
1@
1A
1E
1C
1D
0?
08
07
0%
#490000
1'
12
1>
0@
#500000
0'
1!
1&
0$
02
11
13
06
0<
19
1=
0>
1@
0A
0E
1B
#510000
1'
1"
12
14
1;
1>
0@
0C
#520000
0'
0!
0&
1#
02
01
03
15
1:
09
0=
0>
1@
1A
1E
0D
#530000
1'
12
1>
0@
1?
18
17
1%
#540000
0'
1!
1&
0"
02
11
13
04
0;
19
1=
0>
1@
0A
0E
1C
#550000
1'
1$
12
16
1<
1>
0@
0B
#560000
0'
0!
0&
0#
02
01
03
05
0:
09
0=
0>
1@
1A
1E
1D
0?
08
07
0%
#570000
1'
1"
12
14
1;
1>
0@
0C
1?
18
17
1%
#580000
0'
1!
1&
02
11
13
19
1=
0>
1@
0A
0E
0?
08
07
0%
#590000
1'
12
1>
0@
1?
18
17
1%
#600000
0'
0!
0&
0"
1#
0$
02
01
03
04
15
06
0<
1:
0;
09
0=
0>
1@
1A
1E
1C
0D
1B
0?
08
07
0%
#610000
1'
12
1>
0@
#620000
0'
1!
1&
02
11
13
19
1=
0>
1@
0A
0E
1?
18
17
1%
#630000
1'
1"
12
14
1;
1>
0@
0C
0?
08
07
0%
#640000
0'
0!
0&
0#
02
01
03
05
0:
09
0=
0>
1@
1A
1E
1D
#650000
1'
1$
12
16
1<
1>
0@
0B
1?
18
17
1%
#660000
0'
1!
1&
0"
02
11
13
04
0;
19
1=
0>
1@
0A
0E
1C
0?
08
07
0%
#670000
1'
12
1>
0@
1?
18
17
1%
#680000
0'
0!
0&
1#
02
01
03
15
1:
09
0=
0>
1@
1A
1E
0D
0?
08
07
0%
#690000
1'
1"
12
14
1;
1>
0@
0C
1?
18
17
1%
#700000
0'
1!
1&
0$
02
11
13
06
0<
19
1=
0>
1@
0A
0E
1B
#710000
1'
12
1>
0@
0?
08
07
0%
#720000
0'
0!
0&
0"
0#
02
01
03
04
05
0:
0;
09
0=
0>
1@
1A
1E
1C
1D
#730000
1'
12
1>
0@
#740000
0'
1!
1&
02
11
13
19
1=
0>
1@
0A
0E
#750000
1'
1"
1$
12
14
16
1<
1;
1>
0@
0C
0B
1?
18
17
1%
#760000
0'
0!
0&
1#
02
01
03
15
1:
09
0=
0>
1@
1A
1E
0D
0?
08
07
0%
#770000
1'
12
1>
0@
1?
18
17
1%
#780000
0'
1!
1&
0"
02
11
13
04
0;
19
1=
0>
1@
0A
0E
1C
#790000
1'
12
1>
0@
#800000
0'
0!
0&
0#
0$
02
01
03
05
06
0<
0:
09
0=
0>
1@
1A
1E
1D
1B
0?
08
07
0%
#810000
1'
1"
12
14
1;
1>
0@
0C
1?
18
17
1%
#820000
0'
1!
1&
02
11
13
19
1=
0>
1@
0A
0E
0?
08
07
0%
#830000
1'
12
1>
0@
#840000
0'
0!
0&
0"
1#
02
01
03
04
15
1:
0;
09
0=
0>
1@
1A
1E
1C
0D
#850000
1'
1$
12
16
1<
1>
0@
0B
#860000
0'
1!
1&
02
11
13
19
1=
0>
1@
0A
0E
1?
18
17
1%
#870000
1'
1"
12
14
1;
1>
0@
0C
#880000
0'
0!
0&
0#
02
01
03
05
0:
09
0=
0>
1@
1A
1E
1D
0?
08
07
0%
#890000
1'
12
1>
0@
1?
18
17
1%
#900000
0'
1!
1&
0"
0$
02
11
13
04
06
0<
0;
19
1=
0>
1@
0A
0E
1C
1B
0?
08
07
0%
#910000
1'
12
1>
0@
#920000
0'
0!
0&
1#
02
01
03
15
1:
09
0=
0>
1@
1A
1E
0D
#930000
1'
1"
12
14
1;
1>
0@
0C
1?
18
17
1%
#940000
0'
1!
1&
02
11
13
19
1=
0>
1@
0A
0E
#950000
1'
1$
12
16
1<
1>
0@
0B
#960000
0'
0!
0&
0"
0#
02
01
03
04
05
0:
0;
09
0=
0>
1@
1A
1E
1C
1D
0?
08
07
0%
#970000
1'
12
1>
0@
#980000
0'
1!
1&
02
11
13
19
1=
0>
1@
0A
0E
#990000
1'
1"
12
14
1;
1>
0@
0C
1?
18
17
1%
