Componentes/ShiftDireita/simulation/qsim/ShiftDir.msim.vcd
$comment
	File created using the following command:
		vcd file ShiftDir.msim.vcd -direction
$end
$date
	Fri Oct 26 10:49:49 2018
$end
$version
	ModelSim Version 10.5b
$end
$timescale
	1ps
$end

$scope module shiftdir_vhd_vec_tst $end
$var wire 1 ! A [15] $end
$var wire 1 " A [14] $end
$var wire 1 # A [13] $end
$var wire 1 $ A [12] $end
$var wire 1 % A [11] $end
$var wire 1 & A [10] $end
$var wire 1 ' A [9] $end
$var wire 1 ( A [8] $end
$var wire 1 ) A [7] $end
$var wire 1 * A [6] $end
$var wire 1 + A [5] $end
$var wire 1 , A [4] $end
$var wire 1 - A [3] $end
$var wire 1 . A [2] $end
$var wire 1 / A [1] $end
$var wire 1 0 A [0] $end
$var wire 1 1 S [15] $end
$var wire 1 2 S [14] $end
$var wire 1 3 S [13] $end
$var wire 1 4 S [12] $end
$var wire 1 5 S [11] $end
$var wire 1 6 S [10] $end
$var wire 1 7 S [9] $end
$var wire 1 8 S [8] $end
$var wire 1 9 S [7] $end
$var wire 1 : S [6] $end
$var wire 1 ; S [5] $end
$var wire 1 < S [4] $end
$var wire 1 = S [3] $end
$var wire 1 > S [2] $end
$var wire 1 ? S [1] $end
$var wire 1 @ S [0] $end

$scope module i1 $end
$var wire 1 A gnd $end
$var wire 1 B vcc $end
$var wire 1 C unknown $end
$var wire 1 D devoe $end
$var wire 1 E devclrn $end
$var wire 1 F devpor $end
$var wire 1 G ww_devoe $end
$var wire 1 H ww_devclrn $end
$var wire 1 I ww_devpor $end
$var wire 1 J ww_A [15] $end
$var wire 1 K ww_A [14] $end
$var wire 1 L ww_A [13] $end
$var wire 1 M ww_A [12] $end
$var wire 1 N ww_A [11] $end
$var wire 1 O ww_A [10] $end
$var wire 1 P ww_A [9] $end
$var wire 1 Q ww_A [8] $end
$var wire 1 R ww_A [7] $end
$var wire 1 S ww_A [6] $end
$var wire 1 T ww_A [5] $end
$var wire 1 U ww_A [4] $end
$var wire 1 V ww_A [3] $end
$var wire 1 W ww_A [2] $end
$var wire 1 X ww_A [1] $end
$var wire 1 Y ww_A [0] $end
$var wire 1 Z ww_S [15] $end
$var wire 1 [ ww_S [14] $end
$var wire 1 \ ww_S [13] $end
$var wire 1 ] ww_S [12] $end
$var wire 1 ^ ww_S [11] $end
$var wire 1 _ ww_S [10] $end
$var wire 1 ` ww_S [9] $end
$var wire 1 a ww_S [8] $end
$var wire 1 b ww_S [7] $end
$var wire 1 c ww_S [6] $end
$var wire 1 d ww_S [5] $end
$var wire 1 e ww_S [4] $end
$var wire 1 f ww_S [3] $end
$var wire 1 g ww_S [2] $end
$var wire 1 h ww_S [1] $end
$var wire 1 i ww_S [0] $end
$var wire 1 j \A[0]~input_o\ $end
$var wire 1 k \A[1]~input_o\ $end
$var wire 1 l \S[0]~output_o\ $end
$var wire 1 m \S[1]~output_o\ $end
$var wire 1 n \S[2]~output_o\ $end
$var wire 1 o \S[3]~output_o\ $end
$var wire 1 p \S[4]~output_o\ $end
$var wire 1 q \S[5]~output_o\ $end
$var wire 1 r \S[6]~output_o\ $end
$var wire 1 s \S[7]~output_o\ $end
$var wire 1 t \S[8]~output_o\ $end
$var wire 1 u \S[9]~output_o\ $end
$var wire 1 v \S[10]~output_o\ $end
$var wire 1 w \S[11]~output_o\ $end
$var wire 1 x \S[12]~output_o\ $end
$var wire 1 y \S[13]~output_o\ $end
$var wire 1 z \S[14]~output_o\ $end
$var wire 1 { \S[15]~output_o\ $end
$var wire 1 | \A[2]~input_o\ $end
$var wire 1 } \A[3]~input_o\ $end
$var wire 1 ~ \A[4]~input_o\ $end
$var wire 1 !! \A[5]~input_o\ $end
$var wire 1 "! \A[6]~input_o\ $end
$var wire 1 #! \A[7]~input_o\ $end
$var wire 1 $! \A[8]~input_o\ $end
$var wire 1 %! \A[9]~input_o\ $end
$var wire 1 &! \A[10]~input_o\ $end
$var wire 1 '! \A[11]~input_o\ $end
$var wire 1 (! \A[12]~input_o\ $end
$var wire 1 )! \A[13]~input_o\ $end
$var wire 1 *! \A[14]~input_o\ $end
$var wire 1 +! \A[15]~input_o\ $end
$upscope $end
$upscope $end
$enddefinitions $end
#0
$dumpvars
0A
1B
xC
1D
1E
1F
1G
1H
1I
0j
0k
0l
0m
0n
0o
0p
0q
0r
0s
0t
0u
0v
0w
0x
0y
0z
0{
0|
0}
0~
0!!
0"!
0#!
0$!
0%!
0&!
0'!
0(!
0)!
0*!
0+!
0!
0"
0#
0$
0%
0&
0'
0(
0)
0*
0+
0,
0-
0.
0/
00
01
02
03
04
05
06
07
08
09
0:
0;
0<
0=
0>
0?
0@
0J
0K
0L
0M
0N
0O
0P
0Q
0R
0S
0T
0U
0V
0W
0X
0Y
0Z
0[
0\
0]
0^
0_
0`
0a
0b
0c
0d
0e
0f
0g
0h
0i
$end
#5000
10
1Y
1j
#10000
00
1/
0Y
1X
1k
0j
#15000
10
1Y
1j
#20000
00
0/
1.
0Y
0X
1W
1|
0k
0j
1l
1i
1@
#25000
10
1Y
1j
#30000
00
1/
0Y
1X
1k
0j
#35000
10
1Y
1j
#40000
00
0/
0.
1-
0Y
0X
0W
1V
1}
0|
0k
0j
0l
1m
0i
1h
0@
1?
#45000
10
1Y
1j
#50000
00
1/
0Y
1X
1k
0j
#55000
10
1Y
1j
#60000
00
0/
1.
0Y
0X
1W
1|
0k
0j
1l
1i
1@
#65000
10
1Y
1j
#70000
00
1/
0Y
1X
1k
0j
#75000
10
1Y
1j
#80000
00
0/
0.
0-
1,
0Y
0X
0W
0V
1U
1~
0}
0|
0k
0j
0l
0m
1n
0i
0h
1g
0@
0?
1>
#85000
10
1Y
1j
#90000
00
1/
0Y
1X
1k
0j
#95000
10
1Y
1j
#100000
00
0/
1.
0Y
0X
1W
1|
0k
0j
1l
1i
1@
#105000
10
1Y
1j
#110000
00
1/
0Y
1X
1k
0j
#115000
10
1Y
1j
#120000
00
0/
0.
1-
0Y
0X
0W
1V
1}
0|
0k
0j
0l
1m
0i
1h
0@
1?
#125000
10
1Y
1j
#130000
00
1/
0Y
1X
1k
0j
#135000
10
1Y
1j
#140000
00
0/
1.
0Y
0X
1W
1|
0k
0j
1l
1i
1@
#145000
10
1Y
1j
#150000
00
1/
0Y
1X
1k
0j
#155000
10
1Y
1j
#160000
00
0/
0.
0-
0,
1+
0Y
0X
0W
0V
0U
1T
1!!
0~
0}
0|
0k
0j
0l
0m
0n
1o
0i
0h
0g
1f
0@
0?
0>
1=
#165000
10
1Y
1j
#170000
00
1/
0Y
1X
1k
0j
#175000
10
1Y
1j
#180000
00
0/
1.
0Y
0X
1W
1|
0k
0j
1l
1i
1@
#185000
10
1Y
1j
#190000
00
1/
0Y
1X
1k
0j
#195000
10
1Y
1j
#200000
00
0/
0.
1-
0Y
0X
0W
1V
1}
0|
0k
0j
0l
1m
0i
1h
0@
1?
#205000
10
1Y
1j
#210000
00
1/
0Y
1X
1k
0j
#215000
10
1Y
1j
#220000
00
0/
1.
0Y
0X
1W
1|
0k
0j
1l
1i
1@
#225000
10
1Y
1j
#230000
00
1/
0Y
1X
1k
0j
#235000
10
1Y
1j
#240000
00
0/
0.
0-
1,
0Y
0X
0W
0V
1U
1~
0}
0|
0k
0j
0l
0m
1n
0i
0h
1g
0@
0?
1>
#245000
10
1Y
1j
#250000
00
1/
0Y
1X
1k
0j
#255000
10
1Y
1j
#260000
00
0/
1.
0Y
0X
1W
1|
0k
0j
1l
1i
1@
#265000
10
1Y
1j
#270000
00
1/
0Y
1X
1k
0j
#275000
10
1Y
1j
#280000
00
0/
0.
1-
0Y
0X
0W
1V
1}
0|
0k
0j
0l
1m
0i
1h
0@
1?
#285000
10
1Y
1j
#290000
00
1/
0Y
1X
1k
0j
#295000
10
1Y
1j
#300000
00
0/
1.
0Y
0X
1W
1|
0k
0j
1l
1i
1@
#305000
10
1Y
1j
#310000
00
1/
0Y
1X
1k
0j
#315000
10
1Y
1j
#320000
00
0/
0.
0-
0,
0+
1*
0Y
0X
0W
0V
0U
0T
1S
1"!
0!!
0~
0}
0|
0k
0j
0l
0m
0n
0o
1p
0i
0h
0g
0f
1e
0@
0?
0>
0=
1<
#325000
10
1Y
1j
#330000
00
1/
0Y
1X
1k
0j
#335000
10
1Y
1j
#340000
00
0/
1.
0Y
0X
1W
1|
0k
0j
1l
1i
1@
#345000
10
1Y
1j
#350000
00
1/
0Y
1X
1k
0j
#355000
10
1Y
1j
#360000
00
0/
0.
1-
0Y
0X
0W
1V
1}
0|
0k
0j
0l
1m
0i
1h
0@
1?
#365000
10
1Y
1j
#370000
00
1/
0Y
1X
1k
0j
#375000
10
1Y
1j
#380000
00
0/
1.
0Y
0X
1W
1|
0k
0j
1l
1i
1@
#385000
10
1Y
1j
#390000
00
1/
0Y
1X
1k
0j
#395000
10
1Y
1j
#400000
00
0/
0.
0-
1,
0Y
0X
0W
0V
1U
1~
0}
0|
0k
0j
0l
0m
1n
0i
0h
1g
0@
0?
1>
#405000
10
1Y
1j
#410000
00
1/
0Y
1X
1k
0j
#415000
10
1Y
1j
#420000
00
0/
1.
0Y
0X
1W
1|
0k
0j
1l
1i
1@
#425000
10
1Y
1j
#430000
00
1/
0Y
1X
1k
0j
#435000
10
1Y
1j
#440000
00
0/
0.
1-
0Y
0X
0W
1V
1}
0|
0k
0j
0l
1m
0i
1h
0@
1?
#445000
10
1Y
1j
#450000
00
1/
0Y
1X
1k
0j
#455000
10
1Y
1j
#460000
00
0/
1.
0Y
0X
1W
1|
0k
0j
1l
1i
1@
#465000
10
1Y
1j
#470000
00
1/
0Y
1X
1k
0j
#475000
10
1Y
1j
#480000
00
0/
0.
0-
0,
1+
0Y
0X
0W
0V
0U
1T
1!!
0~
0}
0|
0k
0j
0l
0m
0n
1o
0i
0h
0g
1f
0@
0?
0>
1=
#485000
10
1Y
1j
#490000
00
1/
0Y
1X
1k
0j
#495000
10
1Y
1j
#500000
00
0/
1.
0Y
0X
1W
1|
0k
0j
1l
1i
1@
#505000
10
1Y
1j
#510000
00
1/
0Y
1X
1k
0j
#515000
10
1Y
1j
#520000
00
0/
0.
1-
0Y
0X
0W
1V
1}
0|
0k
0j
0l
1m
0i
1h
0@
1?
#525000
10
1Y
1j
#530000
00
1/
0Y
1X
1k
0j
#535000
10
1Y
1j
#540000
00
0/
1.
0Y
0X
1W
1|
0k
0j
1l
1i
1@
#545000
10
1Y
1j
#550000
00
1/
0Y
1X
1k
0j
#555000
10
1Y
1j
#560000
00
0/
0.
0-
1,
0Y
0X
0W
0V
1U
1~
0}
0|
0k
0j
0l
0m
1n
0i
0h
1g
0@
0?
1>
#565000
10
1Y
1j
#570000
00
1/
0Y
1X
1k
0j
#575000
10
1Y
1j
#580000
00
0/
1.
0Y
0X
1W
1|
0k
0j
1l
1i
1@
#585000
10
1Y
1j
#590000
00
1/
0Y
1X
1k
0j
#595000
10
1Y
1j
#600000
00
0/
0.
1-
0Y
0X
0W
1V
1}
0|
0k
0j
0l
1m
0i
1h
0@
1?
#605000
10
1Y
1j
#610000
00
1/
0Y
1X
1k
0j
#615000
10
1Y
1j
#620000
00
0/
1.
0Y
0X
1W
1|
0k
0j
1l
1i
1@
#625000
10
1Y
1j
#630000
00
1/
0Y
1X
1k
0j
#635000
10
1Y
1j
#640000
00
0/
0.
0-
0,
0+
0*
1)
0Y
0X
0W
0V
0U
0T
0S
1R
1#!
0"!
0!!
0~
0}
0|
0k
0j
0l
0m
0n
0o
0p
1q
0i
0h
0g
0f
0e
1d
0@
0?
0>
0=
0<
1;
#645000
10
1Y
1j
#650000
00
1/
0Y
1X
1k
0j
#655000
10
1Y
1j
#660000
00
0/
1.
0Y
0X
1W
1|
0k
0j
1l
1i
1@
#665000
10
1Y
1j
#670000
00
1/
0Y
1X
1k
0j
#675000
10
1Y
1j
#680000
00
0/
0.
1-
0Y
0X
0W
1V
1}
0|
0k
0j
0l
1m
0i
1h
0@
1?
#685000
10
1Y
1j
#690000
00
1/
0Y
1X
1k
0j
#695000
10
1Y
1j
#700000
00
0/
1.
0Y
0X
1W
1|
0k
0j
1l
1i
1@
#705000
10
1Y
1j
#710000
00
1/
0Y
1X
1k
0j
#715000
10
1Y
1j
#720000
00
0/
0.
0-
1,
0Y
0X
0W
0V
1U
1~
0}
0|
0k
0j
0l
0m
1n
0i
0h
1g
0@
0?
1>
#725000
10
1Y
1j
#730000
00
1/
0Y
1X
1k
0j
#735000
10
1Y
1j
#740000
00
0/
1.
0Y
0X
1W
1|
0k
0j
1l
1i
1@
#745000
10
1Y
1j
#750000
00
1/
0Y
1X
1k
0j
#755000
10
1Y
1j
#760000
00
0/
0.
1-
0Y
0X
0W
1V
1}
0|
0k
0j
0l
1m
0i
1h
0@
1?
#765000
10
1Y
1j
#770000
00
1/
0Y
1X
1k
0j
#775000
10
1Y
1j
#780000
00
0/
1.
0Y
0X
1W
1|
0k
0j
1l
1i
1@
#785000
10
1Y
1j
#790000
00
1/
0Y
1X
1k
0j
#795000
10
1Y
1j
#800000
00
0/
0.
0-
0,
1+
0Y
0X
0W
0V
0U
1T
1!!
0~
0}
0|
0k
0j
0l
0m
0n
1o
0i
0h
0g
1f
0@
0?
0>
1=
#805000
10
1Y
1j
#810000
00
1/
0Y
1X
1k
0j
#815000
10
1Y
1j
#820000
00
0/
1.
0Y
0X
1W
1|
0k
0j
1l
1i
1@
#825000
10
1Y
1j
#830000
00
1/
0Y
1X
1k
0j
#835000
10
1Y
1j
#840000
00
0/
0.
1-
0Y
0X
0W
1V
1}
0|
0k
0j
0l
1m
0i
1h
0@
1?
#845000
10
1Y
1j
#850000
00
1/
0Y
1X
1k
0j
#855000
10
1Y
1j
#860000
00
0/
1.
0Y
0X
1W
1|
0k
0j
1l
1i
1@
#865000
10
1Y
1j
#870000
00
1/
0Y
1X
1k
0j
#875000
10
1Y
1j
#880000
00
0/
0.
0-
1,
0Y
0X
0W
0V
1U
1~
0}
0|
0k
0j
0l
0m
1n
0i
0h
1g
0@
0?
1>
#885000
10
1Y
1j
#890000
00
1/
0Y
1X
1k
0j
#895000
10
1Y
1j
#900000
00
0/
1.
0Y
0X
1W
1|
0k
0j
1l
1i
1@
#905000
10
1Y
1j
#910000
00
1/
0Y
1X
1k
0j
#915000
10
1Y
1j
#920000
00
0/
0.
1-
0Y
0X
0W
1V
1}
0|
0k
0j
0l
1m
0i
1h
0@
1?
#925000
10
1Y
1j
#930000
00
1/
0Y
1X
1k
0j
#935000
10
1Y
1j
#940000
00
0/
1.
0Y
0X
1W
1|
0k
0j
1l
1i
1@
#945000
10
1Y
1j
#950000
00
1/
0Y
1X
1k
0j
#955000
10
1Y
1j
#960000
00
0/
0.
0-
0,
0+
1*
0Y
0X
0W
0V
0U
0T
1S
1"!
0!!
0~
0}
0|
0k
0j
0l
0m
0n
0o
1p
0i
0h
0g
0f
1e
0@
0?
0>
0=
1<
#965000
10
1Y
1j
#970000
00
1/
0Y
1X
1k
0j
#975000
10
1Y
1j
#980000
00
0/
1.
0Y
0X
1W
1|
0k
0j
1l
1i
1@
#985000
10
1Y
1j
#990000
00
1/
0Y
1X
1k
0j
#995000
10
1Y
1j
