Componentes/ULA/simulation/qsim/ULA.msim.vcd
$comment
	File created using the following command:
		vcd file ULA.msim.vcd -direction
$end
$date
	Fri Oct 26 11:55:32 2018
$end
$version
	ModelSim Version 10.5b
$end
$timescale
	1ps
$end

$scope module ula_vhd_vec_tst $end
$var wire 1 ! RegA [15] $end
$var wire 1 " RegA [14] $end
$var wire 1 # RegA [13] $end
$var wire 1 $ RegA [12] $end
$var wire 1 % RegA [11] $end
$var wire 1 & RegA [10] $end
$var wire 1 ' RegA [9] $end
$var wire 1 ( RegA [8] $end
$var wire 1 ) RegA [7] $end
$var wire 1 * RegA [6] $end
$var wire 1 + RegA [5] $end
$var wire 1 , RegA [4] $end
$var wire 1 - RegA [3] $end
$var wire 1 . RegA [2] $end
$var wire 1 / RegA [1] $end
$var wire 1 0 RegA [0] $end
$var wire 1 1 RegB [15] $end
$var wire 1 2 RegB [14] $end
$var wire 1 3 RegB [13] $end
$var wire 1 4 RegB [12] $end
$var wire 1 5 RegB [11] $end
$var wire 1 6 RegB [10] $end
$var wire 1 7 RegB [9] $end
$var wire 1 8 RegB [8] $end
$var wire 1 9 RegB [7] $end
$var wire 1 : RegB [6] $end
$var wire 1 ; RegB [5] $end
$var wire 1 < RegB [4] $end
$var wire 1 = RegB [3] $end
$var wire 1 > RegB [2] $end
$var wire 1 ? RegB [1] $end
$var wire 1 @ RegB [0] $end
$var wire 1 A SaidaULA [15] $end
$var wire 1 B SaidaULA [14] $end
$var wire 1 C SaidaULA [13] $end
$var wire 1 D SaidaULA [12] $end
$var wire 1 E SaidaULA [11] $end
$var wire 1 F SaidaULA [10] $end
$var wire 1 G SaidaULA [9] $end
$var wire 1 H SaidaULA [8] $end
$var wire 1 I SaidaULA [7] $end
$var wire 1 J SaidaULA [6] $end
$var wire 1 K SaidaULA [5] $end
$var wire 1 L SaidaULA [4] $end
$var wire 1 M SaidaULA [3] $end
$var wire 1 N SaidaULA [2] $end
$var wire 1 O SaidaULA [1] $end
$var wire 1 P SaidaULA [0] $end
$var wire 1 Q ULAOP [3] $end
$var wire 1 R ULAOP [2] $end
$var wire 1 S ULAOP [1] $end
$var wire 1 T ULAOP [0] $end
$var wire 1 U Zero $end

$scope module i1 $end
$var wire 1 V gnd $end
$var wire 1 W vcc $end
$var wire 1 X unknown $end
$var wire 1 Y devoe $end
$var wire 1 Z devclrn $end
$var wire 1 [ devpor $end
$var wire 1 \ ww_devoe $end
$var wire 1 ] ww_devclrn $end
$var wire 1 ^ ww_devpor $end
$var wire 1 _ ww_RegA [15] $end
$var wire 1 ` ww_RegA [14] $end
$var wire 1 a ww_RegA [13] $end
$var wire 1 b ww_RegA [12] $end
$var wire 1 c ww_RegA [11] $end
$var wire 1 d ww_RegA [10] $end
$var wire 1 e ww_RegA [9] $end
$var wire 1 f ww_RegA [8] $end
$var wire 1 g ww_RegA [7] $end
$var wire 1 h ww_RegA [6] $end
$var wire 1 i ww_RegA [5] $end
$var wire 1 j ww_RegA [4] $end
$var wire 1 k ww_RegA [3] $end
$var wire 1 l ww_RegA [2] $end
$var wire 1 m ww_RegA [1] $end
$var wire 1 n ww_RegA [0] $end
$var wire 1 o ww_RegB [15] $end
$var wire 1 p ww_RegB [14] $end
$var wire 1 q ww_RegB [13] $end
$var wire 1 r ww_RegB [12] $end
$var wire 1 s ww_RegB [11] $end
$var wire 1 t ww_RegB [10] $end
$var wire 1 u ww_RegB [9] $end
$var wire 1 v ww_RegB [8] $end
$var wire 1 w ww_RegB [7] $end
$var wire 1 x ww_RegB [6] $end
$var wire 1 y ww_RegB [5] $end
$var wire 1 z ww_RegB [4] $end
$var wire 1 { ww_RegB [3] $end
$var wire 1 | ww_RegB [2] $end
$var wire 1 } ww_RegB [1] $end
$var wire 1 ~ ww_RegB [0] $end
$var wire 1 !! ww_ULAOP [3] $end
$var wire 1 "! ww_ULAOP [2] $end
$var wire 1 #! ww_ULAOP [1] $end
$var wire 1 $! ww_ULAOP [0] $end
$var wire 1 %! ww_SaidaULA [15] $end
$var wire 1 &! ww_SaidaULA [14] $end
$var wire 1 '! ww_SaidaULA [13] $end
$var wire 1 (! ww_SaidaULA [12] $end
$var wire 1 )! ww_SaidaULA [11] $end
$var wire 1 *! ww_SaidaULA [10] $end
$var wire 1 +! ww_SaidaULA [9] $end
$var wire 1 ,! ww_SaidaULA [8] $end
$var wire 1 -! ww_SaidaULA [7] $end
$var wire 1 .! ww_SaidaULA [6] $end
$var wire 1 /! ww_SaidaULA [5] $end
$var wire 1 0! ww_SaidaULA [4] $end
$var wire 1 1! ww_SaidaULA [3] $end
$var wire 1 2! ww_SaidaULA [2] $end
$var wire 1 3! ww_SaidaULA [1] $end
$var wire 1 4! ww_SaidaULA [0] $end
$var wire 1 5! ww_Zero $end
$var wire 1 6! \SaidaULA[0]~output_o\ $end
$var wire 1 7! \SaidaULA[1]~output_o\ $end
$var wire 1 8! \SaidaULA[2]~output_o\ $end
$var wire 1 9! \SaidaULA[3]~output_o\ $end
$var wire 1 :! \SaidaULA[4]~output_o\ $end
$var wire 1 ;! \SaidaULA[5]~output_o\ $end
$var wire 1 <! \SaidaULA[6]~output_o\ $end
$var wire 1 =! \SaidaULA[7]~output_o\ $end
$var wire 1 >! \SaidaULA[8]~output_o\ $end
$var wire 1 ?! \SaidaULA[9]~output_o\ $end
$var wire 1 @! \SaidaULA[10]~output_o\ $end
$var wire 1 A! \SaidaULA[11]~output_o\ $end
$var wire 1 B! \SaidaULA[12]~output_o\ $end
$var wire 1 C! \SaidaULA[13]~output_o\ $end
$var wire 1 D! \SaidaULA[14]~output_o\ $end
$var wire 1 E! \SaidaULA[15]~output_o\ $end
$var wire 1 F! \Zero~output_o\ $end
$var wire 1 G! \ULAOP[2]~input_o\ $end
$var wire 1 H! \ULAOP[3]~input_o\ $end
$var wire 1 I! \RegA[15]~input_o\ $end
$var wire 1 J! \RegB[15]~input_o\ $end
$var wire 1 K! \G11|Mux15~0_combout\ $end
$var wire 1 L! \ULAOP[1]~input_o\ $end
$var wire 1 M! \RegB[0]~input_o\ $end
$var wire 1 N! \RegA[0]~input_o\ $end
$var wire 1 O! \ULAOP[0]~input_o\ $end
$var wire 1 P! \G6|Add0~66_cout\ $end
$var wire 1 Q! \G6|Add0~1_sumout\ $end
$var wire 1 R! \G11|Mux15~1_combout\ $end
$var wire 1 S! \RegA[2]~input_o\ $end
$var wire 1 T! \G11|Mux15~2_combout\ $end
$var wire 1 U! \G11|Mux15~3_combout\ $end
$var wire 1 V! \G11|Mux15~4_combout\ $end
$var wire 1 W! \RegB[1]~input_o\ $end
$var wire 1 X! \RegA[1]~input_o\ $end
$var wire 1 Y! \G6|Add0~2\ $end
$var wire 1 Z! \G6|Add0~5_sumout\ $end
$var wire 1 [! \RegA[3]~input_o\ $end
$var wire 1 \! \G11|Mux14~0_combout\ $end
$var wire 1 ]! \RegB[2]~input_o\ $end
$var wire 1 ^! \G6|Add0~6\ $end
$var wire 1 _! \G6|Add0~9_sumout\ $end
$var wire 1 `! \G11|Mux8~0_combout\ $end
$var wire 1 a! \G11|Mux8~1_combout\ $end
$var wire 1 b! \RegA[4]~input_o\ $end
$var wire 1 c! \G11|Mux13~0_combout\ $end
$var wire 1 d! \RegB[3]~input_o\ $end
$var wire 1 e! \G6|Add0~10\ $end
$var wire 1 f! \G6|Add0~13_sumout\ $end
$var wire 1 g! \RegA[5]~input_o\ $end
$var wire 1 h! \G11|Mux12~0_combout\ $end
$var wire 1 i! \RegB[4]~input_o\ $end
$var wire 1 j! \G6|Add0~14\ $end
$var wire 1 k! \G6|Add0~17_sumout\ $end
$var wire 1 l! \RegA[6]~input_o\ $end
$var wire 1 m! \G11|Mux11~0_combout\ $end
$var wire 1 n! \RegB[5]~input_o\ $end
$var wire 1 o! \G6|Add0~18\ $end
$var wire 1 p! \G6|Add0~21_sumout\ $end
$var wire 1 q! \RegA[7]~input_o\ $end
$var wire 1 r! \G11|Mux10~0_combout\ $end
$var wire 1 s! \RegB[6]~input_o\ $end
$var wire 1 t! \G6|Add0~22\ $end
$var wire 1 u! \G6|Add0~25_sumout\ $end
$var wire 1 v! \RegA[8]~input_o\ $end
$var wire 1 w! \G11|Mux9~0_combout\ $end
$var wire 1 x! \RegB[7]~input_o\ $end
$var wire 1 y! \G6|Add0~26\ $end
$var wire 1 z! \G6|Add0~29_sumout\ $end
$var wire 1 {! \RegA[9]~input_o\ $end
$var wire 1 |! \G11|Mux8~2_combout\ $end
$var wire 1 }! \RegB[8]~input_o\ $end
$var wire 1 ~! \G6|Add0~30\ $end
$var wire 1 !" \G6|Add0~33_sumout\ $end
$var wire 1 "" \RegA[10]~input_o\ $end
$var wire 1 #" \G11|Mux7~0_combout\ $end
$var wire 1 $" \RegB[9]~input_o\ $end
$var wire 1 %" \G6|Add0~34\ $end
$var wire 1 &" \G6|Add0~37_sumout\ $end
$var wire 1 '" \RegA[11]~input_o\ $end
$var wire 1 (" \G11|Mux6~0_combout\ $end
$var wire 1 )" \RegB[10]~input_o\ $end
$var wire 1 *" \G6|Add0~38\ $end
$var wire 1 +" \G6|Add0~41_sumout\ $end
$var wire 1 ," \RegA[12]~input_o\ $end
$var wire 1 -" \G11|Mux5~0_combout\ $end
$var wire 1 ." \RegB[11]~input_o\ $end
$var wire 1 /" \G6|Add0~42\ $end
$var wire 1 0" \G6|Add0~45_sumout\ $end
$var wire 1 1" \RegA[13]~input_o\ $end
$var wire 1 2" \G11|Mux4~0_combout\ $end
$var wire 1 3" \RegB[12]~input_o\ $end
$var wire 1 4" \G6|Add0~46\ $end
$var wire 1 5" \G6|Add0~49_sumout\ $end
$var wire 1 6" \RegA[14]~input_o\ $end
$var wire 1 7" \G11|Mux3~0_combout\ $end
$var wire 1 8" \RegB[13]~input_o\ $end
$var wire 1 9" \G6|Add0~50\ $end
$var wire 1 :" \G6|Add0~53_sumout\ $end
$var wire 1 ;" \G11|Mux2~0_combout\ $end
$var wire 1 <" \RegB[14]~input_o\ $end
$var wire 1 =" \G6|Add0~54\ $end
$var wire 1 >" \G6|Add0~57_sumout\ $end
$var wire 1 ?" \G11|Mux1~0_combout\ $end
$var wire 1 @" \G6|Add0~58\ $end
$var wire 1 A" \G6|Add0~61_sumout\ $end
$var wire 1 B" \G11|Mux0~0_combout\ $end
$var wire 1 C" \ALT_INV_RegB[14]~input_o\ $end
$var wire 1 D" \ALT_INV_RegB[13]~input_o\ $end
$var wire 1 E" \ALT_INV_RegB[12]~input_o\ $end
$var wire 1 F" \ALT_INV_RegB[11]~input_o\ $end
$var wire 1 G" \ALT_INV_RegB[10]~input_o\ $end
$var wire 1 H" \ALT_INV_RegB[9]~input_o\ $end
$var wire 1 I" \ALT_INV_RegB[8]~input_o\ $end
$var wire 1 J" \ALT_INV_RegB[7]~input_o\ $end
$var wire 1 K" \ALT_INV_RegB[6]~input_o\ $end
$var wire 1 L" \ALT_INV_RegB[5]~input_o\ $end
$var wire 1 M" \ALT_INV_RegB[4]~input_o\ $end
$var wire 1 N" \ALT_INV_RegB[3]~input_o\ $end
$var wire 1 O" \ALT_INV_RegB[2]~input_o\ $end
$var wire 1 P" \ALT_INV_RegB[1]~input_o\ $end
$var wire 1 Q" \ALT_INV_RegB[0]~input_o\ $end
$var wire 1 R" \ALT_INV_RegA[14]~input_o\ $end
$var wire 1 S" \ALT_INV_RegA[13]~input_o\ $end
$var wire 1 T" \ALT_INV_RegA[12]~input_o\ $end
$var wire 1 U" \ALT_INV_RegA[11]~input_o\ $end
$var wire 1 V" \ALT_INV_RegA[10]~input_o\ $end
$var wire 1 W" \ALT_INV_RegA[9]~input_o\ $end
$var wire 1 X" \ALT_INV_RegA[8]~input_o\ $end
$var wire 1 Y" \ALT_INV_RegA[7]~input_o\ $end
$var wire 1 Z" \ALT_INV_RegA[6]~input_o\ $end
$var wire 1 [" \ALT_INV_RegA[5]~input_o\ $end
$var wire 1 \" \ALT_INV_RegA[1]~input_o\ $end
$var wire 1 ]" \ALT_INV_RegA[4]~input_o\ $end
$var wire 1 ^" \ALT_INV_RegA[0]~input_o\ $end
$var wire 1 _" \ALT_INV_RegA[3]~input_o\ $end
$var wire 1 `" \ALT_INV_ULAOP[1]~input_o\ $end
$var wire 1 a" \ALT_INV_ULAOP[0]~input_o\ $end
$var wire 1 b" \ALT_INV_RegA[2]~input_o\ $end
$var wire 1 c" \ALT_INV_RegB[15]~input_o\ $end
$var wire 1 d" \ALT_INV_RegA[15]~input_o\ $end
$var wire 1 e" \ALT_INV_ULAOP[3]~input_o\ $end
$var wire 1 f" \ALT_INV_ULAOP[2]~input_o\ $end
$var wire 1 g" \G11|ALT_INV_Mux8~1_combout\ $end
$var wire 1 h" \G11|ALT_INV_Mux8~0_combout\ $end
$var wire 1 i" \G11|ALT_INV_Mux15~3_combout\ $end
$var wire 1 j" \G11|ALT_INV_Mux15~2_combout\ $end
$var wire 1 k" \G11|ALT_INV_Mux15~1_combout\ $end
$var wire 1 l" \G11|ALT_INV_Mux15~0_combout\ $end
$var wire 1 m" \G6|ALT_INV_Add0~61_sumout\ $end
$var wire 1 n" \G6|ALT_INV_Add0~57_sumout\ $end
$var wire 1 o" \G6|ALT_INV_Add0~53_sumout\ $end
$var wire 1 p" \G6|ALT_INV_Add0~49_sumout\ $end
$var wire 1 q" \G6|ALT_INV_Add0~45_sumout\ $end
$var wire 1 r" \G6|ALT_INV_Add0~41_sumout\ $end
$var wire 1 s" \G6|ALT_INV_Add0~37_sumout\ $end
$var wire 1 t" \G6|ALT_INV_Add0~33_sumout\ $end
$var wire 1 u" \G6|ALT_INV_Add0~29_sumout\ $end
$var wire 1 v" \G6|ALT_INV_Add0~25_sumout\ $end
$var wire 1 w" \G6|ALT_INV_Add0~21_sumout\ $end
$var wire 1 x" \G6|ALT_INV_Add0~17_sumout\ $end
$var wire 1 y" \G6|ALT_INV_Add0~13_sumout\ $end
$var wire 1 z" \G6|ALT_INV_Add0~9_sumout\ $end
$var wire 1 {" \G6|ALT_INV_Add0~5_sumout\ $end
$var wire 1 |" \G6|ALT_INV_Add0~1_sumout\ $end
$upscope $end
$upscope $end
$enddefinitions $end
#0
$dumpvars
0U
0V
1W
xX
1Y
1Z
1[
1\
1]
1^
05!
06!
07!
08!
09!
0:!
0;!
0<!
0=!
0>!
0?!
0@!
0A!
0B!
0C!
0D!
0E!
0F!
0G!
0H!
0I!
0J!
0K!
0L!
0M!
0N!
0O!
1P!
1Q!
1R!
0S!
1T!
0U!
0V!
0W!
0X!
0Y!
0Z!
0[!
0\!
0]!
0^!
0_!
0`!
0a!
0b!
0c!
0d!
0e!
0f!
0g!
0h!
0i!
0j!
0k!
0l!
0m!
0n!
0o!
0p!
0q!
0r!
0s!
0t!
0u!
0v!
0w!
0x!
0y!
0z!
0{!
0|!
0}!
0~!
0!"
0""
0#"
0$"
0%"
0&"
0'"
0("
0)"
0*"
0+"
0,"
0-"
0."
0/"
00"
01"
02"
03"
04"
05"
06"
07"
08"
09"
0:"
0;"
0<"
0="
0>"
0?"
0@"
0A"
0B"
1C"
1D"
1E"
1F"
1G"
1H"
1I"
1J"
1K"
1L"
1M"
1N"
1O"
1P"
1Q"
1R"
1S"
1T"
1U"
1V"
1W"
1X"
1Y"
1Z"
1["
1\"
1]"
1^"
1_"
1`"
1a"
1b"
1c"
1d"
1e"
1f"
1g"
1h"
1i"
0j"
0k"
1l"
1m"
1n"
1o"
1p"
1q"
1r"
1s"
1t"
1u"
1v"
1w"
1x"
1y"
1z"
1{"
0|"
0!
0"
0#
0$
0%
0&
0'
0(
0)
0*
0+
0,
0-
0.
0/
00
01
02
03
04
05
06
07
08
09
0:
0;
0<
0=
0>
0?
0@
0Q
0R
0S
0T
0_
0`
0a
0b
0c
0d
0e
0f
0g
0h
0i
0j
0k
0l
0m
0n
0o
0p
0q
0r
0s
0t
0u
0v
0w
0x
0y
0z
0{
0|
0}
0~
0!!
0"!
0#!
0$!
0%!
0&!
0'!
0(!
0)!
0*!
0+!
0,!
0-!
0.!
0/!
00!
01!
02!
03!
04!
0A
0B
0C
0D
0E
0F
0G
0H
0I
0J
0K
0L
0M
0N
0O
0P
$end
#20000
10
1@
1T
1n
1~
1$!
1O!
1M!
1N!
0^"
0Q"
0a"
0P!
1V!
1`!
1a!
1Y!
0g"
0h"
1Z!
0Q!
1|"
0{"
16!
1\!
0R!
0T!
1j"
1k"
14!
1P
0V!
17!
13!
1O
06!
04!
0P
#40000
00
0@
0T
1/
1?
1S
0n
1m
0~
1}
0$!
1#!
1L!
0O!
1W!
0M!
1X!
0N!
1^"
0\"
1Q"
0P"
1a"
0`"
1_!
1f!
1k!
1p!
1u!
1z!
1!"
1&"
1+"
10"
15"
1:"
1>"
1A"
1P!
0Z!
1^!
1Q!
0Y!
0|"
1{"
0m"
0n"
0o"
0p"
0q"
0r"
0s"
0t"
0u"
0v"
0w"
0x"
0y"
0z"
1Z!
0^!
0_!
1e!
0Q!
1Y!
1c!
1h!
1m!
1r!
1w!
1|!
1#"
1("
1-"
12"
17"
1;"
1?"
1B"
0\!
1R!
1T!
1|"
1z"
0{"
0Z!
1^!
0f!
1j!
1_!
0e!
0j"
0k"
1\!
0c!
0R!
0T!
0z"
1y"
1{"
1V!
1f!
0j!
0k!
1o!
0_!
1e!
1j"
1k"
0\!
0h!
1c!
1z"
1x"
0y"
07!
1E!
1D!
1C!
1B!
1A!
1@!
1?!
1>!
1=!
1<!
1;!
1:!
19!
18!
0V!
0f!
1j!
0p!
1t!
1k!
0o!
1h!
0m!
0c!
0x"
1w"
1y"
03!
1%!
1&!
1'!
1(!
1)!
1*!
1+!
1,!
1-!
1.!
1/!
10!
11!
12!
08!
17!
1p!
0t!
0u!
1y!
0k!
1o!
0O
1N
1M
1L
1K
1J
1I
1H
1G
1F
1E
1D
1C
1B
1A
16!
0h!
0r!
1m!
1x"
1v"
0w"
02!
13!
18!
09!
07!
0p!
1t!
0z!
1~!
1u!
0y!
14!
1O
0N
06!
1r!
0w!
0m!
0v"
1u"
1w"
12!
01!
03!
1P
08!
0:!
19!
1z!
0~!
0!"
1%"
0u!
1y!
04!
0O
1N
0M
0r!
0|!
1w!
1v"
1t"
0u"
02!
00!
11!
0P
1:!
0;!
09!
0z!
1~!
0&"
1*"
1!"
0%"
0N
1M
0L
1|!
0#"
0w!
0t"
1s"
1u"
10!
0/!
01!
0:!
0<!
1;!
1&"
0*"
0+"
1/"
0!"
1%"
0M
1L
0K
0|!
0("
1#"
1t"
1r"
0s"
00!
0.!
1/!
1<!
0=!
0;!
0&"
1*"
00"
14"
1+"
0/"
0L
1K
0J
1("
0-"
0#"
0r"
1q"
1s"
1.!
0-!
0/!
0<!
0>!
1=!
10"
04"
05"
19"
0+"
1/"
0K
1J
0I
0("
02"
1-"
1r"
1p"
0q"
0.!
0,!
1-!
1>!
0?!
0=!
00"
14"
0:"
1="
15"
09"
0J
1I
0H
12"
07"
0-"
0p"
1o"
1q"
1,!
0+!
0-!
0>!
0@!
1?!
1:"
0="
0>"
1@"
05"
19"
0I
1H
0G
02"
0;"
17"
1p"
1n"
0o"
0,!
0*!
1+!
1@!
0A!
0?!
0:"
1="
0A"
1>"
0@"
0H
1G
0F
1;"
0?"
07"
0n"
1m"
1o"
1*!
0)!
0+!
0@!
0B!
1A!
1A"
0>"
1@"
0G
1F
0E
0;"
0B"
1?"
1n"
0m"
0*!
0(!
1)!
1B!
0C!
0A!
0A"
0F
1E
0D
1B"
0?"
1m"
1(!
0'!
0)!
0B!
0D!
1C!
0E
1D
0C
0B"
0(!
0&!
1'!
1D!
0E!
0C!
0D
1C
0B
1&!
0%!
0'!
0D!
1E!
0C
1B
0A
0&!
1%!
0E!
0B
1A
0%!
0A
#60000
10
1@
1T
1n
1~
1$!
1O!
1M!
1N!
0^"
0Q"
0a"
0P!
0`!
0a!
1g"
1h"
1Q!
0Y!
0|"
1Z!
0^!
1R!
1T!
0{"
1_!
0e!
0j"
0k"
0z"
1f!
0j!
0y"
1k!
0o!
0x"
1p!
0t!
0w"
1u!
0y!
0v"
1z!
0~!
0u"
1!"
0%"
0t"
1&"
0*"
0s"
1+"
0/"
0r"
10"
04"
0q"
15"
09"
0p"
1:"
0="
0o"
1>"
0@"
0n"
1A"
0m"
#80000
00
0@
0T
0/
0?
0S
1.
1>
1R
0n
0m
1l
0~
0}
1|
0$!
0#!
1"!
1G!
0L!
0O!
1]!
0W!
0M!
1S!
0X!
0N!
1^"
1\"
0b"
1Q"
1P"
0O"
1a"
1`"
0f"
1K!
0R!
1U!
0f!
0k!
0p!
0u!
0z!
0!"
0&"
0+"
00"
05"
0:"
0>"
0A"
1P!
0_!
1e!
0Z!
0Q!
1|"
1{"
1z"
1m"
1n"
1o"
1p"
1q"
1r"
1s"
1t"
1u"
1v"
1w"
1x"
1y"
0i"
1k"
0l"
1f!
1Q!
1V!
0|"
0y"
16!
14!
1P
#100000
10
1@
1T
1n
1~
1$!
1O!
1M!
1N!
0^"
0Q"
0a"
0P!
0V!
1Y!
1Z!
0Q!
1|"
0{"
06!
04!
0P
#120000
00
0@
0T
1/
1?
1S
0n
1m
0~
1}
0$!
1#!
1L!
0O!
1W!
0M!
1X!
0N!
1^"
0\"
1Q"
0P"
1a"
0`"
1_!
0e!
0f!
1j!
1k!
1p!
1u!
1z!
1!"
1&"
1+"
10"
15"
1:"
1>"
1A"
1P!
1V!
0Z!
1^!
1Q!
0Y!
0|"
1{"
0m"
0n"
0o"
0p"
0q"
0r"
0s"
0t"
0u"
0v"
0w"
0x"
1y"
0z"
1Z!
0^!
0_!
1e!
0Q!
1Y!
0k!
1o!
1f!
0j!
0y"
1x"
1|"
1z"
0{"
1k!
0o!
0p!
1t!
0Z!
1^!
0f!
1j!
1_!
0e!
16!
0z"
1y"
1{"
1w"
0x"
1f!
0j!
0k!
1o!
0_!
1e!
0u!
1y!
1p!
0t!
14!
0w"
1v"
1z"
1x"
0y"
1P
1u!
0y!
0z!
1~!
0f!
1j!
0p!
1t!
1k!
0o!
0x"
1w"
1y"
1u"
0v"
1p!
0t!
0u!
1y!
0k!
1o!
0!"
1%"
1z!
0~!
0u"
1t"
1x"
1v"
0w"
1!"
0%"
0&"
1*"
0p!
1t!
0z!
1~!
1u!
0y!
0v"
1u"
1w"
1s"
0t"
1z!
0~!
0!"
1%"
0u!
1y!
0+"
1/"
1&"
0*"
0s"
1r"
1v"
1t"
0u"
1+"
0/"
00"
14"
0z!
1~!
0&"
1*"
1!"
0%"
0t"
1s"
1u"
1q"
0r"
1&"
0*"
0+"
1/"
0!"
1%"
05"
19"
10"
04"
0q"
1p"
1t"
1r"
0s"
15"
09"
0:"
1="
0&"
1*"
00"
14"
1+"
0/"
0r"
1q"
1s"
1o"
0p"
10"
04"
05"
19"
0+"
1/"
0>"
1@"
1:"
0="
0o"
1n"
1r"
1p"
0q"
1>"
0@"
0A"
00"
14"
0:"
1="
15"
09"
0p"
1o"
1q"
1m"
0n"
1:"
0="
0>"
1@"
05"
19"
1A"
0m"
1p"
1n"
0o"
0:"
1="
0A"
1>"
0@"
0n"
1m"
1o"
1A"
0>"
1@"
1n"
0m"
0A"
1m"
#140000
10
1@
1T
1n
1~
1$!
1O!
1M!
1N!
0^"
0Q"
0a"
0P!
1Q!
0Y!
0|"
1Z!
0^!
0{"
1_!
0e!
0z"
1f!
0j!
0y"
1k!
0o!
0x"
1p!
0t!
0w"
1u!
0y!
0v"
1z!
0~!
0u"
1!"
0%"
0t"
1&"
0*"
0s"
1+"
0/"
0r"
10"
04"
0q"
15"
09"
0p"
1:"
0="
0o"
1>"
0@"
0n"
1A"
0m"
#160000
00
0@
0T
0/
0?
0S
0.
0>
0R
1-
1=
1Q
0n
0m
0l
1k
0~
0}
0|
1{
0$!
0#!
0"!
1!!
1H!
0G!
0L!
0O!
1d!
0]!
0W!
0M!
1[!
0S!
0X!
0N!
1^"
1\"
1b"
0_"
1Q"
1P"
1O"
0N"
1a"
1`"
1f"
0e"
0K!
0U!
0k!
0p!
0u!
0z!
0!"
0&"
0+"
00"
05"
0:"
0>"
0A"
1P!
0f!
1j!
0T!
0_!
0Z!
0Q!
1|"
1{"
1z"
1j"
1y"
1m"
1n"
1o"
1p"
1q"
1r"
1s"
1t"
1u"
1v"
1w"
1x"
1i"
1l"
1k!
1Q!
0V!
0|"
0x"
06!
04!
0P
#180000
10
1@
1T
1n
1~
1$!
1O!
1M!
1N!
0^"
0Q"
0a"
0P!
1`!
1Y!
0h"
1Z!
0Q!
1c!
1r!
1|"
0{"
1;!
18!
1/!
12!
1N
1K
#200000
00
0@
0T
1/
1?
1S
0n
1m
0~
1}
0$!
1#!
1L!
0O!
1W!
0M!
1X!
0N!
1^"
0\"
1Q"
0P"
1a"
0`"
1_!
1f!
0j!
0k!
1o!
1p!
1u!
1z!
1!"
1&"
1+"
10"
15"
1:"
1>"
1A"
1P!
1\!
0`!
1a!
0Z!
1^!
1h!
1Q!
0Y!
0c!
0|"
1{"
0g"
1h"
0m"
0n"
0o"
0p"
0q"
0r"
0s"
0t"
0u"
0v"
0w"
1x"
0y"
0z"
1Z!
0^!
0_!
1e!
0Q!
1Y!
0p!
1t!
1k!
0o!
0h!
0r!
0x"
1w"
1|"
1z"
0{"
1p!
0t!
0u!
1y!
0Z!
1^!
0f!
1j!
1_!
0e!
08!
19!
17!
0z"
1y"
1{"
1v"
0w"
1f!
0j!
0k!
1o!
0_!
1e!
0z!
1~!
1u!
0y!
02!
11!
13!
0v"
1u"
1z"
1x"
0y"
1O
0N
1M
0;!
09!
1z!
0~!
0!"
1%"
0f!
1j!
0p!
1t!
1k!
0o!
0x"
1w"
1y"
1t"
0u"
0/!
01!
1p!
0t!
0u!
1y!
0k!
1o!
0&"
1*"
1!"
0%"
0M
0K
0t"
1s"
1x"
1v"
0w"
1&"
0*"
0+"
1/"
0p!
1t!
0z!
1~!
1u!
0y!
0v"
1u"
1w"
1r"
0s"
1z!
0~!
0!"
1%"
0u!
1y!
00"
14"
1+"
0/"
0r"
1q"
1v"
1t"
0u"
10"
04"
05"
19"
0z!
1~!
0&"
1*"
1!"
0%"
0t"
1s"
1u"
1p"
0q"
1&"
0*"
0+"
1/"
0!"
1%"
0:"
1="
15"
09"
0p"
1o"
1t"
1r"
0s"
1:"
0="
0>"
1@"
0&"
1*"
00"
14"
1+"
0/"
0r"
1q"
1s"
1n"
0o"
10"
04"
05"
19"
0+"
1/"
0A"
1>"
0@"
0n"
1m"
1r"
1p"
0q"
1A"
00"
14"
0:"
1="
15"
09"
0p"
1o"
1q"
0m"
1:"
0="
0>"
1@"
05"
19"
1p"
1n"
0o"
0:"
1="
0A"
1>"
0@"
0n"
1m"
1o"
1A"
0>"
1@"
1n"
0m"
0A"
1m"
#220000
10
1@
1T
1n
1~
1$!
1O!
1M!
1N!
0^"
0Q"
0a"
0P!
0\!
0a!
1g"
1Q!
0Y!
0|"
1Z!
0^!
07!
0{"
1_!
0e!
03!
0z"
0O
1f!
0j!
0y"
1k!
0o!
0x"
1p!
0t!
0w"
1u!
0y!
0v"
1z!
0~!
0u"
1!"
0%"
0t"
1&"
0*"
0s"
1+"
0/"
0r"
10"
04"
0q"
15"
09"
0p"
1:"
0="
0o"
1>"
0@"
0n"
1A"
0m"
#240000
00
0@
0T
0/
0?
0S
1.
1>
1R
0n
0m
1l
0~
0}
1|
0$!
0#!
1"!
1G!
0L!
0O!
1]!
0W!
0M!
1S!
0X!
0N!
1^"
1\"
0b"
1Q"
1P"
0O"
1a"
1`"
0f"
0f!
1j!
0k!
0p!
0u!
0z!
0!"
0&"
0+"
00"
05"
0:"
0>"
0A"
1P!
0_!
1e!
0Z!
0Q!
1|"
1{"
1z"
1m"
1n"
1o"
1p"
1q"
1r"
1s"
1t"
1u"
1v"
1w"
1x"
1y"
1f!
1Q!
1k!
0x"
0|"
0y"
#260000
10
1@
1T
1n
1~
1$!
1O!
1M!
1N!
0^"
0Q"
0a"
0P!
1Y!
1Z!
0Q!
1|"
0{"
