Componentes/ULA/simulation/qsim/ULA.msim.vcd
$comment
	File created using the following command:
		vcd file ULA.msim.vcd -direction
$end
$date
	Thu Oct 25 15:58:50 2018
$end
$version
	ModelSim Version 10.5b
$end
$timescale
	1ps
$end

$scope module ula_vhd_vec_tst $end
$var wire 1 ! RegA [15] $end
$var wire 1 " RegA [14] $end
$var wire 1 # RegA [13] $end
$var wire 1 $ RegA [12] $end
$var wire 1 % RegA [11] $end
$var wire 1 & RegA [10] $end
$var wire 1 ' RegA [9] $end
$var wire 1 ( RegA [8] $end
$var wire 1 ) RegA [7] $end
$var wire 1 * RegA [6] $end
$var wire 1 + RegA [5] $end
$var wire 1 , RegA [4] $end
$var wire 1 - RegA [3] $end
$var wire 1 . RegA [2] $end
$var wire 1 / RegA [1] $end
$var wire 1 0 RegA [0] $end
$var wire 1 1 RegB [15] $end
$var wire 1 2 RegB [14] $end
$var wire 1 3 RegB [13] $end
$var wire 1 4 RegB [12] $end
$var wire 1 5 RegB [11] $end
$var wire 1 6 RegB [10] $end
$var wire 1 7 RegB [9] $end
$var wire 1 8 RegB [8] $end
$var wire 1 9 RegB [7] $end
$var wire 1 : RegB [6] $end
$var wire 1 ; RegB [5] $end
$var wire 1 < RegB [4] $end
$var wire 1 = RegB [3] $end
$var wire 1 > RegB [2] $end
$var wire 1 ? RegB [1] $end
$var wire 1 @ RegB [0] $end
$var wire 1 A SaidaULA [15] $end
$var wire 1 B SaidaULA [14] $end
$var wire 1 C SaidaULA [13] $end
$var wire 1 D SaidaULA [12] $end
$var wire 1 E SaidaULA [11] $end
$var wire 1 F SaidaULA [10] $end
$var wire 1 G SaidaULA [9] $end
$var wire 1 H SaidaULA [8] $end
$var wire 1 I SaidaULA [7] $end
$var wire 1 J SaidaULA [6] $end
$var wire 1 K SaidaULA [5] $end
$var wire 1 L SaidaULA [4] $end
$var wire 1 M SaidaULA [3] $end
$var wire 1 N SaidaULA [2] $end
$var wire 1 O SaidaULA [1] $end
$var wire 1 P SaidaULA [0] $end
$var wire 1 Q ULAOP [3] $end
$var wire 1 R ULAOP [2] $end
$var wire 1 S ULAOP [1] $end
$var wire 1 T ULAOP [0] $end
$var wire 1 U Zero $end

$scope module i1 $end
$var wire 1 V gnd $end
$var wire 1 W vcc $end
$var wire 1 X unknown $end
$var wire 1 Y devoe $end
$var wire 1 Z devclrn $end
$var wire 1 [ devpor $end
$var wire 1 \ ww_devoe $end
$var wire 1 ] ww_devclrn $end
$var wire 1 ^ ww_devpor $end
$var wire 1 _ ww_RegA [15] $end
$var wire 1 ` ww_RegA [14] $end
$var wire 1 a ww_RegA [13] $end
$var wire 1 b ww_RegA [12] $end
$var wire 1 c ww_RegA [11] $end
$var wire 1 d ww_RegA [10] $end
$var wire 1 e ww_RegA [9] $end
$var wire 1 f ww_RegA [8] $end
$var wire 1 g ww_RegA [7] $end
$var wire 1 h ww_RegA [6] $end
$var wire 1 i ww_RegA [5] $end
$var wire 1 j ww_RegA [4] $end
$var wire 1 k ww_RegA [3] $end
$var wire 1 l ww_RegA [2] $end
$var wire 1 m ww_RegA [1] $end
$var wire 1 n ww_RegA [0] $end
$var wire 1 o ww_RegB [15] $end
$var wire 1 p ww_RegB [14] $end
$var wire 1 q ww_RegB [13] $end
$var wire 1 r ww_RegB [12] $end
$var wire 1 s ww_RegB [11] $end
$var wire 1 t ww_RegB [10] $end
$var wire 1 u ww_RegB [9] $end
$var wire 1 v ww_RegB [8] $end
$var wire 1 w ww_RegB [7] $end
$var wire 1 x ww_RegB [6] $end
$var wire 1 y ww_RegB [5] $end
$var wire 1 z ww_RegB [4] $end
$var wire 1 { ww_RegB [3] $end
$var wire 1 | ww_RegB [2] $end
$var wire 1 } ww_RegB [1] $end
$var wire 1 ~ ww_RegB [0] $end
$var wire 1 !! ww_ULAOP [3] $end
$var wire 1 "! ww_ULAOP [2] $end
$var wire 1 #! ww_ULAOP [1] $end
$var wire 1 $! ww_ULAOP [0] $end
$var wire 1 %! ww_SaidaULA [15] $end
$var wire 1 &! ww_SaidaULA [14] $end
$var wire 1 '! ww_SaidaULA [13] $end
$var wire 1 (! ww_SaidaULA [12] $end
$var wire 1 )! ww_SaidaULA [11] $end
$var wire 1 *! ww_SaidaULA [10] $end
$var wire 1 +! ww_SaidaULA [9] $end
$var wire 1 ,! ww_SaidaULA [8] $end
$var wire 1 -! ww_SaidaULA [7] $end
$var wire 1 .! ww_SaidaULA [6] $end
$var wire 1 /! ww_SaidaULA [5] $end
$var wire 1 0! ww_SaidaULA [4] $end
$var wire 1 1! ww_SaidaULA [3] $end
$var wire 1 2! ww_SaidaULA [2] $end
$var wire 1 3! ww_SaidaULA [1] $end
$var wire 1 4! ww_SaidaULA [0] $end
$var wire 1 5! ww_Zero $end
$var wire 1 6! \SaidaULA[0]~output_o\ $end
$var wire 1 7! \SaidaULA[1]~output_o\ $end
$var wire 1 8! \SaidaULA[2]~output_o\ $end
$var wire 1 9! \SaidaULA[3]~output_o\ $end
$var wire 1 :! \SaidaULA[4]~output_o\ $end
$var wire 1 ;! \SaidaULA[5]~output_o\ $end
$var wire 1 <! \SaidaULA[6]~output_o\ $end
$var wire 1 =! \SaidaULA[7]~output_o\ $end
$var wire 1 >! \SaidaULA[8]~output_o\ $end
$var wire 1 ?! \SaidaULA[9]~output_o\ $end
$var wire 1 @! \SaidaULA[10]~output_o\ $end
$var wire 1 A! \SaidaULA[11]~output_o\ $end
$var wire 1 B! \SaidaULA[12]~output_o\ $end
$var wire 1 C! \SaidaULA[13]~output_o\ $end
$var wire 1 D! \SaidaULA[14]~output_o\ $end
$var wire 1 E! \SaidaULA[15]~output_o\ $end
$var wire 1 F! \Zero~output_o\ $end
$var wire 1 G! \ULAOP[1]~input_o\ $end
$var wire 1 H! \RegB[0]~input_o\ $end
$var wire 1 I! \RegA[0]~input_o\ $end
$var wire 1 J! \ULAOP[0]~input_o\ $end
$var wire 1 K! \G6|Add0~66_cout\ $end
$var wire 1 L! \G6|Add0~1_sumout\ $end
$var wire 1 M! \ULAOP[2]~input_o\ $end
$var wire 1 N! \ULAOP[3]~input_o\ $end
$var wire 1 O! \G9|Mux15~0_combout\ $end
$var wire 1 P! \RegA[15]~input_o\ $end
$var wire 1 Q! \RegB[15]~input_o\ $end
$var wire 1 R! \G9|Mux15~1_combout\ $end
$var wire 1 S! \G9|Mux15~2_combout\ $end
$var wire 1 T! \RegB[1]~input_o\ $end
$var wire 1 U! \RegA[1]~input_o\ $end
$var wire 1 V! \G6|Add0~2\ $end
$var wire 1 W! \G6|Add0~5_sumout\ $end
$var wire 1 X! \G9|Mux14~0_combout\ $end
$var wire 1 Y! \RegB[2]~input_o\ $end
$var wire 1 Z! \RegA[2]~input_o\ $end
$var wire 1 [! \G6|Add0~6\ $end
$var wire 1 \! \G6|Add0~9_sumout\ $end
$var wire 1 ]! \G9|Mux13~0_combout\ $end
$var wire 1 ^! \RegB[3]~input_o\ $end
$var wire 1 _! \RegA[3]~input_o\ $end
$var wire 1 `! \G6|Add0~10\ $end
$var wire 1 a! \G6|Add0~13_sumout\ $end
$var wire 1 b! \G9|Mux12~0_combout\ $end
$var wire 1 c! \RegB[4]~input_o\ $end
$var wire 1 d! \RegA[4]~input_o\ $end
$var wire 1 e! \G6|Add0~14\ $end
$var wire 1 f! \G6|Add0~17_sumout\ $end
$var wire 1 g! \G9|Mux11~0_combout\ $end
$var wire 1 h! \RegB[5]~input_o\ $end
$var wire 1 i! \RegA[5]~input_o\ $end
$var wire 1 j! \G6|Add0~18\ $end
$var wire 1 k! \G6|Add0~21_sumout\ $end
$var wire 1 l! \G9|Mux10~0_combout\ $end
$var wire 1 m! \RegB[6]~input_o\ $end
$var wire 1 n! \RegA[6]~input_o\ $end
$var wire 1 o! \G6|Add0~22\ $end
$var wire 1 p! \G6|Add0~25_sumout\ $end
$var wire 1 q! \G9|Mux9~0_combout\ $end
$var wire 1 r! \RegB[7]~input_o\ $end
$var wire 1 s! \RegA[7]~input_o\ $end
$var wire 1 t! \G6|Add0~26\ $end
$var wire 1 u! \G6|Add0~29_sumout\ $end
$var wire 1 v! \G9|Mux8~0_combout\ $end
$var wire 1 w! \RegB[8]~input_o\ $end
$var wire 1 x! \RegA[8]~input_o\ $end
$var wire 1 y! \G6|Add0~30\ $end
$var wire 1 z! \G6|Add0~33_sumout\ $end
$var wire 1 {! \G9|Mux7~0_combout\ $end
$var wire 1 |! \RegB[9]~input_o\ $end
$var wire 1 }! \RegA[9]~input_o\ $end
$var wire 1 ~! \G6|Add0~34\ $end
$var wire 1 !" \G6|Add0~37_sumout\ $end
$var wire 1 "" \G9|Mux6~0_combout\ $end
$var wire 1 #" \RegB[10]~input_o\ $end
$var wire 1 $" \RegA[10]~input_o\ $end
$var wire 1 %" \G6|Add0~38\ $end
$var wire 1 &" \G6|Add0~41_sumout\ $end
$var wire 1 '" \G9|Mux5~0_combout\ $end
$var wire 1 (" \RegB[11]~input_o\ $end
$var wire 1 )" \RegA[11]~input_o\ $end
$var wire 1 *" \G6|Add0~42\ $end
$var wire 1 +" \G6|Add0~45_sumout\ $end
$var wire 1 ," \G9|Mux4~0_combout\ $end
$var wire 1 -" \RegB[12]~input_o\ $end
$var wire 1 ." \RegA[12]~input_o\ $end
$var wire 1 /" \G6|Add0~46\ $end
$var wire 1 0" \G6|Add0~49_sumout\ $end
$var wire 1 1" \G9|Mux3~0_combout\ $end
$var wire 1 2" \RegB[13]~input_o\ $end
$var wire 1 3" \RegA[13]~input_o\ $end
$var wire 1 4" \G6|Add0~50\ $end
$var wire 1 5" \G6|Add0~53_sumout\ $end
$var wire 1 6" \G9|Mux2~0_combout\ $end
$var wire 1 7" \RegB[14]~input_o\ $end
$var wire 1 8" \RegA[14]~input_o\ $end
$var wire 1 9" \G6|Add0~54\ $end
$var wire 1 :" \G6|Add0~57_sumout\ $end
$var wire 1 ;" \G9|Mux1~0_combout\ $end
$var wire 1 <" \G6|Add0~58\ $end
$var wire 1 =" \G6|Add0~61_sumout\ $end
$var wire 1 >" \G9|Mux0~0_combout\ $end
$var wire 1 ?" \ALT_INV_RegA[14]~input_o\ $end
$var wire 1 @" \ALT_INV_RegB[14]~input_o\ $end
$var wire 1 A" \ALT_INV_RegA[13]~input_o\ $end
$var wire 1 B" \ALT_INV_RegB[13]~input_o\ $end
$var wire 1 C" \ALT_INV_RegA[12]~input_o\ $end
$var wire 1 D" \ALT_INV_RegB[12]~input_o\ $end
$var wire 1 E" \ALT_INV_RegA[11]~input_o\ $end
$var wire 1 F" \ALT_INV_RegB[11]~input_o\ $end
$var wire 1 G" \ALT_INV_RegA[10]~input_o\ $end
$var wire 1 H" \ALT_INV_RegB[10]~input_o\ $end
$var wire 1 I" \ALT_INV_RegA[9]~input_o\ $end
$var wire 1 J" \ALT_INV_RegB[9]~input_o\ $end
$var wire 1 K" \ALT_INV_RegA[8]~input_o\ $end
$var wire 1 L" \ALT_INV_RegB[8]~input_o\ $end
$var wire 1 M" \ALT_INV_RegA[7]~input_o\ $end
$var wire 1 N" \ALT_INV_RegB[7]~input_o\ $end
$var wire 1 O" \ALT_INV_RegA[6]~input_o\ $end
$var wire 1 P" \ALT_INV_RegB[6]~input_o\ $end
$var wire 1 Q" \ALT_INV_RegA[5]~input_o\ $end
$var wire 1 R" \ALT_INV_RegB[5]~input_o\ $end
$var wire 1 S" \ALT_INV_RegA[4]~input_o\ $end
$var wire 1 T" \ALT_INV_RegB[4]~input_o\ $end
$var wire 1 U" \ALT_INV_RegA[3]~input_o\ $end
$var wire 1 V" \ALT_INV_RegB[3]~input_o\ $end
$var wire 1 W" \ALT_INV_RegA[2]~input_o\ $end
$var wire 1 X" \ALT_INV_RegB[2]~input_o\ $end
$var wire 1 Y" \ALT_INV_RegA[1]~input_o\ $end
$var wire 1 Z" \ALT_INV_RegB[1]~input_o\ $end
$var wire 1 [" \ALT_INV_RegA[0]~input_o\ $end
$var wire 1 \" \ALT_INV_RegB[0]~input_o\ $end
$var wire 1 ]" \ALT_INV_RegB[15]~input_o\ $end
$var wire 1 ^" \ALT_INV_RegA[15]~input_o\ $end
$var wire 1 _" \ALT_INV_ULAOP[0]~input_o\ $end
$var wire 1 `" \ALT_INV_ULAOP[1]~input_o\ $end
$var wire 1 a" \ALT_INV_ULAOP[3]~input_o\ $end
$var wire 1 b" \ALT_INV_ULAOP[2]~input_o\ $end
$var wire 1 c" \G9|ALT_INV_Mux15~1_combout\ $end
$var wire 1 d" \G9|ALT_INV_Mux15~0_combout\ $end
$var wire 1 e" \G6|ALT_INV_Add0~61_sumout\ $end
$var wire 1 f" \G6|ALT_INV_Add0~57_sumout\ $end
$var wire 1 g" \G6|ALT_INV_Add0~53_sumout\ $end
$var wire 1 h" \G6|ALT_INV_Add0~49_sumout\ $end
$var wire 1 i" \G6|ALT_INV_Add0~45_sumout\ $end
$var wire 1 j" \G6|ALT_INV_Add0~41_sumout\ $end
$var wire 1 k" \G6|ALT_INV_Add0~37_sumout\ $end
$var wire 1 l" \G6|ALT_INV_Add0~33_sumout\ $end
$var wire 1 m" \G6|ALT_INV_Add0~29_sumout\ $end
$var wire 1 n" \G6|ALT_INV_Add0~25_sumout\ $end
$var wire 1 o" \G6|ALT_INV_Add0~21_sumout\ $end
$var wire 1 p" \G6|ALT_INV_Add0~17_sumout\ $end
$var wire 1 q" \G6|ALT_INV_Add0~13_sumout\ $end
$var wire 1 r" \G6|ALT_INV_Add0~9_sumout\ $end
$var wire 1 s" \G6|ALT_INV_Add0~5_sumout\ $end
$var wire 1 t" \G6|ALT_INV_Add0~1_sumout\ $end
$upscope $end
$upscope $end
$enddefinitions $end
#0
$dumpvars
0U
0V
1W
xX
1Y
1Z
1[
1\
1]
1^
05!
06!
07!
08!
09!
0:!
0;!
0<!
0=!
0>!
0?!
0@!
0A!
0B!
0C!
0D!
0E!
0F!
0G!
0H!
0I!
0J!
1K!
1L!
0M!
0N!
0O!
0P!
0Q!
0R!
0S!
0T!
0U!
0V!
0W!
0X!
0Y!
0Z!
0[!
0\!
0]!
0^!
0_!
0`!
0a!
0b!
0c!
0d!
0e!
0f!
0g!
0h!
0i!
0j!
0k!
0l!
0m!
0n!
0o!
0p!
0q!
0r!
0s!
0t!
0u!
0v!
0w!
0x!
0y!
0z!
0{!
0|!
0}!
0~!
0!"
0""
0#"
0$"
0%"
0&"
0'"
0("
0)"
0*"
0+"
0,"
0-"
0."
0/"
00"
01"
02"
03"
04"
05"
06"
07"
08"
09"
0:"
0;"
0<"
0="
0>"
1?"
1@"
1A"
1B"
1C"
1D"
1E"
1F"
1G"
1H"
1I"
1J"
1K"
1L"
1M"
1N"
1O"
1P"
1Q"
1R"
1S"
1T"
1U"
1V"
1W"
1X"
1Y"
1Z"
1["
1\"
1]"
1^"
1_"
1`"
1a"
1b"
1c"
1d"
1e"
1f"
1g"
1h"
1i"
1j"
1k"
1l"
1m"
1n"
1o"
1p"
1q"
1r"
1s"
0t"
0!
0"
0#
0$
0%
0&
0'
0(
0)
0*
0+
0,
0-
0.
0/
00
01
02
03
04
05
06
07
08
09
0:
0;
0<
0=
0>
0?
0@
0Q
0R
0S
0T
0_
0`
0a
0b
0c
0d
0e
0f
0g
0h
0i
0j
0k
0l
0m
0n
0o
0p
0q
0r
0s
0t
0u
0v
0w
0x
0y
0z
0{
0|
0}
0~
0!!
0"!
0#!
0$!
0%!
0&!
0'!
0(!
0)!
0*!
0+!
0,!
0-!
0.!
0/!
00!
01!
02!
03!
04!
0A
0B
0C
0D
0E
0F
0G
0H
0I
0J
0K
0L
0M
0N
0O
0P
$end
#20000
10
1@
1T
1n
1~
1$!
1J!
1H!
1I!
0["
0\"
0_"
0K!
1O!
1V!
0d"
1W!
0L!
1S!
1t"
0s"
1X!
0S!
16!
14!
06!
17!
1P
04!
13!
0P
1O
#40000
00
0@
0T
1/
1?
1S
0n
1m
0~
1}
0$!
1#!
1G!
0J!
1T!
0H!
1U!
0I!
1["
0Y"
1\"
0Z"
1_"
0`"
1\!
1a!
1f!
1k!
1p!
1u!
1z!
1!"
1&"
1+"
10"
15"
1:"
1="
1K!
0W!
1[!
1L!
0V!
0t"
1s"
0e"
0f"
0g"
0h"
0i"
0j"
0k"
0l"
0m"
0n"
0o"
0p"
0q"
0r"
1W!
0[!
0\!
1`!
0L!
1V!
1]!
1b!
1g!
1l!
1q!
1v!
1{!
1""
1'"
1,"
11"
16"
1;"
1>"
0X!
1S!
1t"
1r"
0s"
0W!
1[!
0a!
1e!
1\!
0`!
1X!
0]!
0S!
0r"
1q"
1s"
1a!
0e!
0f!
1j!
0\!
1`!
0X!
0b!
1]!
1r"
1p"
0q"
16!
07!
1E!
1D!
1C!
1B!
1A!
1@!
1?!
1>!
1=!
1<!
1;!
1:!
19!
18!
0a!
1e!
0k!
1o!
1f!
0j!
1b!
0g!
0]!
0p"
1o"
1q"
14!
03!
1%!
1&!
1'!
1(!
1)!
1*!
1+!
1,!
1-!
1.!
1/!
10!
11!
12!
06!
08!
17!
1k!
0o!
0p!
1t!
0f!
1j!
1P
0O
1N
1M
1L
1K
1J
1I
1H
1G
1F
1E
1D
1C
1B
1A
0b!
0l!
1g!
1p"
1n"
0o"
04!
02!
13!
18!
09!
07!
0k!
1o!
0u!
1y!
1p!
0t!
0P
1O
0N
1l!
0q!
0g!
0n"
1m"
1o"
12!
01!
03!
08!
0:!
19!
1u!
0y!
0z!
1~!
0p!
1t!
0O
1N
0M
0l!
0v!
1q!
1n"
1l"
0m"
02!
00!
11!
1:!
0;!
09!
0u!
1y!
0!"
1%"
1z!
0~!
0N
1M
0L
1v!
0{!
0q!
0l"
1k"
1m"
10!
0/!
01!
0:!
0<!
1;!
1!"
0%"
0&"
1*"
0z!
1~!
0M
1L
0K
0v!
0""
1{!
1l"
1j"
0k"
00!
0.!
1/!
1<!
0=!
0;!
0!"
1%"
0+"
1/"
1&"
0*"
0L
1K
0J
1""
0'"
0{!
0j"
1i"
1k"
1.!
0-!
0/!
0<!
0>!
1=!
1+"
0/"
00"
14"
0&"
1*"
0K
1J
0I
0""
0,"
1'"
1j"
1h"
0i"
0.!
0,!
1-!
1>!
0?!
0=!
0+"
1/"
05"
19"
10"
04"
0J
1I
0H
1,"
01"
0'"
0h"
1g"
1i"
1,!
0+!
0-!
0>!
0@!
1?!
15"
09"
0:"
1<"
00"
14"
0I
1H
0G
0,"
06"
11"
1h"
1f"
0g"
0,!
0*!
1+!
1@!
0A!
0?!
05"
19"
0="
1:"
0<"
0H
1G
0F
16"
0;"
01"
0f"
1e"
1g"
1*!
0)!
0+!
0@!
0B!
1A!
1="
0:"
1<"
0G
1F
0E
06"
0>"
1;"
1f"
0e"
0*!
0(!
1)!
1B!
0C!
0A!
0="
0F
1E
0D
1>"
0;"
1e"
1(!
0'!
0)!
0B!
0D!
1C!
0E
1D
0C
0>"
0(!
0&!
1'!
1D!
0E!
0C!
0D
1C
0B
1&!
0%!
0'!
0D!
1E!
0C
1B
0A
0&!
1%!
0E!
0B
1A
0%!
0A
#60000
10
1@
1T
1n
1~
1$!
1J!
1H!
1I!
0["
0\"
0_"
0K!
0O!
1d"
1L!
0V!
0t"
1W!
0[!
0s"
1\!
0`!
0r"
1a!
0e!
0q"
1f!
0j!
0p"
1k!
0o!
0o"
1p!
0t!
0n"
1u!
0y!
0m"
1z!
0~!
0l"
1!"
0%"
0k"
1&"
0*"
0j"
1+"
0/"
0i"
10"
04"
0h"
15"
09"
0g"
1:"
0<"
0f"
1="
0e"
#80000
00
0@
0T
0/
0?
0S
1.
1>
1R
0n
0m
1l
0~
0}
1|
0$!
0#!
1"!
1M!
0G!
0J!
1Y!
0T!
0H!
1Z!
0U!
0I!
1["
1Y"
0W"
1\"
1Z"
0X"
1_"
1`"
0b"
0a!
0f!
0k!
0p!
0u!
0z!
0!"
0&"
0+"
00"
05"
0:"
0="
1K!
1R!
0\!
1`!
0W!
0L!
1t"
1s"
1r"
0c"
1e"
1f"
1g"
1h"
1i"
1j"
1k"
1l"
1m"
1n"
1o"
1p"
1q"
1a!
1L!
1S!
0t"
0q"
16!
14!
1P
#100000
10
1@
1T
1n
1~
1$!
1J!
1H!
1I!
0["
0\"
0_"
0K!
0R!
1V!
1c"
1W!
0L!
0S!
1t"
0s"
06!
04!
0P
#120000
00
0@
0T
1/
1?
1S
0n
1m
0~
1}
0$!
1#!
1G!
0J!
1T!
0H!
1U!
0I!
1["
0Y"
1\"
0Z"
1_"
0`"
1\!
0`!
0a!
1e!
1f!
1k!
1p!
1u!
1z!
1!"
1&"
1+"
10"
15"
1:"
1="
1K!
1R!
0W!
1[!
1L!
0V!
0t"
1s"
0c"
0e"
0f"
0g"
0h"
0i"
0j"
0k"
0l"
0m"
0n"
0o"
0p"
1q"
0r"
1W!
0[!
0\!
1`!
0L!
1V!
0f!
1j!
1a!
0e!
1S!
0q"
1p"
1t"
1r"
0s"
1f!
0j!
0k!
1o!
0W!
1[!
0a!
1e!
1\!
0`!
0r"
1q"
1s"
1o"
0p"
1a!
0e!
0f!
1j!
0\!
1`!
0p!
1t!
1k!
0o!
0o"
1n"
1r"
1p"
0q"
16!
1p!
0t!
0u!
1y!
0a!
1e!
0k!
1o!
1f!
0j!
0p"
1o"
1q"
1m"
0n"
14!
1k!
0o!
0p!
1t!
0f!
1j!
0z!
1~!
1u!
0y!
1P
0m"
1l"
1p"
1n"
0o"
1z!
0~!
0!"
1%"
0k!
1o!
0u!
1y!
1p!
0t!
0n"
1m"
1o"
1k"
0l"
1u!
0y!
0z!
1~!
0p!
1t!
0&"
1*"
1!"
0%"
0k"
1j"
1n"
1l"
0m"
1&"
0*"
0+"
1/"
0u!
1y!
0!"
1%"
1z!
0~!
0l"
1k"
1m"
1i"
0j"
1!"
0%"
0&"
1*"
0z!
1~!
00"
14"
1+"
0/"
0i"
1h"
1l"
1j"
0k"
10"
04"
05"
19"
0!"
1%"
0+"
1/"
1&"
0*"
0j"
1i"
1k"
1g"
0h"
1+"
0/"
00"
14"
0&"
1*"
0:"
1<"
15"
09"
0g"
1f"
1j"
1h"
0i"
1:"
0<"
0="
0+"
1/"
05"
19"
10"
04"
0h"
1g"
1i"
1e"
0f"
15"
09"
0:"
1<"
00"
14"
1="
0e"
1h"
1f"
0g"
05"
19"
0="
1:"
0<"
0f"
1e"
1g"
1="
0:"
1<"
1f"
0e"
0="
1e"
#140000
10
1@
1T
1n
1~
1$!
1J!
1H!
1I!
0["
0\"
0_"
0K!
1L!
0V!
0t"
1W!
0[!
0s"
1\!
0`!
0r"
1a!
0e!
0q"
1f!
0j!
0p"
1k!
0o!
0o"
1p!
0t!
0n"
1u!
0y!
0m"
1z!
0~!
0l"
1!"
0%"
0k"
1&"
0*"
0j"
1+"
0/"
0i"
10"
04"
0h"
15"
09"
0g"
1:"
0<"
0f"
1="
0e"
#160000
00
0@
0T
0/
0?
0S
0.
0>
0R
1-
1=
1Q
0n
0m
0l
1k
0~
0}
0|
1{
0$!
0#!
0"!
1!!
1N!
0M!
0G!
0J!
1^!
0Y!
0T!
0H!
1_!
0Z!
0U!
0I!
1["
1Y"
1W"
0U"
1\"
1Z"
1X"
0V"
1_"
1`"
1b"
0a"
0f!
0k!
0p!
0u!
0z!
0!"
0&"
0+"
00"
05"
0:"
0="
1K!
0R!
0a!
1e!
0\!
0W!
0L!
1t"
1s"
1r"
1q"
1c"
1e"
1f"
1g"
1h"
1i"
1j"
1k"
1l"
1m"
1n"
1o"
1p"
1f!
1L!
0S!
0t"
0p"
06!
04!
0P
#180000
10
1@
1T
1n
1~
1$!
1J!
1H!
1I!
0["
0\"
0_"
0K!
1V!
1W!
0L!
1t"
0s"
#200000
00
0@
0T
1/
1?
1S
0n
1m
0~
1}
0$!
1#!
1G!
0J!
1T!
0H!
1U!
0I!
1["
0Y"
1\"
0Z"
1_"
0`"
1\!
1a!
0e!
0f!
1j!
1k!
1p!
1u!
1z!
1!"
1&"
1+"
10"
15"
1:"
1="
1K!
0W!
1[!
1L!
0V!
0t"
1s"
0e"
0f"
0g"
0h"
0i"
0j"
0k"
0l"
0m"
0n"
0o"
1p"
0q"
0r"
1W!
0[!
0\!
1`!
0L!
1V!
0k!
1o!
1f!
0j!
0p"
1o"
1t"
1r"
0s"
1k!
0o!
0p!
1t!
0W!
1[!
0a!
1e!
1\!
0`!
0r"
1q"
1s"
1n"
0o"
1a!
0e!
0f!
1j!
0\!
1`!
0u!
1y!
1p!
0t!
0n"
1m"
1r"
1p"
0q"
1u!
0y!
0z!
1~!
0a!
1e!
0k!
1o!
1f!
0j!
0p"
1o"
1q"
1l"
0m"
1k!
0o!
0p!
1t!
0f!
1j!
0!"
1%"
1z!
0~!
0l"
1k"
1p"
1n"
0o"
1!"
0%"
0&"
1*"
0k!
1o!
0u!
1y!
1p!
0t!
0n"
1m"
1o"
1j"
0k"
1u!
0y!
0z!
1~!
0p!
1t!
0+"
1/"
1&"
0*"
0j"
1i"
1n"
1l"
0m"
1+"
0/"
00"
14"
0u!
1y!
0!"
1%"
1z!
0~!
0l"
1k"
1m"
1h"
0i"
1!"
0%"
0&"
1*"
0z!
1~!
05"
19"
10"
04"
0h"
1g"
1l"
1j"
0k"
15"
09"
0:"
1<"
0!"
1%"
0+"
1/"
1&"
0*"
0j"
1i"
1k"
1f"
0g"
1+"
0/"
00"
14"
0&"
1*"
0="
1:"
0<"
0f"
1e"
1j"
1h"
0i"
1="
0+"
1/"
05"
19"
10"
04"
0h"
1g"
1i"
0e"
15"
09"
0:"
1<"
00"
14"
1h"
1f"
0g"
05"
19"
0="
1:"
0<"
0f"
1e"
1g"
1="
0:"
1<"
1f"
0e"
0="
1e"
#220000
10
1@
1T
1n
1~
1$!
1J!
1H!
1I!
0["
0\"
0_"
0K!
1L!
0V!
0t"
1W!
0[!
0s"
1\!
0`!
0r"
1a!
0e!
0q"
1f!
0j!
0p"
1k!
0o!
0o"
1p!
0t!
0n"
1u!
0y!
0m"
1z!
0~!
0l"
1!"
0%"
0k"
1&"
0*"
0j"
1+"
0/"
0i"
10"
04"
0h"
15"
09"
0g"
1:"
0<"
0f"
1="
0e"
#240000
00
0@
0T
0/
0?
0S
1.
1>
1R
0n
0m
1l
0~
0}
1|
0$!
0#!
1"!
1M!
0G!
0J!
1Y!
0T!
0H!
1Z!
0U!
0I!
1["
1Y"
0W"
1\"
1Z"
0X"
1_"
1`"
0b"
0a!
1e!
0f!
0k!
0p!
0u!
0z!
0!"
0&"
0+"
00"
05"
0:"
0="
1K!
0\!
1`!
0W!
0L!
1t"
1s"
1r"
1e"
1f"
1g"
1h"
1i"
1j"
1k"
1l"
1m"
1n"
1o"
1p"
1q"
1a!
1L!
1f!
0p"
0t"
0q"
#260000
10
1@
1T
1n
1~
1$!
1J!
1H!
1I!
0["
0\"
0_"
0K!
1V!
1W!
0L!
1t"
0s"
#280000
00
0@
0T
1/
1?
1S
0n
1m
0~
1}
0$!
1#!
1G!
0J!
1T!
0H!
1U!
0I!
1["
0Y"
1\"
0Z"
1_"
0`"
1\!
0`!
0a!
0f!
1j!
1k!
1p!
1u!
1z!
1!"
1&"
1+"
10"
15"
1:"
1="
1K!
0W!
1[!
1L!
0V!
0t"
1s"
0e"
0f"
0g"
0h"
0i"
0j"
0k"
0l"
0m"
0n"
0o"
1p"
1q"
0r"
1W!
0[!
0\!
1`!
0L!
1V!
0k!
1o!
1a!
0e!
0q"
1o"
1t"
1r"
0s"
1f!
0j!
0p!
1t!
0W!
1[!
0a!
1e!
1\!
0`!
0r"
1q"
1s"
1n"
0p"
1a!
0e!
0f!
1j!
0\!
1`!
0u!
1y!
1k!
0o!
0o"
1m"
1r"
1p"
0q"
1p!
0t!
0z!
1~!
0a!
1e!
0k!
1o!
1f!
0j!
0p"
1o"
1q"
1l"
0n"
1k!
0o!
0p!
1t!
0f!
1j!
0!"
1%"
1u!
0y!
0m"
1k"
1p"
1n"
0o"
1z!
0~!
0&"
1*"
0k!
1o!
0u!
1y!
1p!
0t!
0n"
1m"
1o"
1j"
0l"
1u!
0y!
0z!
1~!
0p!
1t!
0+"
1/"
1!"
0%"
0k"
1i"
1n"
1l"
0m"
1&"
0*"
00"
14"
0u!
1y!
0!"
1%"
1z!
0~!
0l"
1k"
1m"
1h"
0j"
1!"
0%"
0&"
1*"
0z!
1~!
05"
19"
1+"
0/"
0i"
1g"
1l"
1j"
0k"
10"
04"
0:"
1<"
0!"
1%"
0+"
1/"
1&"
0*"
0j"
1i"
1k"
1f"
0h"
1+"
0/"
00"
14"
0&"
1*"
0="
15"
09"
0g"
1e"
1j"
1h"
0i"
1:"
0<"
0+"
1/"
05"
19"
10"
04"
0h"
1g"
1i"
0f"
15"
09"
0:"
1<"
00"
14"
1="
0e"
1h"
1f"
0g"
05"
19"
0="
1:"
0<"
0f"
1e"
1g"
1="
0:"
1<"
1f"
0e"
0="
1e"
#300000
10
1@
1T
1n
1~
1$!
1J!
1H!
1I!
0["
0\"
0_"
0K!
1L!
0V!
0t"
1W!
0[!
0s"
1\!
0`!
0r"
1a!
0e!
0q"
1f!
0j!
0p"
1k!
0o!
0o"
1p!
0t!
0n"
1u!
0y!
0m"
1z!
0~!
0l"
1!"
0%"
0k"
1&"
0*"
0j"
1+"
0/"
0i"
10"
04"
0h"
15"
09"
0g"
1:"
0<"
0f"
1="
0e"
