Componentes/Somador 16 bits/simulation/qsim/16BitsAdder.msim.vcd
$comment
	File created using the following command:
		vcd file 16BitsAdder.msim.vcd -direction
$end
$date
	Thu Oct 25 14:38:08 2018
$end
$version
	ModelSim Version 10.5b
$end
$timescale
	1ps
$end

$scope module adder16bits_vhd_vec_tst $end
$var wire 1 ! A [15] $end
$var wire 1 " A [14] $end
$var wire 1 # A [13] $end
$var wire 1 $ A [12] $end
$var wire 1 % A [11] $end
$var wire 1 & A [10] $end
$var wire 1 ' A [9] $end
$var wire 1 ( A [8] $end
$var wire 1 ) A [7] $end
$var wire 1 * A [6] $end
$var wire 1 + A [5] $end
$var wire 1 , A [4] $end
$var wire 1 - A [3] $end
$var wire 1 . A [2] $end
$var wire 1 / A [1] $end
$var wire 1 0 A [0] $end
$var wire 1 1 B [15] $end
$var wire 1 2 B [14] $end
$var wire 1 3 B [13] $end
$var wire 1 4 B [12] $end
$var wire 1 5 B [11] $end
$var wire 1 6 B [10] $end
$var wire 1 7 B [9] $end
$var wire 1 8 B [8] $end
$var wire 1 9 B [7] $end
$var wire 1 : B [6] $end
$var wire 1 ; B [5] $end
$var wire 1 < B [4] $end
$var wire 1 = B [3] $end
$var wire 1 > B [2] $end
$var wire 1 ? B [1] $end
$var wire 1 @ B [0] $end
$var wire 1 A C [15] $end
$var wire 1 B C [14] $end
$var wire 1 C C [13] $end
$var wire 1 D C [12] $end
$var wire 1 E C [11] $end
$var wire 1 F C [10] $end
$var wire 1 G C [9] $end
$var wire 1 H C [8] $end
$var wire 1 I C [7] $end
$var wire 1 J C [6] $end
$var wire 1 K C [5] $end
$var wire 1 L C [4] $end
$var wire 1 M C [3] $end
$var wire 1 N C [2] $end
$var wire 1 O C [1] $end
$var wire 1 P C [0] $end

$scope module i1 $end
$var wire 1 Q gnd $end
$var wire 1 R vcc $end
$var wire 1 S unknown $end
$var wire 1 T devoe $end
$var wire 1 U devclrn $end
$var wire 1 V devpor $end
$var wire 1 W ww_devoe $end
$var wire 1 X ww_devclrn $end
$var wire 1 Y ww_devpor $end
$var wire 1 Z ww_A [15] $end
$var wire 1 [ ww_A [14] $end
$var wire 1 \ ww_A [13] $end
$var wire 1 ] ww_A [12] $end
$var wire 1 ^ ww_A [11] $end
$var wire 1 _ ww_A [10] $end
$var wire 1 ` ww_A [9] $end
$var wire 1 a ww_A [8] $end
$var wire 1 b ww_A [7] $end
$var wire 1 c ww_A [6] $end
$var wire 1 d ww_A [5] $end
$var wire 1 e ww_A [4] $end
$var wire 1 f ww_A [3] $end
$var wire 1 g ww_A [2] $end
$var wire 1 h ww_A [1] $end
$var wire 1 i ww_A [0] $end
$var wire 1 j ww_B [15] $end
$var wire 1 k ww_B [14] $end
$var wire 1 l ww_B [13] $end
$var wire 1 m ww_B [12] $end
$var wire 1 n ww_B [11] $end
$var wire 1 o ww_B [10] $end
$var wire 1 p ww_B [9] $end
$var wire 1 q ww_B [8] $end
$var wire 1 r ww_B [7] $end
$var wire 1 s ww_B [6] $end
$var wire 1 t ww_B [5] $end
$var wire 1 u ww_B [4] $end
$var wire 1 v ww_B [3] $end
$var wire 1 w ww_B [2] $end
$var wire 1 x ww_B [1] $end
$var wire 1 y ww_B [0] $end
$var wire 1 z ww_C [15] $end
$var wire 1 { ww_C [14] $end
$var wire 1 | ww_C [13] $end
$var wire 1 } ww_C [12] $end
$var wire 1 ~ ww_C [11] $end
$var wire 1 !! ww_C [10] $end
$var wire 1 "! ww_C [9] $end
$var wire 1 #! ww_C [8] $end
$var wire 1 $! ww_C [7] $end
$var wire 1 %! ww_C [6] $end
$var wire 1 &! ww_C [5] $end
$var wire 1 '! ww_C [4] $end
$var wire 1 (! ww_C [3] $end
$var wire 1 )! ww_C [2] $end
$var wire 1 *! ww_C [1] $end
$var wire 1 +! ww_C [0] $end
$var wire 1 ,! \C[0]~output_o\ $end
$var wire 1 -! \C[1]~output_o\ $end
$var wire 1 .! \C[2]~output_o\ $end
$var wire 1 /! \C[3]~output_o\ $end
$var wire 1 0! \C[4]~output_o\ $end
$var wire 1 1! \C[5]~output_o\ $end
$var wire 1 2! \C[6]~output_o\ $end
$var wire 1 3! \C[7]~output_o\ $end
$var wire 1 4! \C[8]~output_o\ $end
$var wire 1 5! \C[9]~output_o\ $end
$var wire 1 6! \C[10]~output_o\ $end
$var wire 1 7! \C[11]~output_o\ $end
$var wire 1 8! \C[12]~output_o\ $end
$var wire 1 9! \C[13]~output_o\ $end
$var wire 1 :! \C[14]~output_o\ $end
$var wire 1 ;! \C[15]~output_o\ $end
$var wire 1 <! \B[0]~input_o\ $end
$var wire 1 =! \A[0]~input_o\ $end
$var wire 1 >! \Add0~1_sumout\ $end
$var wire 1 ?! \B[1]~input_o\ $end
$var wire 1 @! \A[1]~input_o\ $end
$var wire 1 A! \Add0~2\ $end
$var wire 1 B! \Add0~5_sumout\ $end
$var wire 1 C! \B[2]~input_o\ $end
$var wire 1 D! \A[2]~input_o\ $end
$var wire 1 E! \Add0~6\ $end
$var wire 1 F! \Add0~9_sumout\ $end
$var wire 1 G! \B[3]~input_o\ $end
$var wire 1 H! \A[3]~input_o\ $end
$var wire 1 I! \Add0~10\ $end
$var wire 1 J! \Add0~13_sumout\ $end
$var wire 1 K! \B[4]~input_o\ $end
$var wire 1 L! \A[4]~input_o\ $end
$var wire 1 M! \Add0~14\ $end
$var wire 1 N! \Add0~17_sumout\ $end
$var wire 1 O! \B[5]~input_o\ $end
$var wire 1 P! \A[5]~input_o\ $end
$var wire 1 Q! \Add0~18\ $end
$var wire 1 R! \Add0~21_sumout\ $end
$var wire 1 S! \B[6]~input_o\ $end
$var wire 1 T! \A[6]~input_o\ $end
$var wire 1 U! \Add0~22\ $end
$var wire 1 V! \Add0~25_sumout\ $end
$var wire 1 W! \B[7]~input_o\ $end
$var wire 1 X! \A[7]~input_o\ $end
$var wire 1 Y! \Add0~26\ $end
$var wire 1 Z! \Add0~29_sumout\ $end
$var wire 1 [! \B[8]~input_o\ $end
$var wire 1 \! \A[8]~input_o\ $end
$var wire 1 ]! \Add0~30\ $end
$var wire 1 ^! \Add0~33_sumout\ $end
$var wire 1 _! \B[9]~input_o\ $end
$var wire 1 `! \A[9]~input_o\ $end
$var wire 1 a! \Add0~34\ $end
$var wire 1 b! \Add0~37_sumout\ $end
$var wire 1 c! \B[10]~input_o\ $end
$var wire 1 d! \A[10]~input_o\ $end
$var wire 1 e! \Add0~38\ $end
$var wire 1 f! \Add0~41_sumout\ $end
$var wire 1 g! \B[11]~input_o\ $end
$var wire 1 h! \A[11]~input_o\ $end
$var wire 1 i! \Add0~42\ $end
$var wire 1 j! \Add0~45_sumout\ $end
$var wire 1 k! \B[12]~input_o\ $end
$var wire 1 l! \A[12]~input_o\ $end
$var wire 1 m! \Add0~46\ $end
$var wire 1 n! \Add0~49_sumout\ $end
$var wire 1 o! \B[13]~input_o\ $end
$var wire 1 p! \A[13]~input_o\ $end
$var wire 1 q! \Add0~50\ $end
$var wire 1 r! \Add0~53_sumout\ $end
$var wire 1 s! \B[14]~input_o\ $end
$var wire 1 t! \A[14]~input_o\ $end
$var wire 1 u! \Add0~54\ $end
$var wire 1 v! \Add0~57_sumout\ $end
$var wire 1 w! \B[15]~input_o\ $end
$var wire 1 x! \A[15]~input_o\ $end
$var wire 1 y! \Add0~58\ $end
$var wire 1 z! \Add0~61_sumout\ $end
$var wire 1 {! \ALT_INV_A[15]~input_o\ $end
$var wire 1 |! \ALT_INV_B[15]~input_o\ $end
$var wire 1 }! \ALT_INV_A[14]~input_o\ $end
$var wire 1 ~! \ALT_INV_B[14]~input_o\ $end
$var wire 1 !" \ALT_INV_A[13]~input_o\ $end
$var wire 1 "" \ALT_INV_B[13]~input_o\ $end
$var wire 1 #" \ALT_INV_A[12]~input_o\ $end
$var wire 1 $" \ALT_INV_B[12]~input_o\ $end
$var wire 1 %" \ALT_INV_A[11]~input_o\ $end
$var wire 1 &" \ALT_INV_B[11]~input_o\ $end
$var wire 1 '" \ALT_INV_A[10]~input_o\ $end
$var wire 1 (" \ALT_INV_B[10]~input_o\ $end
$var wire 1 )" \ALT_INV_A[9]~input_o\ $end
$var wire 1 *" \ALT_INV_B[9]~input_o\ $end
$var wire 1 +" \ALT_INV_A[8]~input_o\ $end
$var wire 1 ," \ALT_INV_B[8]~input_o\ $end
$var wire 1 -" \ALT_INV_A[7]~input_o\ $end
$var wire 1 ." \ALT_INV_B[7]~input_o\ $end
$var wire 1 /" \ALT_INV_A[6]~input_o\ $end
$var wire 1 0" \ALT_INV_B[6]~input_o\ $end
$var wire 1 1" \ALT_INV_A[5]~input_o\ $end
$var wire 1 2" \ALT_INV_B[5]~input_o\ $end
$var wire 1 3" \ALT_INV_A[4]~input_o\ $end
$var wire 1 4" \ALT_INV_B[4]~input_o\ $end
$var wire 1 5" \ALT_INV_A[3]~input_o\ $end
$var wire 1 6" \ALT_INV_B[3]~input_o\ $end
$var wire 1 7" \ALT_INV_A[2]~input_o\ $end
$var wire 1 8" \ALT_INV_B[2]~input_o\ $end
$var wire 1 9" \ALT_INV_A[1]~input_o\ $end
$var wire 1 :" \ALT_INV_B[1]~input_o\ $end
$var wire 1 ;" \ALT_INV_A[0]~input_o\ $end
$var wire 1 <" \ALT_INV_B[0]~input_o\ $end
$upscope $end
$upscope $end
$enddefinitions $end
#0
$dumpvars
0Q
1R
xS
1T
1U
1V
1W
1X
1Y
0,!
0-!
0.!
0/!
00!
01!
02!
03!
04!
05!
06!
07!
08!
09!
0:!
0;!
0<!
0=!
0>!
0?!
0@!
0A!
0B!
0C!
0D!
0E!
0F!
0G!
0H!
0I!
0J!
0K!
0L!
0M!
0N!
0O!
0P!
0Q!
0R!
0S!
0T!
0U!
0V!
0W!
0X!
0Y!
0Z!
0[!
0\!
0]!
0^!
0_!
0`!
0a!
0b!
0c!
0d!
0e!
0f!
0g!
0h!
0i!
0j!
0k!
0l!
0m!
0n!
0o!
0p!
0q!
0r!
0s!
0t!
0u!
0v!
0w!
0x!
0y!
0z!
1{!
1|!
1}!
1~!
1!"
1""
1#"
1$"
1%"
1&"
1'"
1("
1)"
1*"
1+"
1,"
1-"
1."
1/"
10"
11"
12"
13"
14"
15"
16"
17"
18"
19"
1:"
1;"
1<"
0!
0"
0#
0$
0%
0&
0'
0(
0)
0*
0+
0,
0-
0.
0/
00
01
02
03
04
05
06
07
08
09
0:
0;
0<
0=
0>
0?
0@
0A
0B
0C
0D
0E
0F
0G
0H
0I
0J
0K
0L
0M
0N
0O
0P
0Z
0[
0\
0]
0^
0_
0`
0a
0b
0c
0d
0e
0f
0g
0h
0i
0j
0k
0l
0m
0n
0o
0p
0q
0r
0s
0t
0u
0v
0w
0x
0y
0z
0{
0|
0}
0~
0!!
0"!
0#!
0$!
0%!
0&!
0'!
0(!
0)!
0*!
0+!
$end
#10000
10
1@
1i
1y
1<!
1=!
0;"
0<"
1A!
1B!
1-!
1*!
1O
#20000
00
0@
1/
1?
0i
1h
0y
1x
1?!
0<!
1@!
0=!
1;"
09"
1<"
0:"
1E!
0A!
0B!
1F!
1.!
0-!
1)!
0*!
0O
1N
#30000
10
1@
1i
1y
1<!
1=!
0;"
0<"
1A!
1B!
1-!
1*!
1O
#40000
00
0@
0/
0?
1.
1>
0i
0h
1g
0y
0x
1w
1C!
0?!
0<!
1D!
0@!
0=!
1;"
19"
07"
1<"
1:"
08"
1I!
0E!
0A!
0B!
0F!
1J!
1/!
0.!
0-!
1(!
0)!
0*!
0O
0N
1M
#50000
10
1@
1i
1y
1<!
1=!
0;"
0<"
1A!
1B!
1-!
1*!
1O
#60000
00
0@
1/
1?
0i
1h
0y
1x
1?!
0<!
1@!
0=!
1;"
09"
1<"
0:"
1E!
0A!
0B!
1F!
1.!
0-!
1)!
0*!
0O
1N
#70000
10
1@
1i
1y
1<!
1=!
0;"
0<"
1A!
1B!
1-!
1*!
1O
#80000
00
0@
0/
0?
0.
0>
1-
1=
0i
0h
0g
1f
0y
0x
0w
1v
1G!
0C!
0?!
0<!
1H!
0D!
0@!
0=!
1;"
19"
17"
05"
1<"
1:"
18"
06"
1M!
0I!
0E!
0A!
0B!
0F!
0J!
1N!
10!
0/!
0.!
0-!
1'!
0(!
0)!
0*!
0O
0N
0M
1L
#90000
10
1@
1i
1y
1<!
1=!
0;"
0<"
1A!
1B!
1-!
1*!
1O
#100000
00
0@
1/
1?
0i
1h
0y
1x
1?!
0<!
1@!
0=!
1;"
09"
1<"
0:"
1E!
0A!
0B!
1F!
1.!
0-!
1)!
0*!
0O
1N
#110000
10
1@
1i
1y
1<!
1=!
0;"
0<"
1A!
1B!
1-!
1*!
1O
#120000
00
0@
0/
0?
1.
1>
0i
0h
1g
0y
0x
1w
1C!
0?!
0<!
1D!
0@!
0=!
1;"
19"
07"
1<"
1:"
08"
1I!
0E!
0A!
0B!
0F!
1J!
1/!
0.!
0-!
1(!
0)!
0*!
0O
0N
1M
#130000
10
1@
1i
1y
1<!
1=!
0;"
0<"
1A!
1B!
1-!
1*!
1O
#140000
00
0@
1/
1?
0i
1h
0y
1x
1?!
0<!
1@!
0=!
1;"
09"
1<"
0:"
1E!
0A!
0B!
1F!
1.!
0-!
1)!
0*!
0O
1N
#150000
10
1@
1i
1y
1<!
1=!
0;"
0<"
1A!
1B!
1-!
1*!
1O
#160000
00
0@
0/
0?
0.
0>
0-
0=
1,
1<
0i
0h
0g
0f
1e
0y
0x
0w
0v
1u
1K!
0G!
0C!
0?!
0<!
1L!
0H!
0D!
0@!
0=!
1;"
19"
17"
15"
03"
1<"
1:"
18"
16"
04"
1Q!
0M!
0I!
0E!
0A!
0B!
0F!
0J!
0N!
1R!
11!
00!
0/!
0.!
0-!
1&!
0'!
0(!
0)!
0*!
0O
0N
0M
0L
1K
#170000
10
1@
1i
1y
1<!
1=!
0;"
0<"
1A!
1B!
1-!
1*!
1O
#180000
00
0@
1/
1?
0i
1h
0y
1x
1?!
0<!
1@!
0=!
1;"
09"
1<"
0:"
1E!
0A!
0B!
1F!
1.!
0-!
1)!
0*!
0O
1N
#190000
10
1@
1i
1y
1<!
1=!
0;"
0<"
1A!
1B!
1-!
1*!
1O
#200000
00
0@
0/
0?
1.
1>
0i
0h
1g
0y
0x
1w
1C!
0?!
0<!
1D!
0@!
0=!
1;"
19"
07"
1<"
1:"
08"
1I!
0E!
0A!
0B!
0F!
1J!
1/!
0.!
0-!
1(!
0)!
0*!
0O
0N
1M
#210000
10
1@
1i
1y
1<!
1=!
0;"
0<"
1A!
1B!
1-!
1*!
1O
#220000
00
0@
1/
1?
0i
1h
0y
1x
1?!
0<!
1@!
0=!
1;"
09"
1<"
0:"
1E!
0A!
0B!
1F!
1.!
0-!
1)!
0*!
0O
1N
#230000
10
1@
1i
1y
1<!
1=!
0;"
0<"
1A!
1B!
1-!
1*!
1O
#240000
00
0@
0/
0?
0.
0>
1-
1=
0i
0h
0g
1f
0y
0x
0w
1v
1G!
0C!
0?!
0<!
1H!
0D!
0@!
0=!
1;"
19"
17"
05"
1<"
1:"
18"
06"
1M!
0I!
0E!
0A!
0B!
0F!
0J!
1N!
10!
0/!
0.!
0-!
1'!
0(!
0)!
0*!
0O
0N
0M
1L
#250000
10
1@
1i
1y
1<!
1=!
0;"
0<"
1A!
1B!
1-!
1*!
1O
#260000
00
0@
1/
1?
0i
1h
0y
1x
1?!
0<!
1@!
0=!
1;"
09"
1<"
0:"
1E!
0A!
0B!
1F!
1.!
0-!
1)!
0*!
0O
1N
#270000
10
1@
1i
1y
1<!
1=!
0;"
0<"
1A!
1B!
1-!
1*!
1O
#280000
00
0@
0/
0?
1.
1>
0i
0h
1g
0y
0x
1w
1C!
0?!
0<!
1D!
0@!
0=!
1;"
19"
07"
1<"
1:"
08"
1I!
0E!
0A!
0B!
0F!
1J!
1/!
0.!
0-!
1(!
0)!
0*!
0O
0N
1M
#290000
10
1@
1i
1y
1<!
1=!
0;"
0<"
1A!
1B!
1-!
1*!
1O
#300000
00
0@
1/
1?
0i
1h
0y
1x
1?!
0<!
1@!
0=!
1;"
09"
1<"
0:"
1E!
0A!
0B!
1F!
1.!
0-!
1)!
0*!
0O
1N
#310000
10
1@
1i
1y
1<!
1=!
0;"
0<"
1A!
1B!
1-!
1*!
1O
#320000
00
0@
0/
0?
0.
0>
0-
0=
0,
0<
1+
1;
0i
0h
0g
0f
0e
1d
0y
0x
0w
0v
0u
1t
1O!
0K!
0G!
0C!
0?!
0<!
1P!
0L!
0H!
0D!
0@!
0=!
1;"
19"
17"
15"
13"
01"
1<"
1:"
18"
16"
14"
02"
1U!
0Q!
0M!
0I!
0E!
0A!
0B!
0F!
0J!
0N!
0R!
1V!
12!
01!
00!
0/!
0.!
0-!
1%!
0&!
0'!
0(!
0)!
0*!
0O
0N
0M
0L
0K
1J
#330000
10
1@
1i
1y
1<!
1=!
0;"
0<"
1A!
1B!
1-!
1*!
1O
#340000
00
0@
1/
1?
0i
1h
0y
1x
1?!
0<!
1@!
0=!
1;"
09"
1<"
0:"
1E!
0A!
0B!
1F!
1.!
0-!
1)!
0*!
0O
1N
#350000
10
1@
1i
1y
1<!
1=!
0;"
0<"
1A!
1B!
1-!
1*!
1O
#360000
00
0@
0/
0?
1.
1>
0i
0h
1g
0y
0x
1w
1C!
0?!
0<!
1D!
0@!
0=!
1;"
19"
07"
1<"
1:"
08"
1I!
0E!
0A!
0B!
0F!
1J!
1/!
0.!
0-!
1(!
0)!
0*!
0O
0N
1M
#370000
10
1@
1i
1y
1<!
1=!
0;"
0<"
1A!
1B!
1-!
1*!
1O
#380000
00
0@
1/
1?
0i
1h
0y
1x
1?!
0<!
1@!
0=!
1;"
09"
1<"
0:"
1E!
0A!
0B!
1F!
1.!
0-!
1)!
0*!
0O
1N
#390000
10
1@
1i
1y
1<!
1=!
0;"
0<"
1A!
1B!
1-!
1*!
1O
#400000
00
0@
0/
0?
0.
0>
1-
1=
0i
0h
0g
1f
0y
0x
0w
1v
1G!
0C!
0?!
0<!
1H!
0D!
0@!
0=!
1;"
19"
17"
05"
1<"
1:"
18"
06"
1M!
0I!
0E!
0A!
0B!
0F!
0J!
1N!
10!
0/!
0.!
0-!
1'!
0(!
0)!
0*!
0O
0N
0M
1L
#410000
10
1@
1i
1y
1<!
1=!
0;"
0<"
1A!
1B!
1-!
1*!
1O
#420000
00
0@
1/
1?
0i
1h
0y
1x
1?!
0<!
1@!
0=!
1;"
09"
1<"
0:"
1E!
0A!
0B!
1F!
1.!
0-!
1)!
0*!
0O
1N
#430000
10
1@
1i
1y
1<!
1=!
0;"
0<"
1A!
1B!
1-!
1*!
1O
#440000
00
0@
0/
0?
1.
1>
0i
0h
1g
0y
0x
1w
1C!
0?!
0<!
1D!
0@!
0=!
1;"
19"
07"
1<"
1:"
08"
1I!
0E!
0A!
0B!
0F!
1J!
1/!
0.!
0-!
1(!
0)!
0*!
0O
0N
1M
#450000
10
1@
1i
1y
1<!
1=!
0;"
0<"
1A!
1B!
1-!
1*!
1O
#460000
00
0@
1/
1?
0i
1h
0y
1x
1?!
0<!
1@!
0=!
1;"
09"
1<"
0:"
1E!
0A!
0B!
1F!
1.!
0-!
1)!
0*!
0O
1N
#470000
10
1@
1i
1y
1<!
1=!
0;"
0<"
1A!
1B!
1-!
1*!
1O
#480000
00
0@
0/
0?
0.
0>
0-
0=
1,
1<
0i
0h
0g
0f
1e
0y
0x
0w
0v
1u
1K!
0G!
0C!
0?!
0<!
1L!
0H!
0D!
0@!
0=!
1;"
19"
17"
15"
03"
1<"
1:"
18"
16"
04"
1Q!
0M!
0I!
0E!
0A!
0B!
0F!
0J!
0N!
1R!
11!
00!
0/!
0.!
0-!
1&!
0'!
0(!
0)!
0*!
0O
0N
0M
0L
1K
#490000
10
1@
1i
1y
1<!
1=!
0;"
0<"
1A!
1B!
1-!
1*!
1O
#500000
00
0@
1/
1?
0i
1h
0y
1x
1?!
0<!
1@!
0=!
1;"
09"
1<"
0:"
1E!
0A!
0B!
1F!
1.!
0-!
1)!
0*!
0O
1N
#510000
10
1@
1i
1y
1<!
1=!
0;"
0<"
1A!
1B!
1-!
1*!
1O
#520000
00
0@
0/
0?
1.
1>
0i
0h
1g
0y
0x
1w
1C!
0?!
0<!
1D!
0@!
0=!
1;"
19"
07"
1<"
1:"
08"
1I!
0E!
0A!
0B!
0F!
1J!
1/!
0.!
0-!
1(!
0)!
0*!
0O
0N
1M
#530000
10
1@
1i
1y
1<!
1=!
0;"
0<"
1A!
1B!
1-!
1*!
1O
#540000
00
0@
1/
1?
0i
1h
0y
1x
1?!
0<!
1@!
0=!
1;"
09"
1<"
0:"
1E!
0A!
0B!
1F!
1.!
0-!
1)!
0*!
0O
1N
#550000
10
1@
1i
1y
1<!
1=!
0;"
0<"
1A!
1B!
1-!
1*!
1O
#560000
00
0@
0/
0?
0.
0>
1-
1=
0i
0h
0g
1f
0y
0x
0w
1v
1G!
0C!
0?!
0<!
1H!
0D!
0@!
0=!
1;"
19"
17"
05"
1<"
1:"
18"
06"
1M!
0I!
0E!
0A!
0B!
0F!
0J!
1N!
10!
0/!
0.!
0-!
1'!
0(!
0)!
0*!
0O
0N
0M
1L
#570000
10
1@
1i
1y
1<!
1=!
0;"
0<"
1A!
1B!
1-!
1*!
1O
#580000
00
0@
1/
1?
0i
1h
0y
1x
1?!
0<!
1@!
0=!
1;"
09"
1<"
0:"
1E!
0A!
0B!
1F!
1.!
0-!
1)!
0*!
0O
1N
#590000
10
1@
1i
1y
1<!
1=!
0;"
0<"
1A!
1B!
1-!
1*!
1O
#600000
00
0@
0/
0?
1.
1>
0i
0h
1g
0y
0x
1w
1C!
0?!
0<!
1D!
0@!
0=!
1;"
19"
07"
1<"
1:"
08"
1I!
0E!
0A!
0B!
0F!
1J!
1/!
0.!
0-!
1(!
0)!
0*!
0O
0N
1M
#610000
10
1@
1i
1y
1<!
1=!
0;"
0<"
1A!
1B!
1-!
1*!
1O
#620000
00
0@
1/
1?
0i
1h
0y
1x
1?!
0<!
1@!
0=!
1;"
09"
1<"
0:"
1E!
0A!
0B!
1F!
1.!
0-!
1)!
0*!
0O
1N
#630000
10
1@
1i
1y
1<!
1=!
0;"
0<"
1A!
1B!
1-!
1*!
1O
#640000
00
0@
0/
0?
0.
0>
0-
0=
0,
0<
0+
0;
1*
1:
0i
0h
0g
0f
0e
0d
1c
0y
0x
0w
0v
0u
0t
1s
1S!
0O!
0K!
0G!
0C!
0?!
0<!
1T!
0P!
0L!
0H!
0D!
0@!
0=!
1;"
19"
17"
15"
13"
11"
0/"
1<"
1:"
18"
16"
14"
12"
00"
1Y!
0U!
0Q!
0M!
0I!
0E!
0A!
0B!
0F!
0J!
0N!
0R!
0V!
1Z!
13!
02!
01!
00!
0/!
0.!
0-!
1$!
0%!
0&!
0'!
0(!
0)!
0*!
0O
0N
0M
0L
0K
0J
1I
#650000
10
1@
1i
1y
1<!
1=!
0;"
0<"
1A!
1B!
1-!
1*!
1O
#660000
00
0@
1/
1?
0i
1h
0y
1x
1?!
0<!
1@!
0=!
1;"
09"
1<"
0:"
1E!
0A!
0B!
1F!
1.!
0-!
1)!
0*!
0O
1N
#670000
10
1@
1i
1y
1<!
1=!
0;"
0<"
1A!
1B!
1-!
1*!
1O
#680000
00
0@
0/
0?
1.
1>
0i
0h
1g
0y
0x
1w
1C!
0?!
0<!
1D!
0@!
0=!
1;"
19"
07"
1<"
1:"
08"
1I!
0E!
0A!
0B!
0F!
1J!
1/!
0.!
0-!
1(!
0)!
0*!
0O
0N
1M
#690000
10
1@
1i
1y
1<!
1=!
0;"
0<"
1A!
1B!
1-!
1*!
1O
#700000
00
0@
1/
1?
0i
1h
0y
1x
1?!
0<!
1@!
0=!
1;"
09"
1<"
0:"
1E!
0A!
0B!
1F!
1.!
0-!
1)!
0*!
0O
1N
#710000
10
1@
1i
1y
1<!
1=!
0;"
0<"
1A!
1B!
1-!
1*!
1O
#720000
00
0@
0/
0?
0.
0>
1-
1=
0i
0h
0g
1f
0y
0x
0w
1v
1G!
0C!
0?!
0<!
1H!
0D!
0@!
0=!
1;"
19"
17"
05"
1<"
1:"
18"
06"
1M!
0I!
0E!
0A!
0B!
0F!
0J!
1N!
10!
0/!
0.!
0-!
1'!
0(!
0)!
0*!
0O
0N
0M
1L
#730000
10
1@
1i
1y
1<!
1=!
0;"
0<"
1A!
1B!
1-!
1*!
1O
#740000
00
0@
1/
1?
0i
1h
0y
1x
1?!
0<!
1@!
0=!
1;"
09"
1<"
0:"
1E!
0A!
0B!
1F!
1.!
0-!
1)!
0*!
0O
1N
#750000
10
1@
1i
1y
1<!
1=!
0;"
0<"
1A!
1B!
1-!
1*!
1O
#760000
00
0@
0/
0?
1.
1>
0i
0h
1g
0y
0x
1w
1C!
0?!
0<!
1D!
0@!
0=!
1;"
19"
07"
1<"
1:"
08"
1I!
0E!
0A!
0B!
0F!
1J!
1/!
0.!
0-!
1(!
0)!
0*!
0O
0N
1M
#770000
10
1@
1i
1y
1<!
1=!
0;"
0<"
1A!
1B!
1-!
1*!
1O
#780000
00
0@
1/
1?
0i
1h
0y
1x
1?!
0<!
1@!
0=!
1;"
09"
1<"
0:"
1E!
0A!
0B!
1F!
1.!
0-!
1)!
0*!
0O
1N
#790000
10
1@
1i
1y
1<!
1=!
0;"
0<"
1A!
1B!
1-!
1*!
1O
#800000
00
0@
0/
0?
0.
0>
0-
0=
1,
1<
0i
0h
0g
0f
1e
0y
0x
0w
0v
1u
1K!
0G!
0C!
0?!
0<!
1L!
0H!
0D!
0@!
0=!
1;"
19"
17"
15"
03"
1<"
1:"
18"
16"
04"
1Q!
0M!
0I!
0E!
0A!
0B!
0F!
0J!
0N!
1R!
11!
00!
0/!
0.!
0-!
1&!
0'!
0(!
0)!
0*!
0O
0N
0M
0L
1K
#810000
10
1@
1i
1y
1<!
1=!
0;"
0<"
1A!
1B!
1-!
1*!
1O
#820000
00
0@
1/
1?
0i
1h
0y
1x
1?!
0<!
1@!
0=!
1;"
09"
1<"
0:"
1E!
0A!
0B!
1F!
1.!
0-!
1)!
0*!
0O
1N
#830000
10
1@
1i
1y
1<!
1=!
0;"
0<"
1A!
1B!
1-!
1*!
1O
#840000
00
0@
0/
0?
1.
1>
0i
0h
1g
0y
0x
1w
1C!
0?!
0<!
1D!
0@!
0=!
1;"
19"
07"
1<"
1:"
08"
1I!
0E!
0A!
0B!
0F!
1J!
1/!
0.!
0-!
1(!
0)!
0*!
0O
0N
1M
#850000
10
1@
1i
1y
1<!
1=!
0;"
0<"
1A!
1B!
1-!
1*!
1O
#860000
00
0@
1/
1?
0i
1h
0y
1x
1?!
0<!
1@!
0=!
1;"
09"
1<"
0:"
1E!
0A!
0B!
1F!
1.!
0-!
1)!
0*!
0O
1N
#870000
10
1@
1i
1y
1<!
1=!
0;"
0<"
1A!
1B!
1-!
1*!
1O
#880000
00
0@
0/
0?
0.
0>
1-
1=
0i
0h
0g
1f
0y
0x
0w
1v
1G!
0C!
0?!
0<!
1H!
0D!
0@!
0=!
1;"
19"
17"
05"
1<"
1:"
18"
06"
1M!
0I!
0E!
0A!
0B!
0F!
0J!
1N!
10!
0/!
0.!
0-!
1'!
0(!
0)!
0*!
0O
0N
0M
1L
#890000
10
1@
1i
1y
1<!
1=!
0;"
0<"
1A!
1B!
1-!
1*!
1O
#900000
00
0@
1/
1?
0i
1h
0y
1x
1?!
0<!
1@!
0=!
1;"
09"
1<"
0:"
1E!
0A!
0B!
1F!
1.!
0-!
1)!
0*!
0O
1N
#910000
10
1@
1i
1y
1<!
1=!
0;"
0<"
1A!
1B!
1-!
1*!
1O
#920000
00
0@
0/
0?
1.
1>
0i
0h
1g
0y
0x
1w
1C!
0?!
0<!
1D!
0@!
0=!
1;"
19"
07"
1<"
1:"
08"
1I!
0E!
0A!
0B!
0F!
1J!
1/!
0.!
0-!
1(!
0)!
0*!
0O
0N
1M
#930000
10
1@
1i
1y
1<!
1=!
0;"
0<"
1A!
1B!
1-!
1*!
1O
#940000
00
0@
1/
1?
0i
1h
0y
1x
1?!
0<!
1@!
0=!
1;"
09"
1<"
0:"
1E!
0A!
0B!
1F!
1.!
0-!
1)!
0*!
0O
1N
#950000
10
1@
1i
1y
1<!
1=!
0;"
0<"
1A!
1B!
1-!
1*!
1O
#960000
00
0@
0/
0?
0.
0>
0-
0=
0,
0<
1+
1;
0i
0h
0g
0f
0e
1d
0y
0x
0w
0v
0u
1t
1O!
0K!
0G!
0C!
0?!
0<!
1P!
0L!
0H!
0D!
0@!
0=!
1;"
19"
17"
15"
13"
01"
1<"
1:"
18"
16"
14"
02"
1U!
0Q!
0M!
0I!
0E!
0A!
0B!
0F!
0J!
0N!
0R!
1V!
12!
01!
00!
0/!
0.!
0-!
1%!
0&!
0'!
0(!
0)!
0*!
0O
0N
0M
0L
0K
1J
#970000
10
1@
1i
1y
1<!
1=!
0;"
0<"
1A!
1B!
1-!
1*!
1O
#980000
00
0@
1/
1?
0i
1h
0y
1x
1?!
0<!
1@!
0=!
1;"
09"
1<"
0:"
1E!
0A!
0B!
1F!
1.!
0-!
1)!
0*!
0O
1N
#990000
10
1@
1i
1y
1<!
1=!
0;"
0<"
1A!
1B!
1-!
1*!
1O
