Componentes/ShiftEsq/simulation/qsim/ShiftEsq.msim.vcd
$comment
	File created using the following command:
		vcd file ShiftEsq.msim.vcd -direction
$end
$date
	Fri Oct 26 10:16:50 2018
$end
$version
	ModelSim Version 10.5b
$end
$timescale
	1ps
$end

$scope module shiftesq_vhd_vec_tst $end
$var wire 1 ! A [15] $end
$var wire 1 " A [14] $end
$var wire 1 # A [13] $end
$var wire 1 $ A [12] $end
$var wire 1 % A [11] $end
$var wire 1 & A [10] $end
$var wire 1 ' A [9] $end
$var wire 1 ( A [8] $end
$var wire 1 ) A [7] $end
$var wire 1 * A [6] $end
$var wire 1 + A [5] $end
$var wire 1 , A [4] $end
$var wire 1 - A [3] $end
$var wire 1 . A [2] $end
$var wire 1 / A [1] $end
$var wire 1 0 A [0] $end
$var wire 1 1 S [15] $end
$var wire 1 2 S [14] $end
$var wire 1 3 S [13] $end
$var wire 1 4 S [12] $end
$var wire 1 5 S [11] $end
$var wire 1 6 S [10] $end
$var wire 1 7 S [9] $end
$var wire 1 8 S [8] $end
$var wire 1 9 S [7] $end
$var wire 1 : S [6] $end
$var wire 1 ; S [5] $end
$var wire 1 < S [4] $end
$var wire 1 = S [3] $end
$var wire 1 > S [2] $end
$var wire 1 ? S [1] $end
$var wire 1 @ S [0] $end

$scope module i1 $end
$var wire 1 A gnd $end
$var wire 1 B vcc $end
$var wire 1 C unknown $end
$var wire 1 D devoe $end
$var wire 1 E devclrn $end
$var wire 1 F devpor $end
$var wire 1 G ww_devoe $end
$var wire 1 H ww_devclrn $end
$var wire 1 I ww_devpor $end
$var wire 1 J ww_A [15] $end
$var wire 1 K ww_A [14] $end
$var wire 1 L ww_A [13] $end
$var wire 1 M ww_A [12] $end
$var wire 1 N ww_A [11] $end
$var wire 1 O ww_A [10] $end
$var wire 1 P ww_A [9] $end
$var wire 1 Q ww_A [8] $end
$var wire 1 R ww_A [7] $end
$var wire 1 S ww_A [6] $end
$var wire 1 T ww_A [5] $end
$var wire 1 U ww_A [4] $end
$var wire 1 V ww_A [3] $end
$var wire 1 W ww_A [2] $end
$var wire 1 X ww_A [1] $end
$var wire 1 Y ww_A [0] $end
$var wire 1 Z ww_S [15] $end
$var wire 1 [ ww_S [14] $end
$var wire 1 \ ww_S [13] $end
$var wire 1 ] ww_S [12] $end
$var wire 1 ^ ww_S [11] $end
$var wire 1 _ ww_S [10] $end
$var wire 1 ` ww_S [9] $end
$var wire 1 a ww_S [8] $end
$var wire 1 b ww_S [7] $end
$var wire 1 c ww_S [6] $end
$var wire 1 d ww_S [5] $end
$var wire 1 e ww_S [4] $end
$var wire 1 f ww_S [3] $end
$var wire 1 g ww_S [2] $end
$var wire 1 h ww_S [1] $end
$var wire 1 i ww_S [0] $end
$var wire 1 j \A[14]~input_o\ $end
$var wire 1 k \A[15]~input_o\ $end
$var wire 1 l \S[0]~output_o\ $end
$var wire 1 m \S[1]~output_o\ $end
$var wire 1 n \S[2]~output_o\ $end
$var wire 1 o \S[3]~output_o\ $end
$var wire 1 p \S[4]~output_o\ $end
$var wire 1 q \S[5]~output_o\ $end
$var wire 1 r \S[6]~output_o\ $end
$var wire 1 s \S[7]~output_o\ $end
$var wire 1 t \S[8]~output_o\ $end
$var wire 1 u \S[9]~output_o\ $end
$var wire 1 v \S[10]~output_o\ $end
$var wire 1 w \S[11]~output_o\ $end
$var wire 1 x \S[12]~output_o\ $end
$var wire 1 y \S[13]~output_o\ $end
$var wire 1 z \S[14]~output_o\ $end
$var wire 1 { \S[15]~output_o\ $end
$var wire 1 | \A[0]~input_o\ $end
$var wire 1 } \A[1]~input_o\ $end
$var wire 1 ~ \A[2]~input_o\ $end
$var wire 1 !! \A[3]~input_o\ $end
$var wire 1 "! \A[4]~input_o\ $end
$var wire 1 #! \A[5]~input_o\ $end
$var wire 1 $! \A[6]~input_o\ $end
$var wire 1 %! \A[7]~input_o\ $end
$var wire 1 &! \A[8]~input_o\ $end
$var wire 1 '! \A[9]~input_o\ $end
$var wire 1 (! \A[10]~input_o\ $end
$var wire 1 )! \A[11]~input_o\ $end
$var wire 1 *! \A[12]~input_o\ $end
$var wire 1 +! \A[13]~input_o\ $end
$upscope $end
$upscope $end
$enddefinitions $end
#0
$dumpvars
0A
1B
xC
1D
1E
1F
1G
1H
1I
0j
0k
0l
0m
0n
0o
0p
0q
0r
0s
0t
0u
0v
0w
0x
0y
0z
0{
0|
0}
0~
0!!
0"!
0#!
0$!
0%!
0&!
0'!
0(!
0)!
0*!
0+!
0!
0"
0#
0$
0%
0&
0'
0(
0)
0*
0+
0,
0-
0.
0/
00
0J
0K
0L
0M
0N
0O
0P
0Q
0R
0S
0T
0U
0V
0W
0X
0Y
0Z
0[
0\
0]
0^
0_
0`
0a
0b
0c
0d
0e
0f
0g
0h
0i
01
02
03
04
05
06
07
08
09
0:
0;
0<
0=
0>
0?
0@
$end
#30000
10
1Y
1|
1n
1g
1>
#60000
00
1/
0Y
1X
1}
0|
0n
1o
0g
1f
0>
1=
#90000
10
1Y
1|
1n
1g
1>
#120000
00
0/
1.
0Y
0X
1W
1~
0}
0|
0n
0o
1p
0g
0f
1e
0>
0=
1<
#150000
10
1Y
1|
1n
1g
1>
#180000
00
1/
0Y
1X
1}
0|
0n
1o
0g
1f
0>
1=
#210000
10
1Y
1|
1n
1g
1>
#240000
00
0/
0.
1-
0Y
0X
0W
1V
1!!
0~
0}
0|
0n
0o
0p
1q
0g
0f
0e
1d
0>
0=
0<
1;
#270000
10
1Y
1|
1n
1g
1>
#300000
00
1/
0Y
1X
1}
0|
0n
1o
0g
1f
0>
1=
#330000
10
1Y
1|
1n
1g
1>
#360000
00
0/
1.
0Y
0X
1W
1~
0}
0|
0n
0o
1p
0g
0f
1e
0>
0=
1<
#390000
10
1Y
1|
1n
1g
1>
#420000
00
1/
0Y
1X
1}
0|
0n
1o
0g
1f
0>
1=
#450000
10
1Y
1|
1n
1g
1>
#480000
00
0/
0.
0-
1,
0Y
0X
0W
0V
1U
1"!
0!!
0~
0}
0|
0n
0o
0p
0q
1r
0g
0f
0e
0d
1c
0>
0=
0<
0;
1:
#510000
10
1Y
1|
1n
1g
1>
#540000
00
1/
0Y
1X
1}
0|
0n
1o
0g
1f
0>
1=
#570000
10
1Y
1|
1n
1g
1>
#600000
00
0/
1.
0Y
0X
1W
1~
0}
0|
0n
0o
1p
0g
0f
1e
0>
0=
1<
#630000
10
1Y
1|
1n
1g
1>
#660000
00
1/
0Y
1X
1}
0|
0n
1o
0g
1f
0>
1=
#690000
10
1Y
1|
1n
1g
1>
#720000
00
0/
0.
1-
0Y
0X
0W
1V
1!!
0~
0}
0|
0n
0o
0p
1q
0g
0f
0e
1d
0>
0=
0<
1;
#750000
10
1Y
1|
1n
1g
1>
#780000
00
1/
0Y
1X
1}
0|
0n
1o
0g
1f
0>
1=
#810000
10
1Y
1|
1n
1g
1>
#840000
00
0/
1.
0Y
0X
1W
1~
0}
0|
0n
0o
1p
0g
0f
1e
0>
0=
1<
#870000
10
1Y
1|
1n
1g
1>
#900000
00
1/
0Y
1X
1}
0|
0n
1o
0g
1f
0>
1=
#930000
10
1Y
1|
1n
1g
1>
#960000
00
0/
0.
0-
0,
1+
0Y
0X
0W
0V
0U
1T
1#!
0"!
0!!
0~
0}
0|
0n
0o
0p
0q
0r
1s
0g
0f
0e
0d
0c
1b
0>
0=
0<
0;
0:
19
#990000
10
1Y
1|
1n
1g
1>
