Componentes/ContadorSinc/simulation/qsim/ContadorSinc.msim.vcd
$comment
	File created using the following command:
		vcd file ContadorSinc.msim.vcd -direction
$end
$date
	Fri Oct 26 15:06:29 2018
$end
$version
	ModelSim Version 10.5b
$end
$timescale
	1ps
$end

$scope module contadorsinc_vhd_vec_tst $end
$var wire 1 ! A $end
$var wire 1 " B $end
$var wire 1 # Clock $end
$var wire 1 $ S0 $end
$var wire 1 % S1 $end
$var wire 1 & S2 $end

$scope module i1 $end
$var wire 1 ' gnd $end
$var wire 1 ( vcc $end
$var wire 1 ) unknown $end
$var wire 1 * devoe $end
$var wire 1 + devclrn $end
$var wire 1 , devpor $end
$var wire 1 - ww_devoe $end
$var wire 1 . ww_devclrn $end
$var wire 1 / ww_devpor $end
$var wire 1 0 ww_A $end
$var wire 1 1 ww_B $end
$var wire 1 2 ww_Clock $end
$var wire 1 3 ww_S0 $end
$var wire 1 4 ww_S1 $end
$var wire 1 5 ww_S2 $end
$var wire 1 6 \S0~output_o\ $end
$var wire 1 7 \S1~output_o\ $end
$var wire 1 8 \S2~output_o\ $end
$var wire 1 9 \Clock~input_o\ $end
$var wire 1 : \A~input_o\ $end
$var wire 1 ; \B~input_o\ $end
$var wire 1 < \G1|Mux0~0_combout\ $end
$var wire 1 = \G1|state~q\ $end
$var wire 1 > \G2|state~0_combout\ $end
$var wire 1 ? \G2|state~q\ $end
$var wire 1 @ \G4|state~0_combout\ $end
$var wire 1 A \G4|state~q\ $end
$var wire 1 B \G1|ALT_INV_state~q\ $end
$var wire 1 C \G2|ALT_INV_state~q\ $end
$var wire 1 D \G4|ALT_INV_state~q\ $end
$var wire 1 E \ALT_INV_A~input_o\ $end
$var wire 1 F \ALT_INV_B~input_o\ $end
$upscope $end
$upscope $end
$enddefinitions $end
#0
$dumpvars
1!
1"
0#
0$
0%
0&
0'
1(
x)
1*
1+
1,
1-
1.
1/
10
11
02
03
04
05
06
07
08
09
1:
1;
1<
0=
0>
0?
0@
0A
1B
1C
1D
0E
0F
$end
#10000
1#
12
19
1=
0B
0<
1>
16
13
1$
#20000
0#
02
09
#30000
1#
12
19
0=
1?
0C
1B
1<
17
06
14
03
1%
0$
#40000
0#
02
09
#50000
1#
12
19
1=
0B
0<
0>
1@
16
13
1$
#60000
0#
02
09
#70000
1#
12
19
0=
0?
1A
0D
1C
1B
1<
18
07
06
15
04
03
1&
0%
0$
#80000
0#
02
09
#90000
1#
12
19
1=
0B
0<
1>
16
13
1$
#100000
0#
02
09
#110000
1#
12
19
0=
1?
0C
1B
1<
17
06
14
03
1%
0$
#120000
0#
02
09
#130000
1#
12
19
1=
0B
0<
0>
0@
16
13
1$
#140000
0#
02
09
#150000
1#
12
19
0=
0?
0A
1D
1C
1B
1<
08
07
06
05
04
03
0&
0%
0$
#160000
0#
02
09
#170000
1#
12
19
1=
0B
0<
1>
16
13
1$
#180000
0#
02
09
#190000
1#
12
19
0=
1?
0C
1B
1<
17
06
14
03
1%
0$
#200000
0#
02
09
#210000
1#
12
19
1=
0B
0<
0>
1@
16
13
1$
#220000
0#
02
09
#230000
1#
12
19
0=
0?
1A
0D
1C
1B
1<
18
07
06
15
04
03
1&
0%
0$
#240000
0#
02
09
#250000
1#
12
19
1=
0B
0<
1>
16
13
1$
#260000
0#
02
09
#270000
1#
12
19
0=
1?
0C
1B
1<
17
06
14
03
1%
0$
#280000
0#
02
09
#290000
1#
12
19
1=
0B
0<
0>
0@
16
13
1$
#300000
0#
02
09
#310000
1#
12
19
0=
0?
0A
1D
1C
1B
1<
08
07
06
05
04
03
0&
0%
0$
#320000
0#
02
09
#330000
1#
12
19
1=
0B
0<
1>
16
13
1$
#340000
0#
02
09
#350000
1#
12
19
0=
1?
0C
1B
1<
17
06
14
03
1%
0$
#360000
0#
02
09
#370000
1#
12
19
1=
0B
0<
0>
1@
16
13
1$
#380000
0#
02
09
#390000
1#
12
19
0=
0?
1A
0D
1C
1B
1<
18
07
06
15
04
03
1&
0%
0$
#400000
0#
02
09
#410000
1#
12
19
1=
0B
0<
1>
16
13
1$
#420000
0#
02
09
#430000
1#
12
19
0=
1?
0C
1B
1<
17
06
14
03
1%
0$
#440000
0#
02
09
#450000
1#
12
19
1=
0B
0<
0>
0@
16
13
1$
#460000
0#
02
09
#470000
1#
12
19
0=
0?
0A
1D
1C
1B
1<
08
07
06
05
04
03
0&
0%
0$
#480000
0#
02
09
#490000
1#
12
19
1=
0B
0<
1>
16
13
1$
#500000
0#
02
09
#510000
1#
12
19
0=
1?
0C
1B
1<
17
06
14
03
1%
0$
#520000
0#
02
09
#530000
1#
12
19
1=
0B
0<
0>
1@
16
13
1$
#540000
0#
02
09
#550000
1#
12
19
0=
0?
1A
0D
1C
1B
1<
18
07
06
15
04
03
1&
0%
0$
#560000
0#
02
09
#570000
1#
12
19
1=
0B
0<
1>
16
13
1$
#580000
0#
02
09
#590000
1#
12
19
0=
1?
0C
1B
1<
17
06
14
03
1%
0$
#600000
0#
02
09
#610000
1#
12
19
1=
0B
0<
0>
0@
16
13
1$
#620000
0#
02
09
#630000
1#
12
19
0=
0?
0A
1D
1C
1B
1<
08
07
06
05
04
03
0&
0%
0$
#640000
0#
02
09
#650000
1#
12
19
1=
0B
0<
1>
16
13
1$
#660000
0#
02
09
#670000
1#
12
19
0=
1?
0C
1B
1<
17
06
14
03
1%
0$
#680000
0#
02
09
#690000
1#
12
19
1=
0B
0<
0>
1@
16
13
1$
#700000
0#
02
09
#710000
1#
12
19
0=
0?
1A
0D
1C
1B
1<
18
07
06
15
04
03
1&
0%
0$
#720000
0#
02
09
#730000
1#
12
19
1=
0B
0<
1>
16
13
1$
#740000
0#
02
09
#750000
1#
12
19
0=
1?
0C
1B
1<
17
06
14
03
1%
0$
#760000
0#
02
09
#770000
1#
12
19
1=
0B
0<
0>
0@
16
13
1$
#780000
0#
02
09
#790000
1#
12
19
0=
0?
0A
1D
1C
1B
1<
08
07
06
05
04
03
0&
0%
0$
#800000
0#
02
09
#810000
1#
12
19
1=
0B
0<
1>
16
13
1$
#820000
0#
02
09
#830000
1#
12
19
0=
1?
0C
1B
1<
17
06
14
03
1%
0$
#840000
0#
02
09
#850000
1#
12
19
1=
0B
0<
0>
1@
16
13
1$
#860000
0#
02
09
#870000
1#
12
19
0=
0?
1A
0D
1C
1B
1<
18
07
06
15
04
03
1&
0%
0$
#880000
0#
02
09
#890000
1#
12
19
1=
0B
0<
1>
16
13
1$
#900000
0#
02
09
#910000
1#
12
19
0=
1?
0C
1B
1<
17
06
14
03
1%
0$
#920000
0#
02
09
#930000
1#
12
19
1=
0B
0<
0>
0@
16
13
1$
#940000
0#
02
09
#950000
1#
12
19
0=
0?
0A
1D
1C
1B
1<
08
07
06
05
04
03
0&
0%
0$
#960000
0#
02
09
#970000
1#
12
19
1=
0B
0<
1>
16
13
1$
#980000
0#
02
09
#990000
1#
12
19
0=
1?
0C
1B
1<
17
06
14
03
1%
0$
